# This file uses centimeters as units for non-parametric coordinates.

mtllib Sliding_Door_Obstacle.mtl
g default
v 9.908810 16.074364 -1.236094
v 9.908810 16.074364 0.652926
v 9.908810 -2.230171 0.652926
v 9.908810 -2.230171 -1.236094
v 9.801632 16.474327 -1.236094
v 9.801632 16.474327 0.652926
v 9.508862 16.767113 -1.236094
v 9.508862 16.767113 0.652926
v 9.108883 16.874290 -1.236094
v 9.108883 16.874290 0.652926
v -9.291264 16.874290 -1.236094
v -9.291264 16.874290 0.652926
v -9.691227 16.767113 -1.236094
v -9.691227 16.767113 0.652926
v -9.984013 16.474327 -1.236094
v -9.984013 16.474327 0.652926
v -10.091188 16.074364 -1.236094
v -10.091188 16.074364 0.652926
v -10.091175 -2.230171 0.652926
v -10.091188 -2.230171 -1.236094
vt 0.775760 0.321081
vt 0.746566 0.321237
vt 0.745048 0.038343
vt 0.774242 0.038187
vt 0.775794 0.327480
vt 0.746600 0.327637
vt 0.775828 0.333879
vt 0.746634 0.334036
vt 0.775863 0.340279
vt 0.746669 0.340435
vt 0.777388 0.624650
vt 0.748194 0.624807
vt 0.777423 0.631050
vt 0.748228 0.631206
vt 0.777457 0.637449
vt 0.748263 0.637606
vt 0.777491 0.643848
vt 0.748297 0.644005
vt 0.749815 0.926899
vt 0.779009 0.926742
vt 0.419434 0.542610
vt 0.419432 0.259713
vt 0.728532 0.259712
vt 0.728533 0.542608
vt 0.728551 0.542590
vt 0.726895 0.548772
vt 0.421108 0.548811
vt 0.419451 0.542629
vt 0.421090 0.548791
vt 0.726877 0.548790
vt 0.425615 0.553316
vt 0.722352 0.553315
vt 0.431797 0.554972
vt 0.716171 0.554971
vt 0.728515 0.259694
vt 0.419415 0.259733
vt 0.722371 0.553298
vt 0.716189 0.554955
vt 0.431815 0.554990
vt 0.425634 0.553335
vn 1.000000 0.000000 0.000000
vn 1.000000 0.000000 0.000000
vn 1.000000 0.000000 0.000000
vn 1.000000 0.000000 0.000000
vn 0.999984 0.005730 0.000000
vn 0.999984 0.005730 0.000000
vn 0.866031 0.499990 0.000000
vn 0.866031 0.499990 0.000000
vn 0.866031 0.499990 0.000000
vn 0.866031 0.499990 0.000000
vn 0.500005 0.866023 0.000000
vn 0.500005 0.866023 0.000000
vn 0.500005 0.866023 0.000000
vn 0.500005 0.866023 0.000000
vn 0.005701 0.999984 0.000000
vn 0.005701 0.999984 0.000000
vn 0.005701 0.999984 0.000000
vn 0.005701 0.999984 0.000000
vn -0.005701 0.999984 0.000000
vn -0.005701 0.999984 0.000000
vn -0.005701 0.999984 0.000000
vn -0.005701 0.999984 0.000000
vn -0.500004 0.866023 0.000000
vn -0.500004 0.866023 0.000000
vn -0.500004 0.866023 0.000000
vn -0.500004 0.866023 0.000000
vn -0.866023 0.500004 0.000000
vn -0.866023 0.500004 0.000000
vn -0.866023 0.500004 0.000000
vn -0.866023 0.500004 0.000000
vn -0.999984 0.005730 0.000004
vn -0.999984 0.005730 0.000004
vn -1.000000 0.000000 0.000004
vn -0.999984 0.005730 0.000004
vn -0.999984 0.005730 0.000004
vn -1.000000 0.000000 0.000004
vn 0.000000 0.000000 -1.000000
vn 0.000000 0.000000 -1.000000
vn 0.000000 0.000000 -1.000000
vn 0.000000 0.000000 -1.000000
vn 0.000000 0.000000 1.000000
vn 0.000000 0.000000 1.000000
vn 0.000000 0.000000 1.000000
vn 0.000000 0.000000 1.000000
vn 0.000000 0.000000 -1.000000
vn 0.000000 0.000000 -1.000000
vn 0.000000 0.000000 -1.000000
vn 0.000000 0.000000 -1.000000
vn 0.000000 0.000000 -1.000000
vn 0.000000 0.000000 -1.000000
vn 0.000000 0.000000 -1.000000
vn 0.000000 0.000000 -1.000000
vn 0.000000 0.000000 -1.000000
vn 0.000000 0.000000 -1.000000
vn 0.000000 0.000000 -1.000000
vn 0.000000 0.000000 -1.000000
vn 0.000000 0.000000 1.000000
vn 0.000000 0.000000 1.000000
vn 0.000000 0.000000 1.000000
vn 0.000000 0.000000 1.000000
vn 0.000000 0.000000 1.000000
vn 0.000000 0.000000 1.000000
vn 0.000000 0.000000 1.000000
vn 0.000000 0.000000 1.000000
vn 0.000000 0.000000 1.000000
vn 0.000000 0.000000 1.000000
vn 0.000000 0.000000 1.000000
vn 0.000000 0.000000 1.000000
s off
g Sliding_Door
usemtl initialShadingGroup
f 1/1/1 2/2/2 3/3/3 4/4/4
f 2/2/5 1/1/6 5/5/7 6/6/8
f 6/6/9 5/5/10 7/7/11 8/8/12
f 8/8/13 7/7/14 9/9/15 10/10/16
f 10/10/17 9/9/18 11/11/19 12/12/20
f 12/12/21 11/11/22 13/13/23 14/14/24
f 14/14/25 13/13/26 15/15/27 16/16/28
f 16/16/29 15/15/30 17/17/31 18/18/32
f 19/19/33 18/18/34 17/17/35 20/20/36
f 1/21/37 4/22/38 20/23/39 17/24/40
f 2/25/41 6/26/42 16/27/43 18/28/44
f 5/29/45 1/21/46 17/24/47 15/30/48
f 7/31/49 5/29/50 15/30/51 13/32/52
f 9/33/53 7/31/54 13/32/55 11/34/56
f 3/35/57 2/25/58 18/28/59 19/36/60
f 8/37/61 10/38/62 12/39/63 14/40/64
f 6/26/65 8/37/66 14/40/67 16/27/68
g default
v 9.908810 0.969933 0.708416
v 9.908810 0.969933 2.708416
v 9.908810 -2.230141 2.708416
v 9.908810 -2.230141 0.708416
v 9.801633 1.369896 0.708415
v 9.801632 1.369896 2.708416
v 9.508862 1.662682 0.708416
v 9.508862 1.662682 2.708416
v 9.108883 1.769857 0.708416
v 9.108883 1.769857 2.708416
v -9.291264 1.769857 0.708416
v -9.291264 1.769857 2.708416
v -9.691227 1.662682 0.708416
v -9.691227 1.662682 2.708416
v -9.984013 1.369896 0.708416
v -9.984013 1.369896 2.708416
v -10.091188 0.969933 0.708416
v -10.091188 0.969933 2.708416
v -10.091175 -2.230141 2.708416
v -10.091188 -2.230141 0.708416
v 9.908810 0.969933 -3.291583
v 9.908810 0.969933 -1.291584
v 9.908810 -2.230141 -1.291584
v 9.908810 -2.230141 -3.291583
v 9.801632 1.369896 -3.291583
v 9.801632 1.369896 -1.291584
v 9.508862 1.662682 -3.291583
v 9.508862 1.662682 -1.291584
v 9.108883 1.769857 -3.291583
v 9.108883 1.769857 -1.291584
v -9.291264 1.769857 -3.291583
v -9.291264 1.769857 -1.291584
v -9.691227 1.662682 -3.291583
v -9.691227 1.662682 -1.291584
v -9.984013 1.369896 -3.291583
v -9.984013 1.369896 -1.291584
v -10.091188 0.969933 -3.291583
v -10.091188 0.969933 -1.291584
v -10.091175 -2.230141 -1.291584
v -10.091188 -2.230141 -3.291583
vt 0.683013 0.178696
vt 0.683008 0.147786
vt 0.732465 0.147777
vt 0.732470 0.178687
vt 0.676614 0.178697
vt 0.676608 0.147787
vt 0.670215 0.178698
vt 0.670209 0.147788
vt 0.663815 0.178699
vt 0.663809 0.147790
vt 0.379441 0.178751
vt 0.379435 0.147841
vt 0.373042 0.178752
vt 0.373036 0.147842
vt 0.366642 0.178753
vt 0.366637 0.147843
vt 0.360243 0.178754
vt 0.360237 0.147844
vt 0.310780 0.147853
vt 0.310785 0.178763
vt 0.346169 0.270379
vt 0.395625 0.270746
vt 0.393333 0.579837
vt 0.343877 0.579470
vt 0.335417 0.276480
vt 0.339976 0.271989
vt 0.337709 0.577768
vt 0.333217 0.573209
vt 0.333715 0.282650
vt 0.331607 0.567016
vt 0.683008 0.178748
vt 0.683013 0.147838
vt 0.732470 0.147845
vt 0.732466 0.178755
vt 0.676609 0.178747
vt 0.676613 0.147837
vt 0.670210 0.178746
vt 0.670214 0.147836
vt 0.663810 0.178745
vt 0.663815 0.147835
vt 0.379436 0.178705
vt 0.379440 0.147795
vt 0.373037 0.178704
vt 0.373041 0.147794
vt 0.366637 0.178703
vt 0.366642 0.147793
vt 0.360238 0.178702
vt 0.360242 0.147792
vt 0.310785 0.147785
vt 0.310781 0.178695
vt 0.343860 0.579467
vt 0.337691 0.577764
vt 0.339994 0.271986
vt 0.346187 0.270376
vt 0.393315 0.579839
vt 0.395643 0.270749
vt 0.333200 0.573205
vt 0.331590 0.567012
vt 0.333732 0.282646
vt 0.335435 0.276477
vn 1.000000 0.000000 0.000000
vn 1.000000 0.000000 0.000000
vn 1.000000 0.000000 0.000000
vn 1.000000 0.000000 0.000000
vn 0.999557 0.029758 0.000000
vn 0.999557 0.029758 0.000000
vn 0.866031 0.499991 0.000000
vn 0.866031 0.499991 0.000000
vn 0.866031 0.499991 0.000000
vn 0.866031 0.499991 0.000000
vn 0.500004 0.866023 0.000000
vn 0.500004 0.866023 0.000000
vn 0.500004 0.866023 0.000000
vn 0.500004 0.866023 0.000000
vn 0.005701 0.999984 0.000000
vn 0.005701 0.999984 0.000000
vn 0.005701 0.999984 0.000000
vn 0.005701 0.999984 0.000000
vn -0.005701 0.999984 0.000000
vn -0.005701 0.999984 0.000000
vn -0.005701 0.999984 0.000000
vn -0.005701 0.999984 0.000000
vn -0.500004 0.866023 0.000000
vn -0.500004 0.866023 0.000000
vn -0.500004 0.866023 0.000000
vn -0.500004 0.866023 0.000000
vn -0.866023 0.500004 0.000000
vn -0.866023 0.500004 0.000000
vn -0.866023 0.500004 0.000000
vn -0.866023 0.500004 0.000000
vn -0.999557 0.029756 0.000003
vn -0.999557 0.029756 0.000003
vn -1.000000 -0.000002 0.000004
vn -0.999557 0.029756 0.000003
vn -0.999557 0.029756 0.000003
vn -1.000000 -0.000002 0.000004
vn 0.000000 0.000000 -1.000000
vn 0.000000 0.000000 -1.000000
vn 0.000000 0.000000 -1.000000
vn 0.000000 0.000000 -1.000000
vn 0.000000 0.000002 -1.000000
vn 0.000000 -0.000001 -1.000000
vn 0.000000 -0.000001 -1.000000
vn 0.000000 0.000002 -1.000000
vn 0.000000 -0.000001 -1.000000
vn 0.000000 0.000000 -1.000000
vn 0.000000 0.000000 -1.000000
vn 0.000000 -0.000001 -1.000000
vn 0.000000 0.000000 -1.000000
vn 0.000000 0.000002 -1.000000
vn 0.000000 0.000002 -1.000000
vn 0.000000 0.000000 -1.000000
vn 0.999557 0.029758 0.000000
vn 0.999557 0.029758 0.000000
vn 1.000000 0.000000 0.000000
vn 1.000000 0.000000 0.000000
vn 0.999557 0.029758 0.000000
vn 0.999557 0.029758 0.000000
vn 0.866031 0.499990 0.000000
vn 0.866031 0.499990 0.000000
vn 0.866031 0.499990 0.000000
vn 0.866031 0.499990 0.000000
vn 0.500004 0.866023 0.000000
vn 0.500004 0.866023 0.000000
vn 0.500004 0.866023 0.000000
vn 0.500004 0.866023 0.000000
vn 0.005701 0.999984 0.000000
vn 0.005701 0.999984 0.000000
vn 0.005701 0.999984 0.000000
vn 0.005701 0.999984 0.000000
vn -0.005701 0.999984 0.000000
vn -0.005701 0.999984 0.000000
vn -0.005701 0.999984 0.000000
vn -0.005701 0.999984 0.000000
vn -0.500004 0.866023 0.000000
vn -0.500004 0.866023 0.000000
vn -0.500004 0.866023 0.000000
vn -0.500004 0.866023 0.000000
vn -0.866023 0.500004 0.000000
vn -0.866023 0.500004 0.000000
vn -0.866023 0.500004 0.000000
vn -0.866023 0.500004 0.000000
vn -0.999557 0.029756 0.000003
vn -0.999557 0.029756 0.000003
vn -1.000000 -0.000002 0.000004
vn -0.999557 0.029756 0.000003
vn -0.999557 0.029756 0.000003
vn -1.000000 -0.000002 0.000004
vn 0.000000 0.000000 1.000000
vn 0.000000 0.000000 1.000000
vn 0.000000 0.000000 1.000000
vn 0.000000 0.000000 1.000000
vn 0.000000 0.000000 1.000000
vn 0.000000 0.000000 1.000000
vn 0.000000 0.000000 1.000000
vn 0.000000 0.000000 1.000000
vn 0.000000 0.000000 1.000000
vn 0.000000 0.000000 1.000000
vn 0.000000 0.000000 1.000000
vn 0.000000 0.000000 1.000000
vn 0.000000 0.000000 1.000000
vn 0.000000 0.000000 1.000000
vn 0.000000 0.000000 1.000000
vn 0.000000 0.000000 1.000000
s off
g Sliding_Door_Base
usemtl initialShadingGroup
f 21/41/69 22/42/70 23/43/71 24/44/72
f 22/42/73 21/41/74 25/45/75 26/46/76
f 26/46/77 25/45/78 27/47/79 28/48/80
f 28/48/81 27/47/82 29/49/83 30/50/84
f 30/50/85 29/49/86 31/51/87 32/52/88
f 32/52/89 31/51/90 33/53/91 34/54/92
f 34/54/93 33/53/94 35/55/95 36/56/96
f 36/56/97 35/55/98 37/57/99 38/58/100
f 39/59/101 38/58/102 37/57/103 40/60/104
f 21/61/105 24/62/106 40/63/107 37/64/108
f 27/65/109 25/66/110 35/67/111 33/68/112
f 25/66/113 21/61/114 37/64/115 35/67/116
f 29/69/117 27/65/118 33/68/119 31/70/120
f 41/71/121 42/72/122 43/73/123 44/74/124
f 42/72/125 41/71/126 45/75/127 46/76/128
f 46/76/129 45/75/130 47/77/131 48/78/132
f 48/78/133 47/77/134 49/79/135 50/80/136
f 50/80/137 49/79/138 51/81/139 52/82/140
f 52/82/141 51/81/142 53/83/143 54/84/144
f 54/84/145 53/83/146 55/85/147 56/86/148
f 56/86/149 55/85/150 57/87/151 58/88/152
f 59/89/153 58/88/154 57/87/155 60/90/156
f 42/91/157 46/92/158 56/93/159 58/94/160
f 43/95/161 42/91/162 58/94/163 59/96/164
f 48/97/165 50/98/166 52/99/167 54/100/168
f 46/92/169 48/97/170 54/100/171 56/93/172
