# This file uses centimeters as units for non-parametric coordinates.

mtllib Bag_Obstacle.mtl
g default
v 2.023378 -2.403887 -0.657434
v 1.882702 -3.976364 -0.611726
v 1.601522 -3.976364 -1.163572
v 1.721189 -2.403887 -1.250515
v 1.163574 -3.976364 -1.601520
v 1.250515 -2.403887 -1.721187
v 0.611727 -3.976364 -1.882699
v 0.657436 -2.403887 -2.023376
v 0.000000 -3.976364 -1.979588
v 0.000000 -2.403887 -2.127503
v -0.611727 -3.976364 -1.882699
v -0.657433 -2.403887 -2.023376
v -1.163570 -3.976364 -1.601520
v -1.250515 -2.403887 -1.721186
v -1.601517 -3.976364 -1.163572
v -1.721184 -2.403887 -1.250515
v -1.882698 -3.976364 -0.611726
v -2.023373 -2.403887 -0.657434
v -1.979586 -3.976364 0.000001
v -2.127504 -2.403887 0.000001
v -1.882698 -3.976364 0.611727
v -2.023373 -2.403887 0.657435
v -1.601517 -3.976364 1.163573
v -1.721184 -2.403887 1.250516
v -1.163570 -3.976364 1.601520
v -1.250515 -2.403887 1.721187
v -0.611727 -3.976364 1.882700
v -0.657433 -2.403887 2.023376
v 0.000000 -3.976364 1.979588
v 0.000000 -2.403887 2.127503
v 0.611727 -3.976364 1.882700
v 0.657436 -2.403887 2.023376
v 1.163574 -3.976364 1.601520
v 1.250515 -2.403887 1.721186
v 1.601522 -3.976364 1.163573
v 1.721188 -2.403887 1.250515
v 1.882702 -3.976364 0.611727
v 2.023376 -2.403887 0.657435
v 2.127504 -2.403887 0.000001
v 1.979589 -3.976364 0.000001
v 1.687834 5.012871 -0.548410
v 1.435757 5.012871 -1.043138
v 0.000000 5.045044 0.000001
v 1.043140 5.012871 -1.435756
v 0.548410 5.012871 -1.687832
v 0.000000 5.012871 -1.774692
v -0.548410 5.012871 -1.687832
v -1.043137 5.012871 -1.435756
v -1.435757 5.012871 -1.043137
v -1.687832 5.012871 -0.548409
v -1.774693 5.012871 0.000001
v -1.687832 5.012871 0.548410
v -1.435757 5.012871 1.043138
v -1.043135 5.012871 1.435756
v -0.548410 5.012871 1.687832
v 0.000000 5.012871 1.774692
v 0.548410 5.012871 1.687833
v 1.043140 5.012871 1.435756
v 1.435757 5.012871 1.043138
v 1.687832 5.012871 0.548410
v 1.774694 5.012871 0.000000
v 1.916269 4.972164 0.000000
v 1.979589 4.878973 0.000001
v 1.882702 4.878973 -0.611726
v 1.822483 4.972164 -0.592159
v 1.550295 4.972164 -1.126354
v 1.601522 4.878973 -1.163572
v 1.126356 4.972164 -1.550293
v 1.163574 4.878973 -1.601520
v 0.592161 4.972164 -1.822479
v 0.611727 4.878973 -1.882699
v 0.000000 4.972164 -1.916268
v 0.000000 4.878973 -1.979588
v -0.592157 4.972164 -1.822479
v -0.611727 4.878973 -1.882699
v -1.126352 4.972164 -1.550293
v -1.163570 4.878973 -1.601520
v -1.550293 4.972164 -1.126354
v -1.601517 4.878973 -1.163572
v -1.822477 4.972164 -0.592159
v -1.882698 4.878973 -0.611726
v -1.916265 4.972164 0.000001
v -1.979586 4.878973 0.000001
v -1.822477 4.972164 0.592160
v -1.882698 4.878973 0.611727
v -1.550293 4.972164 1.126354
v -1.601517 4.878973 1.163573
v -1.126352 4.972164 1.550293
v -1.163570 4.878973 1.601520
v -0.592157 4.972164 1.822479
v -0.611727 4.878973 1.882700
v 0.000000 4.972164 1.916268
v 0.000000 4.878973 1.979588
v 0.592161 4.972164 1.822479
v 0.611727 4.878973 1.882700
v 1.126356 4.972164 1.550293
v 1.163574 4.878973 1.601520
v 1.550293 4.972164 1.126354
v 1.601522 4.878973 1.163573
v 1.822481 4.972164 0.592160
v 1.882702 4.878973 0.611727
v 1.084272 -3.969555 -0.352300
v 0.922337 -3.969555 -0.670115
v 0.670118 -3.969555 -0.922335
v 0.352303 -3.969555 -1.084269
v 0.000000 -3.969555 -1.140068
v -0.352299 -3.969555 -1.084269
v -0.670113 -3.969555 -0.922334
v -0.922333 -3.969555 -0.670115
v -1.084267 -3.969555 -0.352300
v -1.140066 -3.969555 0.000000
v -1.084267 -3.969555 0.352300
v -0.922333 -3.969555 0.670116
v -0.670113 -3.969555 0.922335
v -0.352299 -3.969555 1.084270
v 0.000000 -3.969555 1.140068
v 0.352303 -3.969555 1.084270
v 0.670115 -3.969555 0.922335
v 0.922337 -3.969555 0.670116
v 1.084270 -3.969555 0.352300
v 1.140070 -3.969555 0.000000
v 1.072245 -4.658892 -0.348393
v 0.912107 -4.658892 -0.662684
v 0.662683 -4.658892 -0.912106
v 0.348396 -4.658892 -1.072245
v 0.000000 -4.658892 -1.127425
v -0.348391 -4.658892 -1.072245
v -0.662682 -4.658892 -0.912106
v -0.912106 -4.658892 -0.662684
v -1.072243 -4.658892 -0.348393
v -1.127424 -4.658892 0.000000
v -1.072243 -4.658892 0.348393
v -0.912106 -4.658892 0.662684
v -0.662682 -4.658892 0.912107
v -0.348391 -4.658892 1.072246
v 0.000000 -4.658892 1.127426
v 0.348392 -4.658892 1.072246
v 0.662683 -4.658892 0.912106
v 0.912106 -4.658892 0.662684
v 1.072245 -4.658892 0.348393
v 1.127428 -4.658892 0.000000
v 1.250515 3.306002 1.721186
v 0.657436 3.306002 2.023376
v 0.000000 3.306002 2.127503
v -0.657433 3.306002 2.023376
v -1.250515 3.306002 1.721187
v -1.721184 3.306002 1.250516
v -2.023373 3.306002 0.657435
v -2.127504 3.306002 0.000001
v -2.023373 3.306002 -0.657434
v -1.721184 3.306002 -1.250515
v -1.250515 3.306002 -1.721186
v -0.657433 3.306002 -2.023376
v 0.000000 3.306002 -2.127503
v 0.657436 3.306002 -2.023376
v 1.250515 3.306002 -1.721187
v 1.721189 3.306002 -1.250515
v 2.023378 3.306002 -0.657434
v 2.127504 3.306002 0.000001
v 2.023376 3.306002 0.657435
v 1.721188 3.306002 1.250515
v 1.304264 1.443607 1.795163
v 0.685694 1.443607 2.110340
v 0.000000 1.443607 2.218943
v -0.685688 1.443607 2.110340
v -1.304260 1.443607 1.795163
v -1.795160 1.443607 1.304262
v -2.110340 1.443607 0.685692
v -2.218941 1.443607 0.000001
v -2.110340 1.443607 -0.685690
v -1.795160 1.443607 -1.304261
v -1.304260 1.443607 -1.795162
v -0.685690 1.443607 -2.110340
v 0.000000 1.443607 -2.218943
v 0.685694 1.443607 -2.110340
v 1.304264 1.443607 -1.795163
v 1.795166 1.443607 -1.304262
v 2.110342 1.443607 -0.685691
v 2.218943 1.443607 0.000001
v 2.110342 1.443607 0.685692
v 1.795162 1.443607 1.304262
v 1.304264 -0.541492 1.795163
v 0.685694 -0.541492 2.110340
v 0.000000 -0.541492 2.218943
v -0.685688 -0.541492 2.110340
v -1.304260 -0.541492 1.795163
v -1.795160 -0.541492 1.304262
v -2.110340 -0.541492 0.685692
v -2.218941 -0.541492 0.000001
v -2.110340 -0.541492 -0.685690
v -1.795160 -0.541492 -1.304261
v -1.304260 -0.541492 -1.795162
v -0.685690 -0.541492 -2.110340
v 0.000000 -0.541492 -2.218943
v 0.685694 -0.541492 -2.110340
v 1.304264 -0.541492 -1.795163
v 1.795166 -0.541492 -1.304262
v 2.110342 -0.541492 -0.685691
v 2.218943 -0.541492 0.000001
v 2.110342 -0.541492 0.685692
v 1.795162 -0.541492 1.304262
v 1.700338 -4.765453 0.000000
v 1.617123 -4.765453 -0.525434
v 1.528597 -4.695566 -0.496670
v 1.607258 -4.695566 0.000000
v 1.375605 -4.765453 -0.999434
v 1.300303 -4.695566 -0.944723
v 0.999437 -4.765453 -1.375605
v 0.944725 -4.695566 -1.300300
v 0.525434 -4.765453 -1.617121
v 0.496672 -4.695566 -1.528594
v 0.000000 -4.765453 -1.700339
v 0.000000 -4.695566 -1.607258
v -0.525434 -4.765453 -1.617121
v -0.496668 -4.695566 -1.528593
v -0.999432 -4.765453 -1.375605
v -0.944721 -4.695566 -1.300300
v -1.375605 -4.765453 -0.999434
v -1.300299 -4.695566 -0.944723
v -1.617119 -4.765453 -0.525434
v -1.528591 -4.695566 -0.496669
v -1.607256 -4.695566 0.000000
v -1.700336 -4.765453 0.000000
v -1.528591 -4.695566 0.496670
v -1.617119 -4.765453 0.525434
v -1.375605 -4.765453 0.999435
v -1.300299 -4.695566 0.944723
v -0.999432 -4.765453 1.375605
v -0.944721 -4.695566 1.300300
v -0.525434 -4.765453 1.617121
v -0.496668 -4.695566 1.528594
v 0.000000 -4.765453 1.700339
v 0.000000 -4.695566 1.607258
v 0.525434 -4.765453 1.617121
v 0.496672 -4.695566 1.528593
v 0.999434 -4.765453 1.375605
v 0.944725 -4.695566 1.300300
v 1.375605 -4.765453 0.999434
v 1.300303 -4.695566 0.944723
v 1.617123 -4.765453 0.525434
v 1.528595 -4.695566 0.496670
v 1.617123 -5.045042 -0.525434
v 1.375605 -5.045042 -0.999434
v 0.999437 -5.045042 -1.375605
v 0.525434 -5.045042 -1.617121
v 0.000000 -5.045042 -1.700339
v -0.525434 -5.045042 -1.617121
v -0.999432 -5.045042 -1.375605
v -1.375605 -5.045042 -0.999434
v -1.617119 -5.045042 -0.525434
v -1.700336 -5.045042 0.000000
v -1.617119 -5.045042 0.525434
v -1.375605 -5.045042 0.999435
v -0.999432 -5.045042 1.375605
v -0.525434 -5.045042 1.617121
v 0.000000 -5.045042 1.700339
v 0.525434 -5.045042 1.617121
v 0.999434 -5.045042 1.375605
v 1.375605 -5.045042 0.999434
v 1.617123 -5.045042 0.525434
v 1.700338 -5.045042 0.000000
v 0.000000 -4.695566 0.000000
vt 0.582269 0.600182
vt 0.582269 0.572722
vt 0.593757 0.572722
vt 0.593757 0.600182
vt 0.605323 0.572722
vt 0.605324 0.600182
vt 0.616880 0.572722
vt 0.616880 0.600182
vt 0.628425 0.572722
vt 0.628425 0.600182
vt 0.639956 0.572722
vt 0.639956 0.600182
vt 0.651468 0.572722
vt 0.651468 0.600182
vt 0.662957 0.572722
vt 0.662957 0.600182
vt 0.674419 0.572722
vt 0.674419 0.600182
vt 0.685846 0.572722
vt 0.685846 0.600182
vt 0.697227 0.572722
vt 0.697227 0.600182
vt 0.478692 0.572722
vt 0.478692 0.600182
vt 0.467311 0.600182
vt 0.467311 0.572722
vt 0.490119 0.572722
vt 0.490119 0.600182
vt 0.501581 0.572722
vt 0.501581 0.600182
vt 0.513071 0.572722
vt 0.513071 0.600182
vt 0.524583 0.572722
vt 0.524583 0.600182
vt 0.536113 0.572722
vt 0.536113 0.600182
vt 0.547658 0.572722
vt 0.547658 0.600182
vt 0.559215 0.572722
vt 0.559215 0.600182
vt 0.570781 0.600182
vt 0.570782 0.572722
vt 0.427793 0.654794
vt 0.418587 0.657684
vt 0.414065 0.627178
vt 0.408939 0.657589
vt 0.399792 0.654516
vt 0.392043 0.648767
vt 0.386449 0.640905
vt 0.383559 0.631699
vt 0.383655 0.622051
vt 0.386727 0.612904
vt 0.392476 0.605155
vt 0.400338 0.599561
vt 0.409544 0.596671
vt 0.419192 0.596767
vt 0.428339 0.599840
vt 0.436088 0.605588
vt 0.441682 0.613450
vt 0.444572 0.622656
vt 0.444476 0.632304
vt 0.441404 0.641451
vt 0.435655 0.649200
vt 0.437447 0.651030
vt 0.438818 0.652435
vt 0.429802 0.658848
vt 0.428932 0.657088
vt 0.418961 0.660218
vt 0.419245 0.662161
vt 0.408512 0.660114
vt 0.408182 0.662049
vt 0.398606 0.656786
vt 0.397694 0.658524
vt 0.390213 0.650559
vt 0.388808 0.651931
vt 0.384155 0.642044
vt 0.382396 0.642915
vt 0.381025 0.632074
vt 0.379083 0.632358
vt 0.381129 0.621624
vt 0.379194 0.621294
vt 0.384458 0.611718
vt 0.382719 0.610806
vt 0.390684 0.603326
vt 0.389312 0.601921
vt 0.399199 0.597268
vt 0.398329 0.595508
vt 0.409169 0.594138
vt 0.408886 0.592195
vt 0.419619 0.594242
vt 0.419949 0.592306
vt 0.429525 0.597570
vt 0.430437 0.595832
vt 0.437918 0.603796
vt 0.439322 0.602425
vt 0.443975 0.612311
vt 0.445735 0.611441
vt 0.447106 0.622282
vt 0.449048 0.621998
vt 0.447001 0.632731
vt 0.448937 0.633062
vt 0.443673 0.642637
vt 0.445412 0.643549
vt 0.436889 0.692722
vt 0.443985 0.700822
vt 0.431636 0.708605
vt 0.427550 0.703940
vt 0.427637 0.687211
vt 0.422221 0.700767
vt 0.416173 0.699395
vt 0.417135 0.684830
vt 0.409997 0.699960
vt 0.406410 0.685810
vt 0.404298 0.702405
vt 0.396514 0.690057
vt 0.399633 0.706492
vt 0.388415 0.697153
vt 0.396460 0.711821
vt 0.382904 0.706405
vt 0.395088 0.717869
vt 0.380523 0.716907
vt 0.395653 0.724045
vt 0.381503 0.727631
vt 0.398098 0.729744
vt 0.385749 0.737527
vt 0.402185 0.734409
vt 0.392846 0.745627
vt 0.407513 0.737582
vt 0.402098 0.751137
vt 0.413562 0.738954
vt 0.412600 0.753519
vt 0.419737 0.738389
vt 0.423324 0.752539
vt 0.425437 0.735943
vt 0.433220 0.748293
vt 0.430101 0.731857
vt 0.441320 0.741196
vt 0.446830 0.731944
vt 0.433275 0.726528
vt 0.449212 0.721442
vt 0.434646 0.720480
vt 0.448231 0.710718
vt 0.434082 0.714304
vt 0.225715 0.389575
vt 0.215331 0.388386
vt 0.215213 0.382859
vt 0.225455 0.380781
vt 0.213391 0.377639
vt 0.222486 0.372494
vt 0.210043 0.373238
vt 0.217097 0.365531
vt 0.205496 0.370089
vt 0.209822 0.360578
vt 0.200201 0.368498
vt 0.201370 0.358115
vt 0.194674 0.368625
vt 0.192573 0.358389
vt 0.189456 0.370455
vt 0.184297 0.361368
vt 0.185058 0.373811
vt 0.177351 0.366747
vt 0.181903 0.378350
vt 0.172395 0.374009
vt 0.180307 0.383643
vt 0.169924 0.382454
vt 0.180426 0.389170
vt 0.170187 0.391253
vt 0.182250 0.394391
vt 0.173157 0.399537
vt 0.185597 0.398792
vt 0.178544 0.406500
vt 0.190143 0.401941
vt 0.185822 0.411454
vt 0.195439 0.403530
vt 0.194272 0.413912
vt 0.200969 0.403403
vt 0.203060 0.413642
vt 0.206190 0.401580
vt 0.211340 0.410673
vt 0.210591 0.398231
vt 0.218299 0.405288
vt 0.213741 0.393686
vt 0.223251 0.398015
vt 0.536113 0.701544
vt 0.536113 0.729013
vt 0.524583 0.729013
vt 0.524583 0.701544
vt 0.513071 0.729013
vt 0.513071 0.701544
vt 0.501581 0.729013
vt 0.501581 0.701544
vt 0.490119 0.729013
vt 0.490119 0.701544
vt 0.478692 0.729013
vt 0.478692 0.701544
vt 0.467311 0.729013
vt 0.467311 0.701544
vt 0.697227 0.729013
vt 0.685846 0.729013
vt 0.685846 0.701544
vt 0.697227 0.701544
vt 0.674419 0.729013
vt 0.674419 0.701544
vt 0.662957 0.729013
vt 0.662957 0.701544
vt 0.651468 0.729013
vt 0.651468 0.701544
vt 0.639956 0.729013
vt 0.639956 0.701544
vt 0.628425 0.729013
vt 0.628425 0.701544
vt 0.616880 0.729013
vt 0.616880 0.701544
vt 0.605324 0.729013
vt 0.605324 0.701544
vt 0.593757 0.729013
vt 0.593757 0.701544
vt 0.582269 0.729013
vt 0.582269 0.701544
vt 0.570781 0.701544
vt 0.570781 0.729013
vt 0.559215 0.701544
vt 0.559215 0.729013
vt 0.547658 0.729013
vt 0.547658 0.701544
vt 0.536113 0.668756
vt 0.524583 0.668756
vt 0.513071 0.668756
vt 0.501581 0.668756
vt 0.490119 0.668756
vt 0.478692 0.668756
vt 0.467311 0.668756
vt 0.697227 0.668756
vt 0.685846 0.668756
vt 0.674419 0.668756
vt 0.662957 0.668756
vt 0.651468 0.668756
vt 0.639956 0.668756
vt 0.628425 0.668756
vt 0.616880 0.668756
vt 0.605324 0.668756
vt 0.593757 0.668756
vt 0.582269 0.668756
vt 0.570781 0.668756
vt 0.559215 0.668756
vt 0.547658 0.668756
vt 0.536113 0.632971
vt 0.524583 0.632971
vt 0.513071 0.632971
vt 0.501581 0.632971
vt 0.490119 0.632971
vt 0.478692 0.632971
vt 0.467311 0.632971
vt 0.697227 0.632971
vt 0.685846 0.632971
vt 0.674419 0.632971
vt 0.662957 0.632971
vt 0.651468 0.632971
vt 0.639956 0.632971
vt 0.628425 0.632971
vt 0.616880 0.632971
vt 0.605324 0.632971
vt 0.593757 0.632971
vt 0.582269 0.632971
vt 0.570781 0.632971
vt 0.559215 0.632971
vt 0.547658 0.632971
vt 0.073837 0.318024
vt 0.082593 0.315488
vt 0.082836 0.317444
vt 0.074672 0.319810
vt 0.091705 0.315782
vt 0.091331 0.317717
vt 0.100280 0.318878
vt 0.099326 0.320602
vt 0.107478 0.324471
vt 0.106038 0.325817
vt 0.112596 0.332015
vt 0.110811 0.332850
vt 0.115133 0.340772
vt 0.113176 0.341014
vt 0.114839 0.349884
vt 0.112903 0.349509
vt 0.111743 0.358458
vt 0.110018 0.357505
vt 0.106150 0.365657
vt 0.104804 0.364217
vt 0.097771 0.368990
vt 0.098606 0.370775
vt 0.089607 0.371355
vt 0.089850 0.373312
vt 0.080738 0.373018
vt 0.081112 0.371082
vt 0.072163 0.369922
vt 0.073117 0.368197
vt 0.064964 0.364328
vt 0.066405 0.362983
vt 0.059847 0.356784
vt 0.061633 0.355949
vt 0.057312 0.348028
vt 0.059268 0.347785
vt 0.057605 0.338917
vt 0.059540 0.339290
vt 0.060699 0.330342
vt 0.062425 0.331295
vt 0.066292 0.323143
vt 0.067638 0.324583
vt 0.081984 0.310813
vt 0.092571 0.311148
vt 0.102536 0.314738
vt 0.110902 0.321231
vt 0.116854 0.329991
vt 0.119807 0.340163
vt 0.119472 0.350749
vt 0.115883 0.360713
vt 0.109391 0.369080
vt 0.100631 0.375033
vt 0.090458 0.377987
vt 0.079872 0.377651
vt 0.069907 0.374062
vt 0.061540 0.367568
vt 0.055589 0.358806
vt 0.052638 0.348637
vt 0.052971 0.338053
vt 0.056559 0.328088
vt 0.063052 0.319719
vt 0.071813 0.313767
vt 0.107663 0.350012
vt 0.105051 0.356505
vt 0.085860 0.345013
vt 0.100561 0.361873
vt 0.094631 0.365590
vt 0.087843 0.367293
vt 0.080861 0.366816
vt 0.074369 0.364204
vt 0.069001 0.359714
vt 0.065283 0.353785
vt 0.063580 0.346997
vt 0.064057 0.340015
vt 0.066669 0.333522
vt 0.071159 0.328154
vt 0.077089 0.324436
vt 0.083877 0.322733
vt 0.090859 0.323211
vt 0.097351 0.325822
vt 0.102719 0.330313
vt 0.106437 0.336242
vt 0.108140 0.343030
vn 0.887186 -0.092509 -0.452043
vn 0.887186 -0.092509 -0.452043
vn 0.887186 -0.092509 -0.452043
vn 0.887186 -0.092509 -0.452043
vn 0.807104 -0.068733 -0.586395
vn 0.805461 -0.093652 -0.585202
vn 0.585202 -0.093652 -0.805461
vn 0.586395 -0.068733 -0.807104
vn 0.586395 -0.068733 -0.807104
vn 0.585202 -0.093652 -0.805461
vn 0.307659 -0.093652 -0.946877
vn 0.308286 -0.068733 -0.948807
vn 0.308286 -0.068733 -0.948807
vn 0.307659 -0.093652 -0.946877
vn 0.000000 -0.093652 -0.995605
vn 0.000000 -0.068732 -0.997635
vn 0.000000 -0.068732 -0.997635
vn 0.000000 -0.093652 -0.995605
vn -0.307659 -0.093652 -0.946877
vn -0.308286 -0.068732 -0.948807
vn -0.308286 -0.068732 -0.948807
vn -0.307659 -0.093652 -0.946877
vn -0.585203 -0.093651 -0.805461
vn -0.586396 -0.068732 -0.807103
vn -0.586396 -0.068732 -0.807103
vn -0.585203 -0.093651 -0.805461
vn -0.805462 -0.093652 -0.585202
vn -0.807104 -0.068732 -0.586395
vn -0.807104 -0.068732 -0.586395
vn -0.805462 -0.093652 -0.585202
vn -0.946876 -0.093652 -0.307660
vn -0.948807 -0.068732 -0.308287
vn -0.946876 -0.093652 -0.307660
vn -0.995605 -0.093653 0.000000
vn -0.997635 -0.068732 0.000000
vn -0.948807 -0.068732 -0.308287
vn -0.995605 -0.093653 0.000000
vn -0.946876 -0.093652 0.307660
vn -0.948807 -0.068733 0.308287
vn -0.997635 -0.068732 0.000000
vn -0.805462 -0.093652 0.585202
vn -0.807104 -0.068733 0.586395
vn -0.948807 -0.068733 0.308287
vn -0.946876 -0.093652 0.307660
vn -0.585202 -0.093652 0.805461
vn -0.586395 -0.068733 0.807104
vn -0.807104 -0.068733 0.586395
vn -0.805462 -0.093652 0.585202
vn -0.307659 -0.093652 0.946877
vn -0.308286 -0.068733 0.948807
vn -0.586395 -0.068733 0.807104
vn -0.585202 -0.093652 0.805461
vn 0.000000 -0.093652 0.995605
vn 0.000000 -0.068732 0.997635
vn -0.308286 -0.068733 0.948807
vn -0.307659 -0.093652 0.946877
vn 0.307659 -0.093652 0.946877
vn 0.308286 -0.068733 0.948807
vn 0.000000 -0.068732 0.997635
vn 0.000000 -0.093652 0.995605
vn 0.585202 -0.093651 0.805461
vn 0.586396 -0.068732 0.807103
vn 0.308286 -0.068733 0.948807
vn 0.307659 -0.093652 0.946877
vn 0.805462 -0.093651 0.585202
vn 0.807104 -0.068732 0.586395
vn 0.586396 -0.068732 0.807103
vn 0.585202 -0.093651 0.805461
vn 0.946877 -0.093651 0.307659
vn 0.948807 -0.068732 0.308287
vn 0.807104 -0.068732 0.586395
vn 0.805462 -0.093651 0.585202
vn 0.997635 -0.068732 0.000001
vn 0.948807 -0.068732 0.308287
vn 0.946877 -0.093651 0.307659
vn 0.995605 -0.093652 0.000001
vn 0.948808 -0.068733 -0.308285
vn 0.997635 -0.068732 0.000001
vn 0.995605 -0.093652 0.000001
vn 0.946877 -0.093653 -0.307658
vn 0.060185 0.997996 -0.019555
vn 0.051197 0.997996 -0.037198
vn 0.000000 1.000000 0.000000
vn 0.051197 0.997996 -0.037198
vn 0.037197 0.997996 -0.051199
vn 0.000000 1.000000 0.000000
vn 0.037197 0.997996 -0.051199
vn 0.019555 0.997996 -0.060187
vn 0.000000 1.000000 0.000000
vn 0.019555 0.997996 -0.060187
vn 0.000000 0.997996 -0.063284
vn 0.000000 1.000000 0.000000
vn 0.000000 0.997996 -0.063284
vn -0.019556 0.997996 -0.060186
vn 0.000000 1.000000 0.000000
vn -0.019556 0.997996 -0.060186
vn -0.037197 0.997996 -0.051196
vn 0.000000 1.000000 0.000000
vn -0.037197 0.997996 -0.051196
vn -0.051197 0.997996 -0.037196
vn 0.000000 1.000000 0.000000
vn -0.051197 0.997996 -0.037196
vn -0.060186 0.997996 -0.019555
vn 0.000000 1.000000 0.000000
vn -0.060186 0.997996 -0.019555
vn -0.063283 0.997996 0.000000
vn 0.000000 1.000000 0.000000
vn -0.063283 0.997996 0.000000
vn -0.060185 0.997996 0.019555
vn 0.000000 1.000000 0.000000
vn -0.060185 0.997996 0.019555
vn -0.051197 0.997996 0.037198
vn 0.000000 1.000000 0.000000
vn -0.051197 0.997996 0.037198
vn -0.037197 0.997996 0.051199
vn 0.000000 1.000000 0.000000
vn -0.037197 0.997996 0.051199
vn -0.019556 0.997996 0.060187
vn 0.000000 1.000000 0.000000
vn -0.019556 0.997996 0.060187
vn 0.000000 0.997996 0.063284
vn 0.000000 1.000000 0.000000
vn 0.000000 0.997996 0.063284
vn 0.019556 0.997996 0.060186
vn 0.000000 1.000000 0.000000
vn 0.019556 0.997996 0.060186
vn 0.037197 0.997996 0.051196
vn 0.000000 1.000000 0.000000
vn 0.037197 0.997996 0.051196
vn 0.051197 0.997996 0.037196
vn 0.000000 1.000000 0.000000
vn 0.051197 0.997996 0.037196
vn 0.060186 0.997996 0.019555
vn 0.000000 1.000000 0.000000
vn 0.060186 0.997996 0.019555
vn 0.063283 0.997996 0.000000
vn 0.000000 1.000000 0.000000
vn 0.063283 0.997996 0.000000
vn 0.060185 0.997996 -0.019555
vn 0.000000 1.000000 0.000000
vn 0.578105 0.815962 0.000002
vn 0.992488 0.122342 0.000001
vn 0.943912 0.122342 -0.306695
vn 0.549812 0.815961 -0.178648
vn 0.578105 0.815962 0.000002
vn 0.549812 0.815961 -0.178648
vn 0.060185 0.997996 -0.019555
vn 0.063283 0.997996 0.000000
vn 0.060185 0.997996 -0.019555
vn 0.549812 0.815961 -0.178648
vn 0.467692 0.815964 -0.339804
vn 0.051197 0.997996 -0.037198
vn 0.549812 0.815961 -0.178648
vn 0.943912 0.122342 -0.306695
vn 0.802939 0.122342 -0.583370
vn 0.467692 0.815964 -0.339804
vn 0.051197 0.997996 -0.037198
vn 0.467692 0.815964 -0.339804
vn 0.339797 0.815968 -0.467691
vn 0.037197 0.997996 -0.051199
vn 0.467692 0.815964 -0.339804
vn 0.802939 0.122342 -0.583370
vn 0.583369 0.122343 -0.802940
vn 0.339797 0.815968 -0.467691
vn 0.037197 0.997996 -0.051199
vn 0.339797 0.815968 -0.467691
vn 0.178643 0.815967 -0.549804
vn 0.019555 0.997996 -0.060187
vn 0.339797 0.815968 -0.467691
vn 0.583369 0.122343 -0.802940
vn 0.306696 0.122343 -0.943912
vn 0.178643 0.815967 -0.549804
vn 0.019555 0.997996 -0.060187
vn 0.178643 0.815967 -0.549804
vn 0.000000 0.815966 -0.578100
vn 0.000000 0.997996 -0.063284
vn 0.178643 0.815967 -0.549804
vn 0.306696 0.122343 -0.943912
vn 0.000000 0.122343 -0.992488
vn 0.000000 0.815966 -0.578100
vn 0.000000 0.997996 -0.063284
vn 0.000000 0.815966 -0.578100
vn -0.178643 0.815968 -0.549803
vn -0.019556 0.997996 -0.060186
vn 0.000000 0.815966 -0.578100
vn 0.000000 0.122343 -0.992488
vn -0.306696 0.122342 -0.943912
vn -0.178643 0.815968 -0.549803
vn -0.019556 0.997996 -0.060186
vn -0.178643 0.815968 -0.549803
vn -0.339799 0.815966 -0.467693
vn -0.037197 0.997996 -0.051196
vn -0.178643 0.815968 -0.549803
vn -0.306696 0.122342 -0.943912
vn -0.583370 0.122342 -0.802939
vn -0.339799 0.815966 -0.467693
vn -0.037197 0.997996 -0.051196
vn -0.339799 0.815966 -0.467693
vn -0.467694 0.815965 -0.339800
vn -0.051197 0.997996 -0.037196
vn -0.339799 0.815966 -0.467693
vn -0.583370 0.122342 -0.802939
vn -0.802940 0.122342 -0.583369
vn -0.467694 0.815965 -0.339800
vn -0.051197 0.997996 -0.037196
vn -0.467694 0.815965 -0.339800
vn -0.549807 0.815965 -0.178643
vn -0.060186 0.997996 -0.019555
vn -0.467694 0.815965 -0.339800
vn -0.802940 0.122342 -0.583369
vn -0.943912 0.122343 -0.306696
vn -0.549807 0.815965 -0.178643
vn -0.063283 0.997996 0.000000
vn -0.060186 0.997996 -0.019555
vn -0.549807 0.815965 -0.178643
vn -0.578102 0.815965 -0.000002
vn -0.549807 0.815965 -0.178643
vn -0.943912 0.122343 -0.306696
vn -0.992488 0.122343 0.000000
vn -0.578102 0.815965 -0.000002
vn -0.060185 0.997996 0.019555
vn -0.063283 0.997996 0.000000
vn -0.578102 0.815965 -0.000002
vn -0.549808 0.815964 0.178643
vn -0.943912 0.122343 0.306696
vn -0.549808 0.815964 0.178643
vn -0.578102 0.815965 -0.000002
vn -0.992488 0.122343 0.000000
vn -0.467694 0.815964 0.339802
vn -0.051197 0.997996 0.037198
vn -0.060185 0.997996 0.019555
vn -0.549808 0.815964 0.178643
vn -0.802940 0.122342 0.583370
vn -0.467694 0.815964 0.339802
vn -0.549808 0.815964 0.178643
vn -0.943912 0.122343 0.306696
vn -0.339800 0.815964 0.467695
vn -0.037197 0.997996 0.051199
vn -0.051197 0.997996 0.037198
vn -0.467694 0.815964 0.339802
vn -0.583370 0.122342 0.802940
vn -0.339800 0.815964 0.467695
vn -0.467694 0.815964 0.339802
vn -0.802940 0.122342 0.583370
vn -0.178644 0.815966 0.549805
vn -0.019556 0.997996 0.060187
vn -0.037197 0.997996 0.051199
vn -0.339800 0.815964 0.467695
vn -0.306696 0.122343 0.943912
vn -0.178644 0.815966 0.549805
vn -0.339800 0.815964 0.467695
vn -0.583370 0.122342 0.802940
vn 0.000000 0.815966 0.578100
vn 0.000000 0.997996 0.063284
vn -0.019556 0.997996 0.060187
vn -0.178644 0.815966 0.549805
vn 0.000000 0.122343 0.992488
vn 0.000000 0.815966 0.578100
vn -0.178644 0.815966 0.549805
vn -0.306696 0.122343 0.943912
vn 0.178643 0.815968 0.549802
vn 0.019556 0.997996 0.060186
vn 0.000000 0.997996 0.063284
vn 0.000000 0.815966 0.578100
vn 0.306696 0.122343 0.943912
vn 0.178643 0.815968 0.549802
vn 0.000000 0.815966 0.578100
vn 0.000000 0.122343 0.992488
vn 0.339799 0.815968 0.467689
vn 0.037197 0.997996 0.051196
vn 0.019556 0.997996 0.060186
vn 0.178643 0.815968 0.549802
vn 0.583370 0.122342 0.802940
vn 0.339799 0.815968 0.467689
vn 0.178643 0.815968 0.549802
vn 0.306696 0.122343 0.943912
vn 0.467694 0.815964 0.339801
vn 0.051197 0.997996 0.037196
vn 0.037197 0.997996 0.051196
vn 0.339799 0.815968 0.467689
vn 0.802940 0.122341 0.583370
vn 0.467694 0.815964 0.339801
vn 0.339799 0.815968 0.467689
vn 0.583370 0.122342 0.802940
vn 0.549808 0.815964 0.178647
vn 0.060186 0.997996 0.019555
vn 0.051197 0.997996 0.037196
vn 0.467694 0.815964 0.339801
vn 0.943912 0.122342 0.306696
vn 0.549808 0.815964 0.178647
vn 0.467694 0.815964 0.339801
vn 0.802940 0.122341 0.583370
vn 0.549808 0.815964 0.178647
vn 0.578105 0.815962 0.000002
vn 0.063283 0.997996 0.000000
vn 0.060186 0.997996 0.019555
vn 0.992488 0.122342 0.000001
vn 0.578105 0.815962 0.000002
vn 0.549808 0.815964 0.178647
vn 0.943912 0.122342 0.306696
vn -0.007317 -0.999966 0.003728
vn -0.007317 -0.999966 0.003728
vn -0.007317 -0.999966 0.003728
vn -0.007317 -0.999966 0.003728
vn -0.005807 -0.999966 0.005807
vn -0.005807 -0.999966 0.005807
vn -0.005807 -0.999966 0.005807
vn -0.005807 -0.999966 0.005807
vn -0.003728 -0.999966 0.007315
vn -0.003728 -0.999966 0.007315
vn -0.003728 -0.999966 0.007315
vn -0.003728 -0.999966 0.007315
vn -0.001285 -0.999966 0.008112
vn -0.001285 -0.999966 0.008112
vn -0.001285 -0.999966 0.008112
vn -0.001285 -0.999966 0.008112
vn 0.001285 -0.999966 0.008112
vn 0.001285 -0.999966 0.008112
vn 0.001285 -0.999966 0.008112
vn 0.001285 -0.999966 0.008112
vn 0.003728 -0.999966 0.007315
vn 0.003728 -0.999966 0.007315
vn 0.003728 -0.999966 0.007315
vn 0.003728 -0.999966 0.007315
vn 0.005807 -0.999966 0.005807
vn 0.005807 -0.999966 0.005807
vn 0.005807 -0.999966 0.005807
vn 0.005807 -0.999966 0.005807
vn 0.007317 -0.999966 0.003724
vn 0.007317 -0.999966 0.003724
vn 0.007317 -0.999966 0.003724
vn 0.007317 -0.999966 0.003724
vn 0.008111 -0.999966 0.001287
vn 0.008111 -0.999966 0.001287
vn 0.008111 -0.999966 0.001287
vn 0.008111 -0.999966 0.001287
vn 0.008111 -0.999966 -0.001287
vn 0.008111 -0.999966 -0.001287
vn 0.008111 -0.999966 -0.001287
vn 0.008111 -0.999966 -0.001287
vn 0.007317 -0.999966 -0.003728
vn 0.007317 -0.999966 -0.003728
vn 0.007317 -0.999966 -0.003728
vn 0.007317 -0.999966 -0.003728
vn 0.005807 -0.999966 -0.005807
vn 0.005807 -0.999966 -0.005807
vn 0.005807 -0.999966 -0.005807
vn 0.005807 -0.999966 -0.005807
vn 0.003728 -0.999966 -0.007315
vn 0.003728 -0.999966 -0.007315
vn 0.003728 -0.999966 -0.007315
vn 0.003728 -0.999966 -0.007315
vn 0.001285 -0.999966 -0.008112
vn 0.001285 -0.999966 -0.008112
vn 0.001285 -0.999966 -0.008112
vn 0.001285 -0.999966 -0.008112
vn -0.001285 -0.999966 -0.008112
vn -0.001285 -0.999966 -0.008112
vn -0.001285 -0.999966 -0.008112
vn -0.001285 -0.999966 -0.008112
vn -0.003728 -0.999966 -0.007315
vn -0.003728 -0.999966 -0.007315
vn -0.003728 -0.999966 -0.007315
vn -0.003728 -0.999966 -0.007315
vn -0.005807 -0.999966 -0.005807
vn -0.005807 -0.999966 -0.005807
vn -0.005807 -0.999966 -0.005807
vn -0.005807 -0.999966 -0.005807
vn -0.007317 -0.999966 -0.003724
vn -0.007317 -0.999966 -0.003724
vn -0.007317 -0.999966 -0.003724
vn -0.007317 -0.999966 -0.003724
vn -0.008111 -0.999966 -0.001287
vn -0.008111 -0.999966 -0.001287
vn -0.008111 -0.999966 -0.001287
vn -0.008111 -0.999966 -0.001287
vn -0.008111 -0.999966 0.001287
vn -0.008111 -0.999966 0.001287
vn -0.008111 -0.999966 0.001287
vn -0.008111 -0.999966 0.001287
vn 0.950897 -0.018336 -0.308964
vn 0.950897 -0.018336 -0.308965
vn 0.808881 -0.018336 -0.587686
vn 0.808881 -0.018336 -0.587686
vn 0.808881 -0.018336 -0.587686
vn 0.808881 -0.018336 -0.587686
vn 0.587686 -0.018338 -0.808881
vn 0.587687 -0.018338 -0.808881
vn 0.587687 -0.018338 -0.808881
vn 0.587686 -0.018338 -0.808881
vn 0.308965 -0.018338 -0.950897
vn 0.308965 -0.018338 -0.950897
vn 0.308965 -0.018338 -0.950897
vn 0.308965 -0.018338 -0.950897
vn 0.000000 -0.018337 -0.999832
vn 0.000000 -0.018337 -0.999832
vn 0.000000 -0.018337 -0.999832
vn 0.000000 -0.018337 -0.999832
vn -0.308965 -0.018338 -0.950897
vn -0.308966 -0.018338 -0.950896
vn -0.308966 -0.018338 -0.950896
vn -0.308965 -0.018338 -0.950897
vn -0.587687 -0.018338 -0.808881
vn -0.587687 -0.018338 -0.808881
vn -0.587687 -0.018338 -0.808881
vn -0.587687 -0.018338 -0.808881
vn -0.808882 -0.018338 -0.587685
vn -0.808882 -0.018338 -0.587685
vn -0.808882 -0.018338 -0.587685
vn -0.808882 -0.018338 -0.587685
vn -0.950896 -0.018339 -0.308966
vn -0.950896 -0.018339 -0.308966
vn -0.950896 -0.018339 -0.308966
vn -0.950896 -0.018339 -0.308966
vn -0.999832 -0.018337 0.000000
vn -0.999832 -0.018337 0.000000
vn -0.950896 -0.018337 0.308966
vn -0.950896 -0.018337 0.308966
vn -0.999832 -0.018337 0.000000
vn -0.999832 -0.018337 0.000000
vn -0.808882 -0.018339 0.587686
vn -0.808882 -0.018339 0.587686
vn -0.950896 -0.018337 0.308966
vn -0.950896 -0.018337 0.308966
vn -0.587686 -0.018339 0.808881
vn -0.587686 -0.018339 0.808881
vn -0.808882 -0.018339 0.587686
vn -0.808882 -0.018339 0.587686
vn -0.308965 -0.018338 0.950897
vn -0.308965 -0.018338 0.950897
vn -0.587686 -0.018339 0.808881
vn -0.587686 -0.018339 0.808881
vn 0.000000 -0.018337 0.999832
vn 0.000000 -0.018337 0.999832
vn -0.308965 -0.018338 0.950897
vn -0.308965 -0.018338 0.950897
vn 0.308965 -0.018338 0.950897
vn 0.308966 -0.018338 0.950896
vn 0.000000 -0.018337 0.999832
vn 0.000000 -0.018337 0.999832
vn 0.587687 -0.018338 0.808881
vn 0.587687 -0.018338 0.808881
vn 0.308966 -0.018338 0.950896
vn 0.308965 -0.018338 0.950897
vn 0.808882 -0.018339 0.587685
vn 0.808882 -0.018339 0.587685
vn 0.587687 -0.018338 0.808881
vn 0.587687 -0.018338 0.808881
vn 0.950896 -0.018340 0.308966
vn 0.950896 -0.018340 0.308966
vn 0.808882 -0.018339 0.587685
vn 0.808882 -0.018339 0.587685
vn 0.999832 -0.018337 0.000001
vn 0.999832 -0.018337 0.000001
vn 0.950896 -0.018340 0.308966
vn 0.950896 -0.018340 0.308966
vn 0.999832 -0.018337 0.000001
vn 0.999832 -0.018337 0.000001
vn 0.950897 -0.018336 -0.308965
vn 0.950897 -0.018336 -0.308964
vn 0.586396 0.068723 0.807104
vn 0.583370 0.122342 0.802940
vn 0.306696 0.122343 0.943912
vn 0.308286 0.068723 0.948808
vn 0.308286 0.068723 0.948808
vn 0.306696 0.122343 0.943912
vn 0.000000 0.122343 0.992488
vn 0.000000 0.068723 0.997636
vn 0.000000 0.068723 0.997636
vn 0.000000 0.122343 0.992488
vn -0.306696 0.122343 0.943912
vn -0.308286 0.068723 0.948808
vn -0.308286 0.068723 0.948808
vn -0.306696 0.122343 0.943912
vn -0.583370 0.122342 0.802940
vn -0.586395 0.068723 0.807105
vn -0.586395 0.068723 0.807105
vn -0.583370 0.122342 0.802940
vn -0.802940 0.122342 0.583370
vn -0.807105 0.068723 0.586395
vn -0.807105 0.068723 0.586395
vn -0.802940 0.122342 0.583370
vn -0.943912 0.122343 0.306696
vn -0.948808 0.068723 0.308287
vn -0.943912 0.122343 0.306696
vn -0.992488 0.122343 0.000000
vn -0.997636 0.068723 0.000000
vn -0.948808 0.068723 0.308287
vn -0.992488 0.122343 0.000000
vn -0.943912 0.122343 -0.306696
vn -0.948808 0.068723 -0.308287
vn -0.997636 0.068723 0.000000
vn -0.802940 0.122342 -0.583369
vn -0.807105 0.068723 -0.586395
vn -0.948808 0.068723 -0.308287
vn -0.943912 0.122343 -0.306696
vn -0.583370 0.122342 -0.802939
vn -0.586396 0.068723 -0.807104
vn -0.807105 0.068723 -0.586395
vn -0.802940 0.122342 -0.583369
vn -0.306696 0.122342 -0.943912
vn -0.308286 0.068723 -0.948808
vn -0.586396 0.068723 -0.807104
vn -0.583370 0.122342 -0.802939
vn 0.000000 0.122343 -0.992488
vn 0.000000 0.068723 -0.997636
vn -0.308286 0.068723 -0.948808
vn -0.306696 0.122342 -0.943912
vn 0.306696 0.122343 -0.943912
vn 0.308286 0.068723 -0.948808
vn 0.000000 0.068723 -0.997636
vn 0.000000 0.122343 -0.992488
vn 0.583369 0.122343 -0.802940
vn 0.586395 0.068723 -0.807105
vn 0.308286 0.068723 -0.948808
vn 0.306696 0.122343 -0.943912
vn 0.802939 0.122342 -0.583370
vn 0.807104 0.068723 -0.586396
vn 0.586395 0.068723 -0.807105
vn 0.583369 0.122343 -0.802940
vn 0.943912 0.122342 -0.306695
vn 0.948808 0.068724 -0.308286
vn 0.807104 0.068723 -0.586396
vn 0.802939 0.122342 -0.583370
vn 0.997636 0.068723 0.000001
vn 0.948808 0.068724 -0.308286
vn 0.943912 0.122342 -0.306695
vn 0.992488 0.122342 0.000001
vn 0.948808 0.068722 0.308287
vn 0.997636 0.068723 0.000001
vn 0.992488 0.122342 0.000001
vn 0.943912 0.122342 0.306696
vn 0.948808 0.068722 0.308287
vn 0.943912 0.122342 0.306696
vn 0.802940 0.122341 0.583370
vn 0.807105 0.068723 0.586395
vn 0.807105 0.068723 0.586395
vn 0.802940 0.122341 0.583370
vn 0.583370 0.122342 0.802940
vn 0.586396 0.068723 0.807104
vn 0.587624 0.023445 0.808794
vn 0.586396 0.068723 0.807104
vn 0.308286 0.068723 0.948808
vn 0.308932 0.023445 0.950795
vn 0.308932 0.023445 0.950795
vn 0.308286 0.068723 0.948808
vn 0.000000 0.068723 0.997636
vn 0.000000 0.023444 0.999725
vn 0.000000 0.023444 0.999725
vn 0.000000 0.068723 0.997636
vn -0.308286 0.068723 0.948808
vn -0.308932 0.023444 0.950795
vn -0.308932 0.023444 0.950795
vn -0.308286 0.068723 0.948808
vn -0.586395 0.068723 0.807105
vn -0.587623 0.023444 0.808795
vn -0.587623 0.023444 0.808795
vn -0.586395 0.068723 0.807105
vn -0.807105 0.068723 0.586395
vn -0.808795 0.023444 0.587624
vn -0.808795 0.023444 0.587624
vn -0.807105 0.068723 0.586395
vn -0.948808 0.068723 0.308287
vn -0.950795 0.023445 0.308932
vn -0.950795 0.023445 0.308932
vn -0.948808 0.068723 0.308287
vn -0.997636 0.068723 0.000000
vn -0.999725 0.023444 0.000000
vn -0.948808 0.068723 -0.308287
vn -0.950795 0.023444 -0.308932
vn -0.999725 0.023444 0.000000
vn -0.997636 0.068723 0.000000
vn -0.807105 0.068723 -0.586395
vn -0.808795 0.023444 -0.587623
vn -0.950795 0.023444 -0.308932
vn -0.948808 0.068723 -0.308287
vn -0.586396 0.068723 -0.807104
vn -0.587624 0.023444 -0.808794
vn -0.808795 0.023444 -0.587623
vn -0.807105 0.068723 -0.586395
vn -0.308286 0.068723 -0.948808
vn -0.308932 0.023444 -0.950795
vn -0.587624 0.023444 -0.808794
vn -0.586396 0.068723 -0.807104
vn 0.000000 0.068723 -0.997636
vn 0.000000 0.023444 -0.999725
vn -0.308932 0.023444 -0.950795
vn -0.308286 0.068723 -0.948808
vn 0.308286 0.068723 -0.948808
vn 0.308932 0.023445 -0.950795
vn 0.000000 0.023444 -0.999725
vn 0.000000 0.068723 -0.997636
vn 0.586395 0.068723 -0.807105
vn 0.587623 0.023445 -0.808795
vn 0.308932 0.023445 -0.950795
vn 0.308286 0.068723 -0.948808
vn 0.807104 0.068723 -0.586396
vn 0.808794 0.023445 -0.587624
vn 0.587623 0.023445 -0.808795
vn 0.586395 0.068723 -0.807105
vn 0.948808 0.068724 -0.308286
vn 0.950795 0.023445 -0.308931
vn 0.808794 0.023445 -0.587624
vn 0.807104 0.068723 -0.586396
vn 0.997636 0.068723 0.000001
vn 0.999725 0.023444 0.000001
vn 0.950795 0.023445 -0.308931
vn 0.948808 0.068724 -0.308286
vn 0.999725 0.023444 0.000001
vn 0.997636 0.068723 0.000001
vn 0.948808 0.068722 0.308287
vn 0.950795 0.023444 0.308932
vn 0.950795 0.023444 0.308932
vn 0.948808 0.068722 0.308287
vn 0.807105 0.068723 0.586395
vn 0.808795 0.023445 0.587624
vn 0.808795 0.023445 0.587624
vn 0.807105 0.068723 0.586395
vn 0.586396 0.068723 0.807104
vn 0.587624 0.023445 0.808794
vn 0.587624 -0.023445 0.808794
vn 0.587624 0.023445 0.808794
vn 0.308932 0.023445 0.950795
vn 0.308932 -0.023445 0.950795
vn 0.308932 -0.023445 0.950795
vn 0.308932 0.023445 0.950795
vn 0.000000 0.023444 0.999725
vn 0.000000 -0.023444 0.999725
vn 0.000000 -0.023444 0.999725
vn 0.000000 0.023444 0.999725
vn -0.308932 0.023444 0.950795
vn -0.308932 -0.023444 0.950795
vn -0.308932 -0.023444 0.950795
vn -0.308932 0.023444 0.950795
vn -0.587623 0.023444 0.808795
vn -0.587624 -0.023444 0.808795
vn -0.587624 -0.023444 0.808795
vn -0.587623 0.023444 0.808795
vn -0.808795 0.023444 0.587624
vn -0.808795 -0.023444 0.587623
vn -0.808795 -0.023444 0.587623
vn -0.808795 0.023444 0.587624
vn -0.950795 0.023445 0.308932
vn -0.950795 -0.023445 0.308933
vn -0.950795 -0.023445 0.308933
vn -0.950795 0.023445 0.308932
vn -0.999725 0.023444 0.000000
vn -0.999725 -0.023444 0.000000
vn -0.950795 0.023444 -0.308932
vn -0.950795 -0.023444 -0.308932
vn -0.999725 -0.023444 0.000000
vn -0.999725 0.023444 0.000000
vn -0.808795 0.023444 -0.587623
vn -0.808795 -0.023444 -0.587623
vn -0.950795 -0.023444 -0.308932
vn -0.950795 0.023444 -0.308932
vn -0.587624 0.023444 -0.808794
vn -0.587624 -0.023444 -0.808794
vn -0.808795 -0.023444 -0.587623
vn -0.808795 0.023444 -0.587623
vn -0.308932 0.023444 -0.950795
vn -0.308932 -0.023444 -0.950795
vn -0.587624 -0.023444 -0.808794
vn -0.587624 0.023444 -0.808794
vn 0.000000 0.023444 -0.999725
vn 0.000000 -0.023444 -0.999725
vn -0.308932 -0.023444 -0.950795
vn -0.308932 0.023444 -0.950795
vn 0.308932 0.023445 -0.950795
vn 0.308932 -0.023445 -0.950795
vn 0.000000 -0.023444 -0.999725
vn 0.000000 0.023444 -0.999725
vn 0.587623 0.023445 -0.808795
vn 0.587623 -0.023444 -0.808795
vn 0.308932 -0.023445 -0.950795
vn 0.308932 0.023445 -0.950795
vn 0.808794 0.023445 -0.587624
vn 0.808794 -0.023445 -0.587624
vn 0.587623 -0.023444 -0.808795
vn 0.587623 0.023445 -0.808795
vn 0.950795 0.023445 -0.308931
vn 0.950795 -0.023445 -0.308931
vn 0.808794 -0.023445 -0.587624
vn 0.808794 0.023445 -0.587624
vn 0.999725 0.023444 0.000001
vn 0.999725 -0.023444 0.000001
vn 0.950795 -0.023445 -0.308931
vn 0.950795 0.023445 -0.308931
vn 0.999725 -0.023444 0.000001
vn 0.999725 0.023444 0.000001
vn 0.950795 0.023444 0.308932
vn 0.950795 -0.023444 0.308932
vn 0.950795 -0.023444 0.308932
vn 0.950795 0.023444 0.308932
vn 0.808795 0.023445 0.587624
vn 0.808795 -0.023445 0.587623
vn 0.808795 -0.023445 0.587623
vn 0.808795 0.023445 0.587624
vn 0.587624 0.023445 0.808794
vn 0.587624 -0.023445 0.808794
vn 0.586396 -0.068732 0.807103
vn 0.587624 -0.023445 0.808794
vn 0.308932 -0.023445 0.950795
vn 0.308286 -0.068733 0.948807
vn 0.308286 -0.068733 0.948807
vn 0.308932 -0.023445 0.950795
vn 0.000000 -0.023444 0.999725
vn 0.000000 -0.068732 0.997635
vn 0.000000 -0.068732 0.997635
vn 0.000000 -0.023444 0.999725
vn -0.308932 -0.023444 0.950795
vn -0.308286 -0.068733 0.948807
vn -0.308286 -0.068733 0.948807
vn -0.308932 -0.023444 0.950795
vn -0.587624 -0.023444 0.808795
vn -0.586395 -0.068733 0.807104
vn -0.586395 -0.068733 0.807104
vn -0.587624 -0.023444 0.808795
vn -0.808795 -0.023444 0.587623
vn -0.807104 -0.068733 0.586395
vn -0.807104 -0.068733 0.586395
vn -0.808795 -0.023444 0.587623
vn -0.950795 -0.023445 0.308933
vn -0.948807 -0.068733 0.308287
vn -0.948807 -0.068733 0.308287
vn -0.950795 -0.023445 0.308933
vn -0.999725 -0.023444 0.000000
vn -0.997635 -0.068732 0.000000
vn -0.950795 -0.023444 -0.308932
vn -0.948807 -0.068732 -0.308287
vn -0.997635 -0.068732 0.000000
vn -0.999725 -0.023444 0.000000
vn -0.808795 -0.023444 -0.587623
vn -0.807104 -0.068732 -0.586395
vn -0.948807 -0.068732 -0.308287
vn -0.950795 -0.023444 -0.308932
vn -0.587624 -0.023444 -0.808794
vn -0.586396 -0.068732 -0.807103
vn -0.807104 -0.068732 -0.586395
vn -0.808795 -0.023444 -0.587623
vn -0.308932 -0.023444 -0.950795
vn -0.308286 -0.068732 -0.948807
vn -0.586396 -0.068732 -0.807103
vn -0.587624 -0.023444 -0.808794
vn 0.000000 -0.023444 -0.999725
vn 0.000000 -0.068732 -0.997635
vn -0.308286 -0.068732 -0.948807
vn -0.308932 -0.023444 -0.950795
vn 0.308932 -0.023445 -0.950795
vn 0.308286 -0.068733 -0.948807
vn 0.000000 -0.068732 -0.997635
vn 0.000000 -0.023444 -0.999725
vn 0.587623 -0.023444 -0.808795
vn 0.586395 -0.068733 -0.807104
vn 0.308286 -0.068733 -0.948807
vn 0.308932 -0.023445 -0.950795
vn 0.808794 -0.023445 -0.587624
vn 0.807104 -0.068733 -0.586395
vn 0.586395 -0.068733 -0.807104
vn 0.587623 -0.023444 -0.808795
vn 0.950795 -0.023445 -0.308931
vn 0.948808 -0.068733 -0.308285
vn 0.807104 -0.068733 -0.586395
vn 0.808794 -0.023445 -0.587624
vn 0.999725 -0.023444 0.000001
vn 0.997635 -0.068732 0.000001
vn 0.948808 -0.068733 -0.308285
vn 0.950795 -0.023445 -0.308931
vn 0.997635 -0.068732 0.000001
vn 0.999725 -0.023444 0.000001
vn 0.950795 -0.023444 0.308932
vn 0.948807 -0.068732 0.308287
vn 0.948807 -0.068732 0.308287
vn 0.950795 -0.023444 0.308932
vn 0.808795 -0.023445 0.587623
vn 0.807104 -0.068732 0.586395
vn 0.807104 -0.068732 0.586395
vn 0.808795 -0.023445 0.587623
vn 0.587624 -0.023445 0.808794
vn 0.586396 -0.068732 0.807103
vn 0.600420 0.799685 0.000001
vn 0.571029 0.799688 -0.185540
vn 0.571030 0.799688 -0.185539
vn 0.600420 0.799685 0.000001
vn 0.571030 0.799688 -0.185539
vn 0.571029 0.799688 -0.185540
vn 0.485744 0.799690 -0.352915
vn 0.485743 0.799690 -0.352916
vn 0.485743 0.799690 -0.352916
vn 0.485744 0.799690 -0.352915
vn 0.352915 0.799689 -0.485746
vn 0.352915 0.799689 -0.485746
vn 0.352915 0.799689 -0.485746
vn 0.352915 0.799689 -0.485746
vn 0.185539 0.799690 -0.571026
vn 0.185538 0.799691 -0.571026
vn 0.185538 0.799691 -0.571026
vn 0.185539 0.799690 -0.571026
vn 0.000000 0.799695 -0.600407
vn 0.000000 0.799695 -0.600407
vn 0.000000 0.799695 -0.600407
vn 0.000000 0.799695 -0.600407
vn -0.185539 0.799692 -0.571024
vn -0.185538 0.799691 -0.571025
vn -0.185538 0.799691 -0.571025
vn -0.185539 0.799692 -0.571024
vn -0.352915 0.799690 -0.485743
vn -0.352916 0.799690 -0.485742
vn -0.352916 0.799690 -0.485742
vn -0.352915 0.799690 -0.485743
vn -0.485744 0.799691 -0.352912
vn -0.485744 0.799691 -0.352912
vn -0.485744 0.799691 -0.352912
vn -0.485744 0.799691 -0.352912
vn -0.571029 0.799688 -0.185540
vn -0.571029 0.799688 -0.185540
vn -0.600420 0.799685 -0.000001
vn -0.571029 0.799688 -0.185540
vn -0.571029 0.799688 -0.185540
vn -0.600420 0.799685 -0.000001
vn -0.571033 0.799685 0.185541
vn -0.600420 0.799685 -0.000001
vn -0.600420 0.799685 -0.000001
vn -0.571033 0.799685 0.185541
vn -0.485747 0.799687 0.352917
vn -0.485747 0.799687 0.352917
vn -0.571033 0.799685 0.185541
vn -0.571033 0.799685 0.185541
vn -0.352913 0.799689 0.485747
vn -0.352915 0.799689 0.485746
vn -0.485747 0.799687 0.352917
vn -0.485747 0.799687 0.352917
vn -0.185539 0.799691 0.571025
vn -0.185538 0.799691 0.571025
vn -0.352915 0.799689 0.485746
vn -0.352913 0.799689 0.485747
vn 0.000000 0.799694 0.600407
vn 0.000000 0.799694 0.600407
vn -0.185538 0.799691 0.571025
vn -0.185539 0.799691 0.571025
vn 0.185539 0.799690 0.571026
vn 0.185539 0.799690 0.571026
vn 0.000000 0.799694 0.600407
vn 0.000000 0.799694 0.600407
vn 0.352917 0.799688 0.485746
vn 0.352918 0.799688 0.485745
vn 0.185539 0.799690 0.571026
vn 0.185539 0.799690 0.571026
vn 0.485747 0.799688 0.352914
vn 0.485747 0.799688 0.352915
vn 0.352918 0.799688 0.485745
vn 0.352917 0.799688 0.485746
vn 0.571029 0.799688 0.185540
vn 0.571029 0.799688 0.185540
vn 0.485747 0.799688 0.352915
vn 0.485747 0.799688 0.352914
vn 0.571029 0.799688 0.185540
vn 0.600420 0.799685 0.000001
vn 0.600420 0.799685 0.000001
vn 0.571029 0.799688 0.185540
vn 0.951057 0.000000 -0.309014
vn 0.951057 0.000000 -0.309014
vn 0.809018 0.000000 -0.587784
vn 0.809018 0.000000 -0.587784
vn 0.809018 0.000000 -0.587784
vn 0.809018 0.000000 -0.587784
vn 0.587787 0.000000 -0.809016
vn 0.587787 0.000000 -0.809016
vn 0.587787 0.000000 -0.809016
vn 0.587787 0.000000 -0.809016
vn 0.309014 0.000000 -0.951057
vn 0.309014 0.000000 -0.951057
vn 0.309014 0.000000 -0.951057
vn 0.309014 0.000000 -0.951057
vn 0.000000 0.000000 -1.000000
vn 0.000000 0.000000 -1.000000
vn 0.000000 0.000000 -1.000000
vn 0.000000 0.000000 -1.000000
vn -0.309014 0.000000 -0.951057
vn -0.309014 0.000000 -0.951057
vn -0.309014 0.000000 -0.951057
vn -0.309014 0.000000 -0.951057
vn -0.587785 0.000000 -0.809017
vn -0.587785 0.000000 -0.809017
vn -0.587785 0.000000 -0.809017
vn -0.587785 0.000000 -0.809017
vn -0.809016 0.000000 -0.587786
vn -0.809016 0.000000 -0.587786
vn -0.809016 0.000000 -0.587786
vn -0.809016 0.000000 -0.587786
vn -0.951057 0.000000 -0.309014
vn -0.951057 0.000000 -0.309014
vn -0.951057 0.000000 -0.309014
vn -0.951057 0.000000 -0.309014
vn -1.000000 0.000000 0.000000
vn -1.000000 0.000000 0.000000
vn -0.951057 0.000000 0.309014
vn -0.951057 0.000000 0.309014
vn -1.000000 0.000000 0.000000
vn -1.000000 0.000000 0.000000
vn -0.809016 0.000000 0.587786
vn -0.809016 0.000000 0.587786
vn -0.951057 0.000000 0.309014
vn -0.951057 0.000000 0.309014
vn -0.587785 0.000000 0.809017
vn -0.587785 0.000000 0.809017
vn -0.809016 0.000000 0.587786
vn -0.809016 0.000000 0.587786
vn -0.309014 0.000000 0.951057
vn -0.309014 0.000000 0.951057
vn -0.587785 0.000000 0.809017
vn -0.587785 0.000000 0.809017
vn 0.000000 0.000000 1.000000
vn 0.000000 0.000000 1.000000
vn -0.309014 0.000000 0.951057
vn -0.309014 0.000000 0.951057
vn 0.309014 0.000000 0.951057
vn 0.309014 0.000000 0.951057
vn 0.000000 0.000000 1.000000
vn 0.000000 0.000000 1.000000
vn 0.587785 0.000000 0.809017
vn 0.587785 0.000000 0.809017
vn 0.309014 0.000000 0.951057
vn 0.309014 0.000000 0.951057
vn 0.809016 0.000000 0.587786
vn 0.809016 0.000000 0.587786
vn 0.587785 0.000000 0.809017
vn 0.587785 0.000000 0.809017
vn 0.951057 0.000000 0.309014
vn 0.951057 0.000000 0.309014
vn 0.809016 0.000000 0.587786
vn 0.809016 0.000000 0.587786
vn 1.000000 0.000000 0.000000
vn 1.000000 0.000000 0.000000
vn 0.951057 0.000000 0.309014
vn 0.951057 0.000000 0.309014
vn 1.000000 0.000000 0.000000
vn 1.000000 0.000000 0.000000
vn 0.951057 0.000000 -0.309014
vn 0.951057 0.000000 -0.309014
vn 0.000000 1.000000 0.000002
vn 0.000000 1.000000 0.000002
vn 0.000000 1.000000 0.000000
vn 0.000000 1.000000 0.000002
vn 0.000000 1.000000 -0.000002
vn 0.000000 1.000000 0.000000
vn 0.000000 1.000000 -0.000002
vn 0.000000 1.000000 -0.000002
vn 0.000000 1.000000 0.000000
vn 0.000000 1.000000 -0.000002
vn 0.000000 1.000000 0.000000
vn 0.000000 1.000000 0.000000
vn 0.000000 1.000000 0.000000
vn 0.000000 1.000000 -0.000001
vn 0.000000 1.000000 0.000000
vn 0.000000 1.000000 -0.000001
vn 0.000000 1.000000 -0.000001
vn 0.000000 1.000000 0.000000
vn 0.000000 1.000000 -0.000001
vn 0.000000 1.000000 0.000000
vn 0.000000 1.000000 0.000000
vn 0.000000 1.000000 0.000000
vn 0.000000 1.000000 0.000002
vn 0.000000 1.000000 0.000000
vn 0.000000 1.000000 0.000002
vn 0.000000 1.000000 0.000002
vn 0.000000 1.000000 0.000000
vn 0.000000 1.000000 0.000002
vn 0.000000 1.000000 0.000000
vn 0.000000 1.000000 0.000000
vn 0.000000 1.000000 0.000000
vn 0.000000 1.000000 0.000000
vn 0.000000 1.000000 0.000000
vn 0.000000 1.000000 0.000000
vn 0.000000 1.000000 0.000002
vn 0.000000 1.000000 0.000000
vn 0.000000 1.000000 0.000002
vn 0.000000 1.000000 0.000002
vn 0.000000 1.000000 0.000000
vn 0.000000 1.000000 0.000002
vn 0.000000 1.000000 0.000000
vn 0.000000 1.000000 0.000000
vn 0.000000 1.000000 0.000000
vn 0.000000 1.000000 0.000001
vn 0.000000 1.000000 0.000000
vn 0.000000 1.000000 0.000001
vn 0.000000 1.000000 0.000001
vn 0.000000 1.000000 0.000000
vn 0.000000 1.000000 0.000001
vn 0.000000 1.000000 0.000000
vn 0.000000 1.000000 0.000000
vn 0.000000 1.000000 0.000000
vn 0.000000 1.000000 -0.000002
vn 0.000000 1.000000 0.000000
vn 0.000000 1.000000 -0.000002
vn 0.000000 1.000000 -0.000002
vn 0.000000 1.000000 0.000000
vn 0.000000 1.000000 -0.000002
vn 0.000000 1.000000 0.000002
vn 0.000000 1.000000 0.000000
s off
g Bag_Obstacle
usemtl initialShadingGroup
f 1/1/1 2/2/2 3/3/3 4/4/4
f 4/4/5 3/3/6 5/5/7 6/6/8
f 6/6/9 5/5/10 7/7/11 8/8/12
f 8/8/13 7/7/14 9/9/15 10/10/16
f 10/10/17 9/9/18 11/11/19 12/12/20
f 12/12/21 11/11/22 13/13/23 14/14/24
f 14/14/25 13/13/26 15/15/27 16/16/28
f 16/16/29 15/15/30 17/17/31 18/18/32
f 17/17/33 19/19/34 20/20/35 18/18/36
f 19/19/37 21/21/38 22/22/39 20/20/40
f 23/23/41 24/24/42 22/25/43 21/26/44
f 25/27/45 26/28/46 24/24/47 23/23/48
f 27/29/49 28/30/50 26/28/51 25/27/52
f 29/31/53 30/32/54 28/30/55 27/29/56
f 31/33/57 32/34/58 30/32/59 29/31/60
f 33/35/61 34/36/62 32/34/63 31/33/64
f 35/37/65 36/38/66 34/36/67 33/35/68
f 37/39/69 38/40/70 36/38/71 35/37/72
f 39/41/73 38/40/74 37/39/75 40/42/76
f 1/1/77 39/41/78 40/42/79 2/2/80
f 41/43/81 42/44/82 43/45/83
f 42/44/84 44/46/85 43/45/86
f 44/46/87 45/47/88 43/45/89
f 45/47/90 46/48/91 43/45/92
f 46/48/93 47/49/94 43/45/95
f 47/49/96 48/50/97 43/45/98
f 48/50/99 49/51/100 43/45/101
f 49/51/102 50/52/103 43/45/104
f 50/52/105 51/53/106 43/45/107
f 51/53/108 52/54/109 43/45/110
f 52/54/111 53/55/112 43/45/113
f 53/55/114 54/56/115 43/45/116
f 54/56/117 55/57/118 43/45/119
f 55/57/120 56/58/121 43/45/122
f 56/58/123 57/59/124 43/45/125
f 57/59/126 58/60/127 43/45/128
f 58/60/129 59/61/130 43/45/131
f 59/61/132 60/62/133 43/45/134
f 60/62/135 61/63/136 43/45/137
f 61/63/138 41/43/139 43/45/140
f 62/64/141 63/65/142 64/66/143 65/67/144
f 62/64/145 65/67/146 41/43/147 61/63/148
f 41/43/149 65/67/150 66/68/151 42/44/152
f 65/67/153 64/66/154 67/69/155 66/68/156
f 42/44/157 66/68/158 68/70/159 44/46/160
f 66/68/161 67/69/162 69/71/163 68/70/164
f 44/46/165 68/70/166 70/72/167 45/47/168
f 68/70/169 69/71/170 71/73/171 70/72/172
f 45/47/173 70/72/174 72/74/175 46/48/176
f 70/72/177 71/73/178 73/75/179 72/74/180
f 46/48/181 72/74/182 74/76/183 47/49/184
f 72/74/185 73/75/186 75/77/187 74/76/188
f 47/49/189 74/76/190 76/78/191 48/50/192
f 74/76/193 75/77/194 77/79/195 76/78/196
f 48/50/197 76/78/198 78/80/199 49/51/200
f 76/78/201 77/79/202 79/81/203 78/80/204
f 49/51/205 78/80/206 80/82/207 50/52/208
f 78/80/209 79/81/210 81/83/211 80/82/212
f 51/53/213 50/52/214 80/82/215 82/84/216
f 80/82/217 81/83/218 83/85/219 82/84/220
f 52/54/221 51/53/222 82/84/223 84/86/224
f 85/87/225 84/86/226 82/84/227 83/85/228
f 86/88/229 53/55/230 52/54/231 84/86/232
f 87/89/233 86/88/234 84/86/235 85/87/236
f 88/90/237 54/56/238 53/55/239 86/88/240
f 89/91/241 88/90/242 86/88/243 87/89/244
f 90/92/245 55/57/246 54/56/247 88/90/248
f 91/93/249 90/92/250 88/90/251 89/91/252
f 92/94/253 56/58/254 55/57/255 90/92/256
f 93/95/257 92/94/258 90/92/259 91/93/260
f 94/96/261 57/59/262 56/58/263 92/94/264
f 95/97/265 94/96/266 92/94/267 93/95/268
f 96/98/269 58/60/270 57/59/271 94/96/272
f 97/99/273 96/98/274 94/96/275 95/97/276
f 98/100/277 59/61/278 58/60/279 96/98/280
f 99/101/281 98/100/282 96/98/283 97/99/284
f 100/102/285 60/62/286 59/61/287 98/100/288
f 101/103/289 100/102/290 98/100/291 99/101/292
f 100/102/293 62/64/294 61/63/295 60/62/296
f 63/65/297 62/64/298 100/102/299 101/103/300
f 3/104/301 2/105/302 102/106/303 103/107/304
f 5/108/305 3/104/306 103/107/307 104/109/308
f 5/108/309 104/109/310 105/110/311 7/111/312
f 7/111/313 105/110/314 106/112/315 9/113/316
f 9/113/317 106/112/318 107/114/319 11/115/320
f 11/115/321 107/114/322 108/116/323 13/117/324
f 108/116/325 109/118/326 15/119/327 13/117/328
f 109/118/329 110/120/330 17/121/331 15/119/332
f 110/120/333 111/122/334 19/123/335 17/121/336
f 111/122/337 112/124/338 21/125/339 19/123/340
f 112/124/341 113/126/342 23/127/343 21/125/344
f 113/126/345 114/128/346 25/129/347 23/127/348
f 115/130/349 27/131/350 25/129/351 114/128/352
f 116/132/353 29/133/354 27/131/355 115/130/356
f 117/134/357 31/135/358 29/133/359 116/132/360
f 118/136/361 33/137/362 31/135/363 117/134/364
f 35/138/365 33/137/366 118/136/367 119/139/368
f 37/140/369 35/138/370 119/139/371 120/141/372
f 40/142/373 37/140/374 120/141/375 121/143/376
f 2/105/377 40/142/378 121/143/379 102/106/380
f 102/144/381 122/145/382 123/146/383 103/147/384
f 103/147/385 123/146/386 124/148/387 104/149/388
f 104/149/389 124/148/390 125/150/391 105/151/392
f 105/151/393 125/150/394 126/152/395 106/153/396
f 106/153/397 126/152/398 127/154/399 107/155/400
f 107/155/401 127/154/402 128/156/403 108/157/404
f 108/157/405 128/156/406 129/158/407 109/159/408
f 109/159/409 129/158/410 130/160/411 110/161/412
f 110/161/413 130/160/414 131/162/415 111/163/416
f 132/164/417 112/165/418 111/163/419 131/162/420
f 133/166/421 113/167/422 112/165/423 132/164/424
f 134/168/425 114/169/426 113/167/427 133/166/428
f 135/170/429 115/171/430 114/169/431 134/168/432
f 136/172/433 116/173/434 115/171/435 135/170/436
f 137/174/437 117/175/438 116/173/439 136/172/440
f 138/176/441 118/177/442 117/175/443 137/174/444
f 139/178/445 119/179/446 118/177/447 138/176/448
f 140/180/449 120/181/450 119/179/451 139/178/452
f 141/182/453 121/183/454 120/181/455 140/180/456
f 121/183/457 141/182/458 122/145/459 102/144/460
f 142/184/461 97/185/462 95/186/463 143/187/464
f 143/187/465 95/186/466 93/188/467 144/189/468
f 144/189/469 93/188/470 91/190/471 145/191/472
f 145/191/473 91/190/474 89/192/475 146/193/476
f 146/193/477 89/192/478 87/194/479 147/195/480
f 147/195/481 87/194/482 85/196/483 148/197/484
f 85/198/485 83/199/486 149/200/487 148/201/488
f 83/199/489 81/202/490 150/203/491 149/200/492
f 79/204/493 151/205/494 150/203/495 81/202/496
f 77/206/497 152/207/498 151/205/499 79/204/500
f 75/208/501 153/209/502 152/207/503 77/206/504
f 73/210/505 154/211/506 153/209/507 75/208/508
f 71/212/509 155/213/510 154/211/511 73/210/512
f 69/214/513 156/215/514 155/213/515 71/212/516
f 67/216/517 157/217/518 156/215/519 69/214/520
f 64/218/521 158/219/522 157/217/523 67/216/524
f 159/220/525 158/219/526 64/218/527 63/221/528
f 160/222/529 159/220/530 63/221/531 101/223/532
f 160/222/533 101/223/534 99/224/535 161/225/536
f 161/225/537 99/224/538 97/185/539 142/184/540
f 162/226/541 142/184/542 143/187/543 163/227/544
f 163/227/545 143/187/546 144/189/547 164/228/548
f 164/228/549 144/189/550 145/191/551 165/229/552
f 165/229/553 145/191/554 146/193/555 166/230/556
f 166/230/557 146/193/558 147/195/559 167/231/560
f 167/231/561 147/195/562 148/197/563 168/232/564
f 168/233/565 148/201/566 149/200/567 169/234/568
f 150/203/569 170/235/570 169/234/571 149/200/572
f 151/205/573 171/236/574 170/235/575 150/203/576
f 152/207/577 172/237/578 171/236/579 151/205/580
f 153/209/581 173/238/582 172/237/583 152/207/584
f 154/211/585 174/239/586 173/238/587 153/209/588
f 155/213/589 175/240/590 174/239/591 154/211/592
f 156/215/593 176/241/594 175/240/595 155/213/596
f 157/217/597 177/242/598 176/241/599 156/215/600
f 158/219/601 178/243/602 177/242/603 157/217/604
f 159/220/605 179/244/606 178/243/607 158/219/608
f 179/244/609 159/220/610 160/222/611 180/245/612
f 180/245/613 160/222/614 161/225/615 181/246/616
f 181/246/617 161/225/618 142/184/619 162/226/620
f 182/247/621 162/226/622 163/227/623 183/248/624
f 183/248/625 163/227/626 164/228/627 184/249/628
f 184/249/629 164/228/630 165/229/631 185/250/632
f 185/250/633 165/229/634 166/230/635 186/251/636
f 186/251/637 166/230/638 167/231/639 187/252/640
f 187/252/641 167/231/642 168/232/643 188/253/644
f 188/254/645 168/233/646 169/234/647 189/255/648
f 170/235/649 190/256/650 189/255/651 169/234/652
f 171/236/653 191/257/654 190/256/655 170/235/656
f 172/237/657 192/258/658 191/257/659 171/236/660
f 173/238/661 193/259/662 192/258/663 172/237/664
f 174/239/665 194/260/666 193/259/667 173/238/668
f 175/240/669 195/261/670 194/260/671 174/239/672
f 176/241/673 196/262/674 195/261/675 175/240/676
f 177/242/677 197/263/678 196/262/679 176/241/680
f 178/243/681 198/264/682 197/263/683 177/242/684
f 179/244/685 199/265/686 198/264/687 178/243/688
f 199/265/689 179/244/690 180/245/691 200/266/692
f 200/266/693 180/245/694 181/246/695 201/267/696
f 201/267/697 181/246/698 162/226/699 182/247/700
f 34/36/701 182/247/702 183/248/703 32/34/704
f 32/34/705 183/248/706 184/249/707 30/32/708
f 30/32/709 184/249/710 185/250/711 28/30/712
f 28/30/713 185/250/714 186/251/715 26/28/716
f 26/28/717 186/251/718 187/252/719 24/24/720
f 24/24/721 187/252/722 188/253/723 22/25/724
f 22/22/725 188/254/726 189/255/727 20/20/728
f 190/256/729 18/18/730 20/20/731 189/255/732
f 191/257/733 16/16/734 18/18/735 190/256/736
f 192/258/737 14/14/738 16/16/739 191/257/740
f 193/259/741 12/12/742 14/14/743 192/258/744
f 194/260/745 10/10/746 12/12/747 193/259/748
f 195/261/749 8/8/750 10/10/751 194/260/752
f 196/262/753 6/6/754 8/8/755 195/261/756
f 197/263/757 4/4/758 6/6/759 196/262/760
f 198/264/761 1/1/762 4/4/763 197/263/764
f 199/265/765 39/41/766 1/1/767 198/264/768
f 39/41/769 199/265/770 200/266/771 38/40/772
f 38/40/773 200/266/774 201/267/775 36/38/776
f 36/38/777 201/267/778 182/247/779 34/36/780
f 202/268/781 203/269/782 204/270/783 205/271/784
f 204/270/785 203/269/786 206/272/787 207/273/788
f 207/273/789 206/272/790 208/274/791 209/275/792
f 209/275/793 208/274/794 210/276/795 211/277/796
f 211/277/797 210/276/798 212/278/799 213/279/800
f 213/279/801 212/278/802 214/280/803 215/281/804
f 215/281/805 214/280/806 216/282/807 217/283/808
f 217/283/809 216/282/810 218/284/811 219/285/812
f 219/285/813 218/284/814 220/286/815 221/287/816
f 222/288/817 221/287/818 220/286/819 223/289/820
f 224/290/821 222/288/822 223/289/823 225/291/824
f 226/292/825 227/293/826 224/290/827 225/291/828
f 228/294/829 229/295/830 227/293/831 226/292/832
f 230/296/833 231/297/834 229/295/835 228/294/836
f 232/298/837 233/299/838 231/297/839 230/296/840
f 234/300/841 235/301/842 233/299/843 232/298/844
f 236/302/845 237/303/846 235/301/847 234/300/848
f 238/304/849 239/305/850 237/303/851 236/302/852
f 240/306/853 241/307/854 239/305/855 238/304/856
f 240/306/857 202/268/858 205/271/859 241/307/860
f 203/269/861 242/308/862 243/309/863 206/272/864
f 206/272/865 243/309/866 244/310/867 208/274/868
f 208/274/869 244/310/870 245/311/871 210/276/872
f 210/276/873 245/311/874 246/312/875 212/278/876
f 212/278/877 246/312/878 247/313/879 214/280/880
f 214/280/881 247/313/882 248/314/883 216/282/884
f 216/282/885 248/314/886 249/315/887 218/284/888
f 218/284/889 249/315/890 250/316/891 220/286/892
f 220/286/893 250/316/894 251/317/895 223/289/896
f 252/318/897 225/291/898 223/289/899 251/317/900
f 253/319/901 226/292/902 225/291/903 252/318/904
f 254/320/905 228/294/906 226/292/907 253/319/908
f 255/321/909 230/296/910 228/294/911 254/320/912
f 256/322/913 232/298/914 230/296/915 255/321/916
f 257/323/917 234/300/918 232/298/919 256/322/920
f 258/324/921 236/302/922 234/300/923 257/323/924
f 259/325/925 238/304/926 236/302/927 258/324/928
f 260/326/929 240/306/930 238/304/931 259/325/932
f 261/327/933 202/268/934 240/306/935 260/326/936
f 202/268/937 261/327/938 242/308/939 203/269/940
f 204/328/941 207/329/942 262/330/943
f 207/329/944 209/331/945 262/330/946
f 209/331/947 211/332/948 262/330/949
f 211/332/950 213/333/951 262/330/952
f 213/333/953 215/334/954 262/330/955
f 215/334/956 217/335/957 262/330/958
f 217/335/959 219/336/960 262/330/961
f 219/336/962 221/337/963 262/330/964
f 221/337/965 222/338/966 262/330/967
f 222/338/968 224/339/969 262/330/970
f 224/339/971 227/340/972 262/330/973
f 227/340/974 229/341/975 262/330/976
f 229/341/977 231/342/978 262/330/979
f 231/342/980 233/343/981 262/330/982
f 233/343/983 235/344/984 262/330/985
f 235/344/986 237/345/987 262/330/988
f 237/345/989 239/346/990 262/330/991
f 239/346/992 241/347/993 262/330/994
f 241/347/995 205/348/996 262/330/997
f 205/348/998 204/328/999 262/330/1000
