# This file uses centimeters as units for non-parametric coordinates.

mtllib L_Pipe_Corner.mtl
g default
v -13.984100 -0.459930 10.848541
v -11.521942 -0.062317 11.338295
v -13.236069 -0.459930 8.382614
v -10.916779 -0.062317 9.343292
v -12.021332 -0.459930 6.109993
v -9.934021 -0.062317 7.504692
v -10.389023 -0.459930 4.113762
v -8.613922 -0.062317 5.888863
v -9.300812 1.091583 11.780106
v -8.824509 1.091583 10.209938
v -8.051041 1.091583 8.762863
v -7.012573 1.091583 7.490219
v -7.538101 2.888824 12.130737
v -7.164063 2.888824 10.897720
v -6.556686 2.888824 9.761360
v -5.741730 2.888824 8.761063
v -6.406372 5.153473 12.355843
v -6.098022 5.153473 11.339294
v -5.597244 5.153473 10.402428
v -4.925797 5.153473 9.576988
v -6.016418 7.663849 12.433418
v -5.730675 7.663849 11.491455
v -5.266655 7.663849 10.623329
v -4.644646 7.663849 9.858139
v -6.406372 10.174255 12.355843
v -6.098022 10.174255 11.339294
v -5.597244 10.174255 10.402428
v -4.925797 10.174255 9.576988
v -7.538101 12.438904 12.130737
v -7.164063 12.438904 10.897720
v -6.556686 12.438904 9.761360
v -5.741730 12.438904 8.761063
v -9.300812 14.236145 11.780106
v -8.824509 14.236145 10.209938
v -8.051041 14.236145 8.762863
v -7.012573 14.236145 7.490219
v -11.521942 15.390015 11.338295
v -10.916779 15.390015 9.343292
v -9.934021 15.390015 7.504692
v -8.613922 15.390015 5.888863
v -13.984100 15.787659 10.848541
v -13.236069 15.787659 8.382614
v -12.021332 15.787659 6.109993
v -10.389023 15.787659 4.113762
v -16.446259 15.390015 10.358795
v -15.555359 15.390015 7.421928
v -14.108643 15.390015 4.715294
v -12.164154 15.390015 2.338646
v -18.667389 14.236145 9.916985
v -17.647629 14.236145 6.555283
v -15.991623 14.236145 3.457130
v -13.765488 14.236145 0.737289
v -20.430099 12.438904 9.566360
v -19.308060 12.438904 5.867508
v -17.485977 12.438904 2.458626
v -15.036331 12.438904 -0.533546
v -21.561829 10.174255 9.341248
v -20.374130 10.174255 5.425926
v -18.445419 10.174255 1.817566
v -15.852264 10.174255 -1.349480
v -21.951797 7.663849 9.263672
v -20.741470 7.663849 5.273773
v -18.776001 7.663849 1.596664
v -16.133408 7.663849 -1.630623
v -21.561829 5.153473 9.341248
v -20.374130 5.153473 5.425926
v -18.445419 5.153473 1.817566
v -15.852264 5.153473 -1.349480
v -20.430099 2.888824 9.566360
v -19.308060 2.888824 5.867508
v -17.485977 2.888824 2.458626
v -15.036331 2.888824 -0.533546
v -18.667389 1.091583 9.916985
v -17.647644 1.091583 6.555275
v -15.991623 1.091583 3.457123
v -13.765488 1.091583 0.737289
v -16.446259 -0.062317 10.358795
v -15.555359 -0.062317 7.421928
v -14.108643 -0.062317 4.715294
v -12.164154 -0.062317 2.338646
v -8.399536 -0.459930 2.474716
v -7.004837 -0.062317 4.562035
v -6.126915 -0.459930 1.259987
v -5.166229 -0.062317 3.579277
v -3.660980 -0.459930 0.511955
v -3.171234 -0.062317 2.974098
v -5.746666 1.091583 6.445023
v -4.299591 1.091583 5.671539
v -2.729416 1.091583 5.195236
v -4.748169 2.888824 7.939377
v -3.611801 2.888824 7.331978
v -2.378799 2.888824 6.957947
v -4.107101 5.153473 8.898804
v -3.170242 5.153473 8.398033
v -2.153679 5.153473 8.089676
v -3.886200 7.663849 9.229401
v -3.018082 7.663849 8.765381
v -2.076111 7.663849 8.479637
v -4.107101 10.174255 8.898804
v -3.170242 10.174255 8.398033
v -2.153679 10.174255 8.089676
v -4.748169 12.438904 7.939377
v -3.611801 12.438904 7.331978
v -2.378799 12.438904 6.957947
v -5.746666 14.236145 6.445023
v -4.299591 14.236145 5.671539
v -2.729416 14.236145 5.195236
v -7.004837 15.390015 4.562035
v -5.166229 15.390015 3.579277
v -3.171234 15.390015 2.974098
v -8.399536 15.787659 2.474716
v -6.126915 15.787659 1.259987
v -3.660980 15.787659 0.511955
v -9.794235 15.390015 0.387413
v -7.087601 15.390015 -1.059311
v -4.150742 15.390015 -1.950203
v -11.052399 14.236145 -1.495583
v -7.954254 14.236145 -3.151573
v -4.592545 14.236145 -4.171349
v -12.050903 12.438904 -2.989929
v -8.642014 12.438904 -4.812004
v -4.943176 12.438904 -5.934044
v -12.691956 10.174255 -3.949356
v -9.083603 10.174255 -5.878075
v -5.168274 10.174255 -7.065765
v -12.912857 7.663849 -4.279953
v -9.235748 7.663849 -6.245415
v -5.245850 7.663849 -7.455734
v -12.691956 5.153473 -3.949356
v -9.083603 5.153473 -5.878075
v -5.168274 5.153473 -7.065765
v -12.050903 2.888824 -2.989929
v -8.642014 2.888824 -4.812004
v -4.943176 2.888824 -5.934044
v -11.052414 1.091583 -1.495583
v -7.954254 1.091583 -3.151573
v -4.592552 1.091583 -4.171349
v -9.794235 -0.062317 0.387413
v -7.087601 -0.062317 -1.059311
v -4.150742 -0.062317 -1.950203
v -14.495346 0.000000 14.510216
v -12.127090 0.375092 14.510216
v -9.990646 1.463654 14.510216
v -8.295166 3.159149 14.510216
v -7.206589 5.295593 14.510216
v -6.831497 7.663849 14.510216
v -7.206589 10.032104 14.510216
v -8.295151 12.168549 14.510216
v -9.990646 13.864044 14.510216
v -12.127090 14.952606 14.510216
v -14.495346 15.327698 14.510216
v -16.863617 14.952606 14.510216
v -19.000046 13.864044 14.510216
v -20.695541 12.168549 14.510216
v -21.784103 10.032104 14.510216
v -22.159210 7.663849 14.510216
v -21.784103 5.295593 14.510216
v -20.695541 3.159149 14.510216
v -19.000046 1.463654 14.510216
v -16.863617 0.375092 14.510216
v -14.495346 -1.297760 14.510216
v -11.726059 -0.859131 14.510216
v -9.227859 0.413757 14.510216
v -7.245255 2.396362 14.510216
v -5.972366 4.894562 14.510216
v -5.533752 7.663849 14.510216
v -5.972366 10.433136 14.510216
v -7.245255 12.931335 14.510216
v -9.227859 14.913940 14.510216
v -11.726059 16.186829 14.510216
v -14.495346 16.625458 14.510216
v -17.264633 16.186829 14.510216
v -19.762848 14.913940 14.510216
v -21.745438 12.931335 14.510216
v -23.018341 10.433136 14.510216
v -23.456955 7.663849 14.510216
v -23.018341 4.894562 14.510216
v -21.745438 2.396362 14.510216
v -19.762848 0.413757 14.510216
v -17.264633 -0.859131 14.510216
v -14.216721 -1.297760 11.681252
v -13.391541 -1.297760 8.961006
v -12.051529 -1.297760 6.454010
v -10.250885 -1.297760 4.251900
v -11.500641 -0.859131 12.221512
v -10.833054 -0.859131 10.020760
v -9.748947 -0.859131 7.992546
v -8.292709 -0.859131 6.210075
v -9.050446 0.413757 12.708885
v -8.525009 0.413757 10.976784
v -7.671768 0.413757 9.380470
v -6.526215 0.413757 7.976578
v -7.105942 2.396362 13.095680
v -6.693329 2.396362 11.735497
v -6.023300 2.396362 10.481941
v -5.124298 2.396362 9.378487
v -5.857498 4.894562 13.344002
v -5.517334 4.894562 12.222610
v -4.964920 4.894562 11.189125
v -4.224228 4.894562 10.278557
v -5.427322 7.663849 13.429573
v -5.112106 7.663849 12.390465
v -4.600235 7.663849 11.432808
v -3.914078 7.663849 10.588707
v -5.857498 10.433136 13.344002
v -5.517334 10.433136 12.222610
v -4.964920 10.433136 11.189125
v -4.224228 10.433136 10.278557
v -7.105942 12.931335 13.095680
v -6.693329 12.931335 11.735497
v -6.023300 12.931335 10.481941
v -5.124298 12.931335 9.378487
v -9.050446 14.913940 12.708885
v -8.525009 14.913940 10.976784
v -7.671768 14.913940 9.380470
v -6.526215 14.913940 7.976578
v -11.500641 16.186829 12.221512
v -10.833054 16.186829 10.020760
v -9.748947 16.186829 7.992546
v -8.292709 16.186829 6.210075
v -14.216721 16.625458 11.681252
v -13.391541 16.625458 8.961006
v -12.051529 16.625458 6.454010
v -10.250885 16.625458 4.251900
v -16.932800 16.186829 11.140991
v -15.950027 16.186829 7.901245
v -14.354111 16.186829 4.915474
v -12.209076 16.186829 2.293716
v -19.383011 14.913940 10.653618
v -18.258072 14.913940 6.945221
v -16.431290 14.913940 3.527550
v -13.975571 14.913940 0.527214
v -21.327499 12.931335 10.266830
v -20.089752 12.931335 6.186516
v -18.079758 12.931335 2.426071
v -15.377472 12.931335 -0.874687
v -22.575943 10.433136 10.018501
v -21.265762 10.433136 5.699394
v -19.138138 10.433136 1.718895
v -16.277557 10.433136 -1.774765
v -23.006134 7.663849 9.932930
v -21.670990 7.663849 5.531548
v -19.502823 7.663849 1.475212
v -16.587692 7.663849 -2.084908
v -22.575943 4.894562 10.018501
v -21.265762 4.894562 5.699394
v -19.138138 4.894562 1.718895
v -16.277557 4.894562 -1.774765
v -21.327499 2.396362 10.266830
v -20.089752 2.396362 6.186516
v -18.079758 2.396362 2.426071
v -15.377472 2.396362 -0.874687
v -19.383011 0.413757 10.653618
v -18.258087 0.413757 6.945213
v -16.431290 0.413757 3.527542
v -13.975571 0.413757 0.527214
v -16.932800 -0.859131 11.140991
v -15.950027 -0.859131 7.901245
v -14.354111 -0.859131 4.915474
v -12.209076 -0.859131 2.293716
v -8.056213 -1.297760 2.443825
v -5.549210 -1.297760 1.103813
v -2.828964 -1.297760 0.278641
v 0.000000 -1.297760 0.000000
v -6.517670 -0.859131 4.746407
v -4.489456 -0.859131 3.662300
v -2.288712 -0.859131 2.994705
v 0.000000 -0.859131 2.769287
v 0.000000 0.000000 0.000000
v 0.000000 0.375092 2.368271
v -5.129745 0.413757 6.823586
v -3.533432 0.413757 5.970337
v -1.801331 0.413757 5.444908
v 0.000000 0.413757 5.267494
v 0.000000 1.463654 4.504707
v -4.028275 2.396362 8.472061
v -2.774719 2.396362 7.802017
v -1.414551 2.396362 7.389412
v 0.000000 2.396362 7.250099
v 0.000000 3.159149 6.200188
v -3.321091 4.894562 9.530434
v -2.287613 4.894562 8.978020
v -1.166214 4.894562 8.637856
v 0.000000 4.894562 8.522987
v 0.000000 5.295593 7.288757
v -3.077408 7.663849 9.895126
v -2.119766 7.663849 9.383247
v -1.080643 7.663849 9.068039
v 0.000000 7.663849 8.961601
v 0.000000 7.663849 7.663857
v -3.321091 10.433136 9.530434
v -2.287613 10.433136 8.978020
v -1.166214 10.433136 8.637856
v 0.000000 10.433136 8.522987
v 0.000000 10.032104 7.288757
v -4.028275 12.931335 8.472061
v -2.774719 12.931335 7.802017
v -1.414551 12.931335 7.389412
v 0.000000 12.931335 7.250099
v 0.000000 12.168549 6.200195
v -5.129745 14.913940 6.823586
v -3.533432 14.913940 5.970337
v -1.801331 14.913940 5.444908
v 0.000000 14.913940 5.267494
v 0.000000 13.864044 4.504707
v -6.517670 16.186829 4.746407
v -4.489456 16.186829 3.662300
v -2.288712 16.186829 2.994705
v 0.000000 16.186829 2.769287
v 0.000000 14.952606 2.368271
v -8.056213 16.625458 2.443825
v -5.549210 16.625458 1.103813
v -2.828964 16.625458 0.278641
v 0.000000 16.625458 0.000000
v 0.000000 15.327698 0.000000
v -9.594742 16.186829 0.141251
v -6.608978 16.186829 -1.454674
v -3.369232 16.186829 -2.437447
v 0.000000 16.186829 -2.769272
v 0.000000 14.952606 -2.368256
v -10.982666 14.913940 -1.935936
v -7.565002 14.913940 -3.762718
v -3.856606 14.913940 -4.887657
v 0.000000 14.913940 -5.267487
v 0.000000 13.864044 -4.504700
v -12.084152 12.931335 -3.584404
v -8.323700 12.931335 -5.594391
v -4.243393 12.931335 -6.832146
v 0.000000 12.931335 -7.250076
v 0.000000 12.168549 -6.200180
v -12.791321 10.433136 -4.642776
v -8.810822 10.433136 -6.770401
v -4.491714 10.433136 -8.080582
v 0.000000 10.433136 -8.522980
v 0.000000 10.032104 -7.288742
v -13.035004 7.663849 -5.007469
v -8.978668 7.663849 -7.175629
v -4.577286 7.663849 -8.510773
v 0.000000 7.663849 -8.961594
v 0.000000 7.663849 -7.663849
v -12.791321 4.894562 -4.642776
v -8.810822 4.894562 -6.770401
v -4.491714 4.894562 -8.080582
v 0.000000 4.894562 -8.522980
v 0.000000 5.295593 -7.288742
v -12.084152 2.396362 -3.584404
v -8.323700 2.396362 -5.594391
v -4.243393 2.396362 -6.832146
v 0.000000 2.396362 -7.250076
v 0.000000 3.159149 -6.200180
v -10.982681 0.413757 -1.935936
v -7.565002 0.413757 -3.762718
v -3.856613 0.413757 -4.887657
v 0.000000 0.413757 -5.267487
v 0.000000 1.463654 -4.504700
v -9.594742 -0.859131 0.141251
v -6.608978 -0.859131 -1.454674
v -3.369232 -0.859131 -2.437447
v 0.000000 -0.859131 -2.769272
v 0.000000 0.375092 -2.368256
vt 0.896093 0.086524
vt 0.880785 0.078582
vt 0.888347 0.055262
vt 0.903175 0.065892
vt 0.892831 0.100259
vt 0.877154 0.095005
vt 0.890988 0.114572
vt 0.875142 0.111891
vt 0.890301 0.129163
vt 0.874357 0.128991
vt 0.911311 0.094449
vt 0.917322 0.076165
vt 0.908699 0.105591
vt 0.907191 0.117260
vt 0.906656 0.129198
vt 0.926706 0.101361
vt 0.931283 0.084905
vt 0.924864 0.110290
vt 0.923776 0.119585
vt 0.923411 0.129079
vt 0.653421 0.100726
vt 0.637098 0.103227
vt 0.635247 0.088607
vt 0.650394 0.085511
vt 0.654525 0.108052
vt 0.637922 0.109726
vt 0.655150 0.115586
vt 0.638375 0.116286
vt 0.655247 0.123250
vt 0.638404 0.122896
vt 0.669403 0.095872
vt 0.664981 0.079379
vt 0.671139 0.104811
vt 0.672091 0.114109
vt 0.672199 0.123598
vt 0.685105 0.089096
vt 0.679440 0.070690
vt 0.687530 0.100321
vt 0.688819 0.112039
vt 0.688949 0.123982
vt 0.700744 0.081472
vt 0.694299 0.060608
vt 0.703680 0.095385
vt 0.705176 0.109802
vt 0.705299 0.124414
vt 0.716548 0.074020
vt 0.709973 0.050369
vt 0.719652 0.090708
vt 0.721146 0.107748
vt 0.721239 0.124881
vt 0.732643 0.067462
vt 0.726645 0.041008
vt 0.735520 0.086724
vt 0.736801 0.106067
vt 0.736854 0.125364
vt 0.749050 0.062229
vt 0.744282 0.033292
vt 0.751342 0.083648
vt 0.752238 0.104833
vt 0.752249 0.125851
vt 0.765719 0.058546
vt 0.762690 0.027756
vt 0.767160 0.081565
vt 0.767543 0.104060
vt 0.942520 0.106242
vt 0.945617 0.091020
vt 0.941338 0.113602
vt 0.940612 0.121161
vt 0.940380 0.128834
vt 0.958861 0.108746
vt 0.960717 0.094088
vt 0.957956 0.115322
vt 0.957366 0.121929
vt 0.957167 0.128561
vt 0.816338 0.057567
vt 0.799485 0.056026
vt 0.800555 0.024438
vt 0.819416 0.025966
vt 0.814577 0.081428
vt 0.798805 0.080435
vt 0.813536 0.104678
vt 0.798245 0.104010
vt 0.812926 0.127629
vt 0.797771 0.127222
vt 0.832952 0.060654
vt 0.837901 0.030143
vt 0.830298 0.083426
vt 0.828826 0.105817
vt 0.828105 0.128019
vt 0.849256 0.065288
vt 0.855692 0.036713
vt 0.845952 0.086399
vt 0.844150 0.107420
vt 0.843355 0.128387
vt 0.865200 0.071351
vt 0.767522 0.126334
vt 0.782563 0.056491
vt 0.781565 0.024739
vt 0.782989 0.080496
vt 0.782925 0.103811
vt 0.782602 0.126798
vt 0.654769 0.130893
vt 0.638108 0.129498
vt 0.653840 0.138424
vt 0.637300 0.136065
vt 0.652441 0.145733
vt 0.636174 0.142590
vt 0.671561 0.133063
vt 0.670264 0.142322
vt 0.668196 0.151186
vt 0.688110 0.135895
vt 0.686399 0.147522
vt 0.683559 0.158587
vt 0.704305 0.138986
vt 0.702276 0.153251
vt 0.698786 0.166906
vt 0.720186 0.141967
vt 0.718001 0.158805
vt 0.714148 0.175152
vt 0.735836 0.144612
vt 0.733675 0.163730
vt 0.729821 0.182613
vt 0.751337 0.146811
vt 0.872544 0.045276
vt 0.861555 0.090299
vt 0.859562 0.109464
vt 0.858742 0.128720
vt 0.890727 0.143777
vt 0.874709 0.146127
vt 0.892390 0.158163
vt 0.876353 0.163133
vt 0.895530 0.172016
vt 0.879648 0.179767
vt 0.907087 0.141142
vt 0.908565 0.152833
vt 0.239672 0.365565
vt 0.257265 0.371283
vt 0.806172 0.714536
vt 0.806172 0.694216
vt 0.826930 0.696261
vt 0.822966 0.716190
vt 0.846889 0.702315
vt 0.839114 0.721088
vt 0.865284 0.712148
vt 0.853995 0.729043
vt 0.224706 0.354691
vt 0.881442 0.725360
vt 0.867074 0.739728
vt 0.806172 0.732866
vt 0.819389 0.734168
vt 0.213834 0.339724
vt 0.832099 0.738023
vt 0.843812 0.744284
vt 0.854112 0.752689
vt 0.806172 0.747413
vt 0.208118 0.322130
vt 0.816552 0.748435
vt 0.826532 0.751463
vt 0.835730 0.756379
vt 0.843826 0.762976
vt 0.208119 0.303631
vt 0.806172 0.756753
vt 0.814730 0.757596
vt 0.822958 0.760092
vt 0.830541 0.764145
vt 0.213837 0.286038
vt 0.608745 0.156735
vt 0.608745 0.159954
vt 0.600816 0.160735
vt 0.600188 0.157578
vt 0.224711 0.271072
vt 0.593192 0.163047
vt 0.239678 0.260200
vt 0.591960 0.160074
vt 0.586165 0.166803
vt 0.257272 0.254484
vt 0.584377 0.164127
vt 0.579972 0.171838
vt 0.275771 0.254485
vt 0.577696 0.169562
vt 0.608745 0.147396
vt 0.598366 0.148418
vt 0.293364 0.260203
vt 0.588386 0.151445
vt 0.579188 0.156362
vt 0.571092 0.162958
vt 0.608745 0.132849
vt 0.308330 0.271077
vt 0.595528 0.134150
vt 0.582819 0.138005
vt 0.571106 0.144266
vt 0.319202 0.286044
vt 0.560805 0.152671
vt 0.608745 0.114518
vt 0.591952 0.116172
vt 0.324918 0.303638
vt 0.575804 0.121070
vt 0.560923 0.129025
vt 0.547844 0.139710
vt 0.608745 0.094199
vt 0.324917 0.322137
vt 0.837222 0.769580
vt 0.806172 0.759971
vt 0.814102 0.760752
vt 0.821726 0.763065
vt 0.319199 0.339730
vt 0.828753 0.766821
vt 0.834946 0.771855
vt 0.806172 0.631680
vt 0.806172 0.628461
vt 0.308325 0.354696
vt 0.839758 0.631769
vt 0.839130 0.634926
vt 0.872053 0.641566
vt 0.870821 0.644539
vt 0.293358 0.365568
vt 0.901816 0.657475
vt 0.900028 0.660150
vt 0.927938 0.678864
vt 0.925662 0.681140
vt 0.275764 0.371284
vt 0.806172 0.641020
vt 0.837308 0.644086
vt 0.867247 0.653168
vt 0.894839 0.667916
vt 0.919058 0.687744
vt 0.806172 0.655567
vt 0.834470 0.658354
vt 0.861680 0.666608
vt 0.886757 0.680012
vt 0.908771 0.698030
vt 0.293361 0.365567
vt 0.308327 0.354694
vt 0.806172 0.673897
vt 0.830894 0.676332
vt 0.854665 0.683543
vt 0.319201 0.339728
vt 0.876573 0.695253
vt 0.895810 0.710992
vt 0.894708 0.741463
vt 0.324917 0.322134
vt 0.877813 0.752752
vt 0.904541 0.759858
vt 0.885768 0.767634
vt 0.324918 0.303635
vt 0.910595 0.779817
vt 0.890666 0.783781
vt 0.912640 0.800575
vt 0.319201 0.286041
vt 0.587988 0.096243
vt 0.568029 0.102298
vt 0.549634 0.112130
vt 0.308328 0.271075
vt 0.533476 0.125342
vt 0.608745 0.073879
vt 0.293362 0.260201
vt 0.584024 0.076314
vt 0.560253 0.083525
vt 0.538345 0.095235
vt 0.275768 0.254485
vt 0.519108 0.110974
vt 0.608745 0.055549
vt 0.257269 0.254484
vt 0.580448 0.058336
vt 0.553238 0.066590
vt 0.528161 0.079994
vt 0.239675 0.260201
vt 0.224709 0.271074
vt 0.213835 0.286040
vt 0.506146 0.098013
vt 0.608745 0.041002
vt 0.208119 0.303634
vt 0.577610 0.044068
vt 0.547671 0.053150
vt 0.520079 0.067898
vt 0.208118 0.322133
vt 0.892320 0.800575
vt 0.862572 0.762936
vt 0.868833 0.774648
vt 0.213835 0.339727
vt 0.872688 0.787358
vt 0.873990 0.800575
vt 0.850477 0.771018
vt 0.224708 0.354693
vt 0.855393 0.780215
vt 0.858421 0.790195
vt 0.859443 0.800575
vt 0.239674 0.365567
vt 0.842711 0.776206
vt 0.846764 0.783790
vt 0.849260 0.792018
vt 0.257268 0.371283
vt 0.850103 0.800575
vt 0.840035 0.777995
vt 0.843791 0.785021
vt 0.275767 0.371284
vt 0.274429 0.262941
vt 0.258608 0.262941
vt 0.289475 0.267830
vt 0.302273 0.277129
vt 0.311572 0.289928
vt 0.316461 0.304974
vt 0.316460 0.320795
vt 0.311572 0.335841
vt 0.302273 0.348639
vt 0.289474 0.357938
vt 0.274428 0.362827
vt 0.258607 0.362827
vt 0.243561 0.357938
vt 0.230763 0.348638
vt 0.221464 0.335840
vt 0.216575 0.320793
vt 0.216576 0.304973
vt 0.221464 0.289927
vt 0.230763 0.277129
vt 0.243562 0.267830
vt 0.302275 0.277131
vt 0.289477 0.267831
vt 0.274431 0.262942
vt 0.258611 0.262941
vt 0.243564 0.267829
vt 0.230765 0.277127
vt 0.221465 0.289925
vt 0.311573 0.289930
vt 0.316461 0.304977
vt 0.316460 0.320797
vt 0.311570 0.335842
vt 0.302271 0.348641
vt 0.289471 0.357939
vt 0.274425 0.362827
vt 0.258605 0.362826
vt 0.243559 0.357937
vt 0.230761 0.348637
vt 0.221463 0.335837
vt 0.216575 0.320791
vt 0.216576 0.304971
vt 0.495860 0.087726
vt 0.608745 0.031662
vt 0.575788 0.034908
vt 0.544097 0.044521
vt 0.514890 0.060133
vt 0.489256 0.081122
vt 0.608745 0.028444
vt 0.575160 0.031752
vt 0.542865 0.041548
vt 0.513102 0.057457
vt 0.486980 0.078846
vt 0.574883 0.177977
vt 0.572207 0.176189
vt 0.571127 0.185004
vt 0.568153 0.183772
vt 0.568814 0.192628
vt 0.565657 0.192000
vt 0.568033 0.200557
vt 0.564815 0.200557
vt 0.564441 0.171000
vt 0.559525 0.180198
vt 0.556497 0.190178
vt 0.555475 0.200557
vt 0.552345 0.162918
vt 0.546085 0.174631
vt 0.542229 0.187340
vt 0.540928 0.200557
vt 0.537104 0.152734
vt 0.529150 0.167616
vt 0.524251 0.183764
vt 0.522597 0.200557
vt 0.520209 0.141445
vt 0.510377 0.159840
vt 0.504322 0.179800
vt 0.502278 0.200557
vt 0.503314 0.130156
vt 0.491604 0.152064
vt 0.484393 0.175836
vt 0.481959 0.200557
vt 0.488073 0.119973
vt 0.474669 0.145049
vt 0.466415 0.172259
vt 0.463628 0.200557
vt 0.475978 0.111891
vt 0.461230 0.139483
vt 0.452148 0.169422
vt 0.449081 0.200557
vt 0.468212 0.106702
vt 0.452601 0.135908
vt 0.442987 0.167599
vt 0.439741 0.200557
vt 0.465536 0.104914
vt 0.449627 0.134677
vt 0.439831 0.166972
vt 0.436523 0.200557
vt 0.846104 0.792646
vt 0.846885 0.800575
vt 0.949382 0.704931
vt 0.946706 0.706720
vt 0.965290 0.734694
vt 0.962317 0.735926
vt 0.975087 0.766989
vt 0.971930 0.767617
vt 0.978395 0.800575
vt 0.975176 0.800575
vt 0.938940 0.711908
vt 0.953688 0.739500
vt 0.962770 0.769439
vt 0.965837 0.800575
vt 0.926845 0.719990
vt 0.940248 0.745067
vt 0.948503 0.772277
vt 0.951289 0.800575
vt 0.911603 0.730174
vt 0.923313 0.752082
vt 0.930524 0.775853
vt 0.932959 0.800575
vt 0.911201 0.163998
vt 0.923787 0.138563
vt 0.924940 0.147841
vt 0.926886 0.156730
vt 0.940677 0.136491
vt 0.941506 0.144013
vt 0.942817 0.151304
vt 0.957395 0.135167
vt 0.958050 0.141713
vt 0.959076 0.148184
vt 0.812647 0.150583
vt 0.797344 0.150405
vt 0.812650 0.173880
vt 0.796757 0.173961
vt 0.813115 0.197856
vt 0.796048 0.198341
vt 0.827998 0.150246
vt 0.828558 0.172742
vt 0.830101 0.195737
vt 0.843422 0.149393
vt 0.844470 0.170553
vt 0.846907 0.191942
vt 0.858968 0.148018
vt 0.860394 0.167328
vt 0.863443 0.186548
vt 0.917287 0.182249
vt 0.902344 0.192739
vt 0.931769 0.173080
vt 0.946331 0.166408
vt 0.961422 0.162733
vt 0.814137 0.229563
vt 0.794929 0.229868
vt 0.833230 0.226483
vt 0.851850 0.220823
vt 0.869686 0.212922
vt 0.886533 0.203306
vt 0.749366 0.167788
vt 0.745875 0.188846
vt 0.766744 0.148521
vt 0.765108 0.170872
vt 0.762303 0.193602
vt 0.782085 0.149706
vt 0.780911 0.172938
vt 0.779053 0.196765
vt 0.648825 0.160822
vt 0.633789 0.157156
vt 0.663118 0.167474
vt 0.677077 0.176683
vt 0.691275 0.187356
vt 0.706205 0.198316
vt 0.722152 0.208565
vt 0.739177 0.217331
vt 0.757161 0.224044
vt 0.775854 0.228309
vn -0.274040 0.951137 -0.142271
vn 0.026436 0.997390 -0.067185
vn 0.035804 0.992206 -0.119357
vn -0.266920 0.946669 -0.180474
vn -0.261880 0.958985 -0.108474
vn 0.022864 0.999694 0.009470
vn -0.235970 0.958945 -0.157298
vn 0.020510 0.999696 0.013684
vn -0.200918 0.958980 -0.199975
vn 0.017516 0.999694 0.017465
vn -0.545092 0.810312 -0.215103
vn -0.539251 0.806010 -0.244040
vn -0.522937 0.824390 -0.216605
vn -0.471185 0.824286 -0.313906
vn -0.401426 0.824376 -0.399076
vn -0.758930 0.588762 -0.278179
vn -0.752695 0.584726 -0.302566
vn -0.734774 0.606200 -0.304350
vn -0.662132 0.606045 -0.440784
vn -0.564450 0.606177 -0.560309
vn -0.894686 0.309255 -0.322332
vn -0.887014 0.306602 -0.345256
vn -0.874602 0.322230 -0.362270
vn -0.788230 0.322100 -0.524352
vn -0.672336 0.322210 -0.666443
vn -0.940992 -0.000000 -0.338428
vn -0.932525 -0.000000 -0.361107
vn -0.923880 0.000000 -0.382683
vn -0.832684 0.000000 -0.553749
vn -0.710436 0.000000 -0.703762
vn -0.894686 -0.309254 -0.322333
vn -0.887014 -0.306598 -0.345259
vn -0.874602 -0.322228 -0.362270
vn -0.788230 -0.322099 -0.524352
vn -0.672336 -0.322208 -0.666443
vn -0.758929 -0.588763 -0.278182
vn -0.752694 -0.584724 -0.302571
vn -0.734774 -0.606200 -0.304350
vn -0.662132 -0.606045 -0.440784
vn -0.564450 -0.606177 -0.560308
vn -0.545088 -0.810314 -0.215106
vn -0.539247 -0.806011 -0.244045
vn -0.522932 -0.824394 -0.216603
vn -0.471181 -0.824290 -0.313903
vn -0.401423 -0.824379 -0.399073
vn -0.274040 -0.951136 -0.142274
vn -0.266920 -0.946668 -0.180479
vn -0.261882 -0.958985 -0.108474
vn -0.235971 -0.958945 -0.157299
vn -0.200919 -0.958979 -0.199976
vn 0.026437 -0.997390 -0.067187
vn 0.035806 -0.992205 -0.119362
vn 0.022865 -0.999694 0.009471
vn 0.020512 -0.999696 0.013685
vn 0.017517 -0.999694 0.017466
vn 0.325748 -0.945449 0.003900
vn 0.337139 -0.939194 -0.065210
vn 0.304188 -0.944243 0.125999
vn 0.273853 -0.944259 0.182698
vn 0.233171 -0.944245 0.232450
vn 0.594252 -0.801603 0.065553
vn 0.606582 -0.794749 -0.020791
vn 0.555620 -0.798949 0.230146
vn 0.500240 -0.798964 0.333792
vn 0.425829 -0.798952 0.424671
vn 0.806145 -0.580794 0.113177
vn 0.818272 -0.574703 0.012096
vn 0.753760 -0.578244 0.312218
vn 0.678622 -0.578251 0.452877
vn 0.577616 -0.578245 0.576188
vn 0.941588 -0.304786 0.143240
vn 0.953028 -0.301157 0.032276
vn 0.880363 -0.303292 0.364659
vn 0.792593 -0.303292 0.528972
vn 0.674588 -0.303290 0.673013
vn 0.988146 -0.000000 0.153515
vn 0.999236 -0.000000 0.039076
vn 0.923879 0.000000 0.382684
vn 0.831765 0.000000 0.555128
vn 0.707917 -0.000000 0.706296
vn 0.941588 0.304787 0.143241
vn 0.953028 0.301159 0.032277
vn 0.880362 0.303294 0.364659
vn 0.792592 0.303294 0.528971
vn 0.674587 0.303292 0.673012
vn 0.806145 0.580793 0.113179
vn 0.818272 0.574704 0.012099
vn 0.753761 0.578243 0.312218
vn 0.678622 0.578251 0.452878
vn 0.577617 0.578245 0.576188
vn 0.594254 0.801601 0.065555
vn 0.606583 0.794748 -0.020787
vn 0.555623 0.798946 0.230147
vn 0.500242 0.798961 0.333795
vn 0.425832 0.798949 0.424673
vn 0.325748 0.945449 0.003902
vn 0.337140 0.939194 -0.065207
vn 0.304189 0.944242 0.125999
vn 0.273854 0.944259 0.182699
vn 0.233172 0.944245 0.232451
vn -0.157694 0.959024 -0.235386
vn 0.013814 0.999691 0.020641
vn -0.108474 0.958985 -0.261880
vn 0.009470 0.999694 0.022864
vn -0.142328 0.951127 -0.274043
vn -0.067193 0.997390 0.026425
vn -0.315097 0.824491 -0.470030
vn -0.216608 0.824390 -0.522936
vn -0.215219 0.810290 -0.545079
vn -0.443046 0.606350 -0.660340
vn -0.304353 0.606200 -0.734772
vn -0.278357 0.588733 -0.758888
vn -0.527706 0.322354 -0.785885
vn -0.362271 0.322230 -0.874601
vn -0.322562 0.309233 -0.894611
vn -0.557600 0.000000 -0.830109
vn -0.382682 0.000000 -0.923880
vn -0.338678 -0.000000 -0.940902
vn -0.527706 -0.322352 -0.785885
vn -0.362271 -0.322229 -0.874602
vn -0.322564 -0.309233 -0.894611
vn -0.443046 -0.606350 -0.660340
vn -0.304353 -0.606201 -0.734772
vn -0.278360 -0.588733 -0.758887
vn -0.315094 -0.824494 -0.470026
vn -0.216606 -0.824394 -0.522931
vn -0.215221 -0.810292 -0.545075
vn -0.157695 -0.959023 -0.235388
vn -0.108475 -0.958984 -0.261882
vn -0.142331 -0.951127 -0.274043
vn 0.013815 -0.999692 0.020642
vn 0.009471 -0.999694 0.022865
vn -0.067195 -0.997390 0.026427
vn 0.183167 -0.944226 0.273654
vn 0.125999 -0.944243 0.304187
vn 0.003929 -0.945453 0.325736
vn 0.334480 -0.798936 0.499825
vn 0.230146 -0.798949 0.555620
vn 0.065607 -0.801607 0.594240
vn 0.453707 -0.578237 0.678080
vn 0.312218 -0.578243 0.753761
vn 0.113248 -0.580795 0.806134
vn 0.529881 -0.303289 0.791986
vn 0.364658 -0.303291 0.880363
vn 0.143319 -0.304786 0.941576
vn 0.556063 -0.000000 0.831140
vn 0.382683 -0.000000 0.923880
vn 0.153597 -0.000000 0.988134
vn 0.529880 0.303291 0.791986
vn 0.364658 0.303293 0.880362
vn 0.143320 0.304787 0.941575
vn 0.453707 0.578236 0.678081
vn 0.312218 0.578242 0.753761
vn 0.113250 0.580794 0.806134
vn 0.334483 0.798933 0.499827
vn 0.230147 0.798947 0.555623
vn 0.065610 0.801605 0.594243
vn 0.183167 0.944226 0.273655
vn 0.125999 0.944242 0.304189
vn 0.003931 0.945452 0.325737
vn 0.283347 -0.958611 0.027907
vn -0.024748 -0.999691 -0.002437
vn -0.024273 -0.999694 -0.004828
vn 0.278010 -0.958985 0.055300
vn -0.022864 -0.999694 -0.009471
vn 0.261880 -0.958985 0.108474
vn -0.020511 -0.999696 -0.013684
vn 0.235969 -0.958945 0.157297
vn -0.017516 -0.999694 -0.017465
vn 0.200917 -0.958980 0.199974
vn 0.565144 -0.823112 0.055661
vn 0.555145 -0.824391 0.110426
vn 0.522936 -0.824390 0.216607
vn 0.471185 -0.824287 0.313906
vn 0.401426 -0.824377 0.399075
vn 0.792884 -0.604349 0.078091
vn 0.780030 -0.606200 0.155158
vn 0.734774 -0.606199 0.304353
vn 0.662133 -0.606044 0.440785
vn 0.564450 -0.606176 0.560309
vn 0.942574 -0.320838 0.092836
vn 0.928472 -0.322229 0.184685
vn 0.874601 -0.322229 0.362271
vn 0.788231 -0.322100 0.524351
vn 0.672335 -0.322209 0.666444
vn 0.995185 0.000000 0.098018
vn 0.980785 -0.000000 0.195090
vn 0.923880 -0.000000 0.382683
vn 0.832685 -0.000000 0.553747
vn 0.710434 0.000000 0.703764
vn 0.942574 0.320837 0.092836
vn 0.928472 0.322229 0.184685
vn 0.874602 0.322229 0.362271
vn 0.788231 0.322100 0.524351
vn 0.672334 0.322209 0.666444
vn 0.792884 0.604349 0.078091
vn 0.780030 0.606200 0.155158
vn 0.734773 0.606199 0.304353
vn 0.662133 0.606044 0.440785
vn 0.564450 0.606176 0.560309
vn 0.565144 0.823112 0.055661
vn 0.555145 0.824391 0.110426
vn 0.522936 0.824390 0.216607
vn 0.471185 0.824287 0.313905
vn 0.401426 0.824377 0.399075
vn 0.283347 0.958612 0.027907
vn 0.278010 0.958985 0.055300
vn 0.261880 0.958985 0.108474
vn 0.235969 0.958945 0.157297
vn 0.200917 0.958980 0.199974
vn -0.024748 0.999691 -0.002437
vn -0.024272 0.999694 -0.004828
vn -0.022864 0.999694 -0.009471
vn -0.020511 0.999696 -0.013684
vn -0.017516 0.999694 -0.017465
vn -0.329077 0.943747 -0.032411
vn -0.322924 0.944243 -0.064233
vn -0.304188 0.944243 -0.125999
vn -0.273853 0.944260 -0.182698
vn -0.233170 0.944245 -0.232450
vn -0.600349 0.797549 -0.059129
vn -0.589846 0.798947 -0.117328
vn -0.555623 0.798947 -0.230147
vn -0.500242 0.798961 -0.333794
vn -0.425831 0.798949 -0.424674
vn -0.813244 0.576384 -0.080098
vn -0.800188 0.578243 -0.159167
vn -0.753761 0.578243 -0.312218
vn -0.678623 0.578250 -0.452877
vn -0.577616 0.578245 -0.576188
vn -0.948728 0.301967 -0.093442
vn -0.934588 0.303294 -0.185901
vn -0.880362 0.303293 -0.364658
vn -0.792592 0.303294 -0.528971
vn -0.674588 0.303292 -0.673012
vn -0.995185 0.000000 -0.098017
vn -0.980785 0.000000 -0.195090
vn -0.923879 0.000000 -0.382684
vn -0.831765 0.000000 -0.555128
vn -0.707917 0.000000 -0.706295
vn -0.948728 -0.301967 -0.093442
vn -0.934588 -0.303294 -0.185901
vn -0.880362 -0.303293 -0.364658
vn -0.792592 -0.303294 -0.528971
vn -0.674588 -0.303292 -0.673012
vn -0.813244 -0.576384 -0.080098
vn -0.800189 -0.578242 -0.159167
vn -0.753761 -0.578242 -0.312218
vn -0.678623 -0.578250 -0.452878
vn -0.577617 -0.578244 -0.576188
vn -0.600349 -0.797549 -0.059129
vn -0.589846 -0.798947 -0.117327
vn -0.555623 -0.798947 -0.230147
vn -0.500242 -0.798961 -0.333794
vn -0.425831 -0.798949 -0.424674
vn -0.329077 -0.943747 -0.032411
vn -0.322924 -0.944243 -0.064233
vn -0.304187 -0.944243 -0.125998
vn -0.273853 -0.944260 -0.182698
vn -0.233170 -0.944245 -0.232450
vn -0.013814 -0.999691 -0.020641
vn 0.157694 -0.959024 0.235386
vn -0.009471 -0.999694 -0.022864
vn 0.108474 -0.958985 0.261880
vn -0.004828 -0.999694 -0.024272
vn 0.055300 -0.958985 0.278010
vn -0.002437 -0.999691 -0.024748
vn 0.027907 -0.958611 0.283347
vn 0.315096 -0.824492 0.470030
vn 0.216608 -0.824391 0.522935
vn 0.110425 -0.824391 0.555145
vn 0.055661 -0.823113 0.565143
vn 0.443047 -0.606350 0.660341
vn 0.304354 -0.606200 0.734772
vn 0.155157 -0.606200 0.780031
vn 0.078091 -0.604349 0.792884
vn 0.527705 -0.322353 0.785886
vn 0.362272 -0.322230 0.874601
vn 0.184683 -0.322230 0.928472
vn 0.092837 -0.320838 0.942573
vn 0.557599 0.000000 0.830110
vn 0.382683 -0.000000 0.923880
vn 0.195090 -0.000000 0.980785
vn 0.098022 -0.000000 0.995184
vn 0.527705 0.322353 0.785886
vn 0.362272 0.322230 0.874601
vn 0.184683 0.322229 0.928472
vn 0.092837 0.320838 0.942573
vn 0.443047 0.606350 0.660341
vn 0.304354 0.606200 0.734772
vn 0.155157 0.606200 0.780031
vn 0.078091 0.604348 0.792884
vn 0.315096 0.824492 0.470030
vn 0.216608 0.824391 0.522935
vn 0.110425 0.824391 0.555145
vn 0.055661 0.823113 0.565143
vn 0.157694 0.959024 0.235386
vn 0.108475 0.958985 0.261880
vn 0.055300 0.958985 0.278010
vn 0.027907 0.958612 0.283347
vn -0.013814 0.999691 -0.020641
vn -0.009471 0.999694 -0.022864
vn -0.004828 0.999694 -0.024272
vn -0.002437 0.999691 -0.024748
vn -0.183167 0.944226 -0.273654
vn -0.125999 0.944243 -0.304187
vn -0.064233 0.944243 -0.322924
vn -0.032410 0.943747 -0.329077
vn -0.334482 0.798934 -0.499827
vn -0.230147 0.798947 -0.555623
vn -0.117327 0.798947 -0.589846
vn -0.059128 0.797549 -0.600349
vn -0.453706 0.578236 -0.678081
vn -0.312218 0.578242 -0.753761
vn -0.159167 0.578242 -0.800189
vn -0.080097 0.576384 -0.813244
vn -0.529880 0.303291 -0.791986
vn -0.364658 0.303293 -0.880363
vn -0.185901 0.303293 -0.934588
vn -0.093441 0.301966 -0.948728
vn -0.556063 0.000000 -0.831140
vn -0.382683 0.000000 -0.923880
vn -0.195090 0.000000 -0.980785
vn -0.098017 -0.000000 -0.995185
vn -0.529880 -0.303291 -0.791986
vn -0.364658 -0.303293 -0.880363
vn -0.185901 -0.303293 -0.934588
vn -0.093441 -0.301966 -0.948728
vn -0.453707 -0.578236 -0.678081
vn -0.312218 -0.578242 -0.753762
vn -0.159167 -0.578242 -0.800189
vn -0.080097 -0.576384 -0.813244
vn -0.334482 -0.798934 -0.499827
vn -0.230147 -0.798947 -0.555623
vn -0.117327 -0.798947 -0.589846
vn -0.059127 -0.797549 -0.600349
vn -0.183166 -0.944226 -0.273654
vn -0.125999 -0.944243 -0.304187
vn -0.064233 -0.944243 -0.322924
vn -0.032410 -0.943747 -0.329077
vn 1.000000 0.000000 0.000000
vn 1.000000 0.000000 0.000000
vn 1.000000 0.000000 0.000000
vn 1.000000 0.000000 0.000000
vn 1.000000 0.000000 0.000000
vn 1.000000 0.000000 0.000000
vn 1.000000 0.000000 0.000000
vn 1.000000 0.000000 0.000000
vn 1.000000 0.000000 0.000000
vn 1.000000 0.000000 0.000000
vn 1.000000 0.000000 0.000000
vn 1.000000 0.000000 0.000000
vn 1.000000 0.000000 0.000000
vn 1.000000 0.000000 0.000000
vn 1.000000 0.000000 0.000000
vn 1.000000 0.000000 0.000000
vn 1.000000 0.000000 0.000000
vn 1.000000 0.000000 0.000000
vn 1.000000 0.000000 0.000000
vn 1.000000 0.000000 0.000000
vn 1.000000 0.000000 0.000000
vn 1.000000 0.000000 0.000000
vn 1.000000 0.000000 0.000000
vn 1.000000 0.000000 0.000000
vn 1.000000 0.000000 0.000000
vn 1.000000 0.000000 0.000000
vn 1.000000 0.000000 0.000000
vn 1.000000 0.000000 0.000000
vn 1.000000 0.000000 0.000000
vn 1.000000 0.000000 0.000000
vn 1.000000 0.000000 0.000000
vn 1.000000 0.000000 0.000000
vn 1.000000 0.000000 0.000000
vn 1.000000 0.000000 0.000000
vn 1.000000 0.000000 0.000000
vn 1.000000 0.000000 0.000000
vn 1.000000 0.000000 0.000000
vn 1.000000 0.000000 0.000000
vn 1.000000 0.000000 0.000000
vn 1.000000 0.000000 0.000000
vn 1.000000 0.000000 0.000000
vn 1.000000 0.000000 0.000000
vn 1.000000 0.000000 0.000000
vn 1.000000 0.000000 0.000000
vn 1.000000 0.000000 0.000000
vn 1.000000 0.000000 0.000000
vn 1.000000 0.000000 0.000000
vn 1.000000 0.000000 0.000000
vn 1.000000 0.000000 0.000000
vn 1.000000 0.000000 0.000000
vn 1.000000 0.000000 0.000000
vn 1.000000 0.000000 0.000000
vn 1.000000 0.000000 0.000000
vn 1.000000 0.000000 0.000000
vn 1.000000 0.000000 0.000000
vn 1.000000 0.000000 0.000000
vn 1.000000 0.000000 0.000000
vn 1.000000 0.000000 0.000000
vn 1.000000 0.000000 0.000000
vn 1.000000 0.000000 0.000000
vn 1.000000 0.000000 0.000000
vn 1.000000 0.000000 0.000000
vn 1.000000 0.000000 0.000000
vn 1.000000 0.000000 0.000000
vn 1.000000 0.000000 0.000000
vn 1.000000 0.000000 0.000000
vn 1.000000 0.000000 0.000000
vn 1.000000 0.000000 0.000000
vn 1.000000 0.000000 0.000000
vn 1.000000 0.000000 0.000000
vn 1.000000 0.000000 0.000000
vn 1.000000 0.000000 0.000000
vn 1.000000 0.000000 0.000000
vn 1.000000 0.000000 0.000000
vn 1.000000 0.000000 0.000000
vn 1.000000 0.000000 0.000000
vn 1.000000 0.000000 0.000000
vn 1.000000 0.000000 0.000000
vn 1.000000 0.000000 0.000000
vn 1.000000 0.000000 0.000000
vn 0.000001 0.000000 1.000000
vn 0.000001 0.000000 1.000000
vn 0.000001 0.000000 1.000000
vn 0.000001 0.000000 1.000000
vn -0.000001 0.000000 1.000000
vn -0.000001 0.000000 1.000000
vn -0.000001 0.000000 1.000000
vn -0.000001 0.000000 1.000000
vn 0.000001 0.000000 1.000000
vn 0.000001 0.000000 1.000000
vn 0.000001 0.000000 1.000000
vn 0.000001 0.000000 1.000000
vn 0.000000 0.000000 1.000000
vn 0.000000 0.000000 1.000000
vn 0.000000 0.000000 1.000000
vn 0.000000 0.000000 1.000000
vn -0.000000 0.000000 1.000000
vn -0.000000 0.000000 1.000000
vn -0.000000 0.000000 1.000000
vn -0.000000 0.000000 1.000000
vn 0.000000 0.000000 1.000000
vn 0.000000 0.000000 1.000000
vn 0.000000 0.000000 1.000000
vn 0.000000 0.000000 1.000000
vn 0.000000 0.000000 1.000000
vn 0.000000 0.000000 1.000000
vn 0.000000 0.000000 1.000000
vn 0.000000 0.000000 1.000000
vn 0.000000 0.000000 1.000000
vn 0.000000 0.000000 1.000000
vn 0.000000 0.000000 1.000000
vn 0.000000 0.000000 1.000000
vn 0.000000 0.000000 1.000000
vn 0.000000 0.000000 1.000000
vn 0.000000 0.000000 1.000000
vn 0.000000 0.000000 1.000000
vn 0.000000 0.000000 1.000000
vn 0.000000 0.000000 1.000000
vn 0.000000 0.000000 1.000000
vn 0.000000 0.000000 1.000000
vn -0.000000 0.000000 1.000000
vn -0.000000 0.000000 1.000000
vn -0.000000 0.000000 1.000000
vn -0.000000 0.000000 1.000000
vn 0.000000 0.000000 1.000000
vn 0.000000 0.000000 1.000000
vn 0.000000 0.000000 1.000000
vn 0.000000 0.000000 1.000000
vn 0.000000 0.000000 1.000000
vn 0.000000 0.000000 1.000000
vn 0.000000 0.000000 1.000000
vn 0.000000 0.000000 1.000000
vn -0.000001 0.000000 1.000000
vn -0.000001 0.000000 1.000000
vn -0.000001 0.000000 1.000000
vn -0.000001 0.000000 1.000000
vn 0.000001 0.000000 1.000000
vn 0.000001 0.000000 1.000000
vn 0.000001 0.000000 1.000000
vn 0.000001 0.000000 1.000000
vn -0.000001 0.000000 1.000000
vn -0.000001 0.000000 1.000000
vn -0.000001 0.000000 1.000000
vn -0.000001 0.000000 1.000000
vn -0.000000 0.000000 1.000000
vn -0.000000 0.000000 1.000000
vn -0.000000 0.000000 1.000000
vn -0.000000 0.000000 1.000000
vn 0.000000 0.000000 1.000000
vn 0.000000 0.000000 1.000000
vn 0.000000 0.000000 1.000000
vn 0.000000 0.000000 1.000000
vn 0.000000 0.000000 1.000000
vn 0.000000 0.000000 1.000000
vn 0.000000 0.000000 1.000000
vn 0.000000 0.000000 1.000000
vn 0.000000 0.000000 1.000000
vn 0.000000 0.000000 1.000000
vn 0.000000 0.000000 1.000000
vn 0.000000 0.000000 1.000000
vn -0.244220 0.805994 -0.539194
vn -0.180564 0.946662 -0.266884
vn -0.302838 0.584701 -0.752605
vn -0.345600 0.306583 -0.886886
vn -0.361478 0.000000 -0.932381
vn -0.345603 -0.306580 -0.886886
vn -0.302844 -0.584700 -0.752604
vn -0.244225 -0.805995 -0.539191
vn -0.180568 -0.946661 -0.266885
vn -0.119374 -0.992203 0.035830
vn -0.065164 -0.939192 0.337153
vn -0.020702 -0.794746 0.606589
vn 0.012213 -0.574698 0.818275
vn 0.032410 -0.301154 0.953024
vn 0.039216 -0.000000 0.999231
vn 0.032411 0.301156 0.953024
vn 0.012217 0.574699 0.818274
vn -0.020698 0.794745 0.606591
vn -0.065160 0.939192 0.337154
vn -0.119370 0.992203 0.035828
s 1
g L_Pipe_Corner
usemtl initialShadingGroup
f 2/1/1 1/2/2 141/3/3 142/4/4
f 2/1/1 4/5/5 3/6/6 1/2/2
f 4/5/5 6/7/7 5/8/8 3/6/6
f 6/7/7 8/9/9 7/10/10 5/8/8
f 9/11/11 2/1/1 142/4/4 143/12/12
f 9/11/11 10/13/13 4/5/5 2/1/1
f 10/13/13 11/14/14 6/7/7 4/5/5
f 11/14/14 12/15/15 8/9/9 6/7/7
f 13/16/16 9/11/11 143/12/12 144/17/17
f 13/16/16 14/18/18 10/13/13 9/11/11
f 14/18/18 15/19/19 11/14/14 10/13/13
f 15/19/19 16/20/20 12/15/15 11/14/14
f 17/65/21 13/16/16 144/17/17 145/66/22
f 17/65/21 18/67/23 14/18/18 13/16/16
f 18/67/23 19/68/24 15/19/19 14/18/18
f 19/68/24 20/69/25 16/20/20 15/19/19
f 21/70/26 17/65/21 145/66/22 146/71/27
f 21/70/26 22/72/28 18/67/23 17/65/21
f 22/72/28 23/73/29 19/68/24 18/67/23
f 23/73/29 24/74/30 20/69/25 19/68/24
f 25/21/31 21/22/26 146/23/27 147/24/32
f 25/21/31 26/25/33 22/26/28 21/22/26
f 26/25/33 27/27/34 23/28/29 22/26/28
f 27/27/34 28/29/35 24/30/30 23/28/29
f 29/31/36 25/21/31 147/24/32 148/32/37
f 29/31/36 30/33/38 26/25/33 25/21/31
f 30/33/38 31/34/39 27/27/34 26/25/33
f 31/34/39 32/35/40 28/29/35 27/27/34
f 33/36/41 29/31/36 148/32/37 149/37/42
f 33/36/41 34/38/43 30/33/38 29/31/36
f 34/38/43 35/39/44 31/34/39 30/33/38
f 35/39/44 36/40/45 32/35/40 31/34/39
f 37/41/46 33/36/41 149/37/42 150/42/47
f 37/41/46 38/43/48 34/38/43 33/36/41
f 38/43/48 39/44/49 35/39/44 34/38/43
f 39/44/49 40/45/50 36/40/45 35/39/44
f 41/46/51 37/41/46 150/42/47 151/47/52
f 41/46/51 42/48/53 38/43/48 37/41/46
f 42/48/53 43/49/54 39/44/49 38/43/48
f 43/49/54 44/50/55 40/45/50 39/44/49
f 45/51/56 41/46/51 151/47/52 152/52/57
f 45/51/56 46/53/58 42/48/53 41/46/51
f 46/53/58 47/54/59 43/49/54 42/48/53
f 47/54/59 48/55/60 44/50/55 43/49/54
f 49/56/61 45/51/56 152/52/57 153/57/62
f 49/56/61 50/58/63 46/53/58 45/51/56
f 50/58/63 51/59/64 47/54/59 46/53/58
f 51/59/64 52/60/65 48/55/60 47/54/59
f 53/61/66 49/56/61 153/57/62 154/62/67
f 53/61/66 54/63/68 50/58/63 49/56/61
f 54/63/68 55/64/69 51/59/64 50/58/63
f 55/64/69 56/96/70 52/60/65 51/59/64
f 57/97/71 53/61/66 154/62/67 155/98/72
f 57/97/71 58/99/73 54/63/68 53/61/66
f 58/99/73 59/100/74 55/64/69 54/63/68
f 59/100/74 60/101/75 56/96/70 55/64/69
f 61/76/76 57/97/71 155/98/72 156/77/77
f 61/76/76 62/80/78 58/99/73 57/97/71
f 62/80/78 63/82/79 59/100/74 58/99/73
f 63/82/79 64/84/80 60/101/75 59/100/74
f 65/75/81 61/76/76 156/77/77 157/78/82
f 65/75/81 66/79/83 62/80/78 61/76/76
f 66/79/83 67/81/84 63/82/79 62/80/78
f 67/81/84 68/83/85 64/84/80 63/82/79
f 69/85/86 65/75/81 157/78/82 158/86/87
f 69/85/86 70/87/88 66/79/83 65/75/81
f 70/87/88 71/88/89 67/81/84 66/79/83
f 71/88/89 72/89/90 68/83/85 67/81/84
f 73/90/91 69/85/86 158/86/87 159/91/92
f 73/90/91 74/92/93 70/87/88 69/85/86
f 74/92/93 75/93/94 71/88/89 70/87/88
f 75/93/94 76/94/95 72/89/90 71/88/89
f 77/95/96 73/90/91 159/91/92 160/124/97
f 77/95/96 78/125/98 74/92/93 73/90/91
f 78/125/98 79/126/99 75/93/94 74/92/93
f 79/126/99 80/127/100 76/94/95 75/93/94
f 1/2/2 77/95/96 160/124/97 141/3/3
f 1/2/2 3/6/6 78/125/98 77/95/96
f 3/6/6 5/8/8 79/126/99 78/125/98
f 5/8/8 7/10/10 80/127/100 79/126/99
f 8/9/9 82/128/101 81/129/102 7/10/10
f 82/128/101 84/130/103 83/131/104 81/129/102
f 84/130/103 86/132/105 85/133/106 83/131/104
f 12/15/15 87/134/107 82/128/101 8/9/9
f 87/134/107 88/135/108 84/130/103 82/128/101
f 88/135/108 89/414/109 86/132/105 84/130/103
f 16/20/20 90/415/110 87/134/107 12/15/15
f 90/415/110 91/416/111 88/135/108 87/134/107
f 91/416/111 92/417/112 89/414/109 88/135/108
f 20/69/25 93/418/113 90/415/110 16/20/20
f 93/418/113 94/419/114 91/416/111 90/415/110
f 94/419/114 95/420/115 92/417/112 91/416/111
f 24/74/30 96/421/116 93/418/113 20/69/25
f 96/421/116 97/422/117 94/419/114 93/418/113
f 97/422/117 98/423/118 95/420/115 94/419/114
f 28/29/35 99/102/119 96/103/116 24/30/30
f 99/102/119 100/104/120 97/105/117 96/103/116
f 100/104/120 101/106/121 98/107/118 97/105/117
f 32/35/40 102/108/122 99/102/119 28/29/35
f 102/108/122 103/109/123 100/104/120 99/102/119
f 103/109/123 104/110/124 101/106/121 100/104/120
f 36/40/45 105/111/125 102/108/122 32/35/40
f 105/111/125 106/112/126 103/109/123 102/108/122
f 106/112/126 107/113/127 104/110/124 103/109/123
f 40/45/50 108/114/128 105/111/125 36/40/45
f 108/114/128 109/115/129 106/112/126 105/111/125
f 109/115/129 110/116/130 107/113/127 106/112/126
f 44/50/55 111/117/131 108/114/128 40/45/50
f 111/117/131 112/118/132 109/115/129 108/114/128
f 112/118/132 113/119/133 110/116/130 109/115/129
f 48/55/60 114/120/134 111/117/131 44/50/55
f 114/120/134 115/121/135 112/118/132 111/117/131
f 115/121/135 116/122/136 113/119/133 112/118/132
f 52/60/65 117/123/137 114/120/134 48/55/60
f 117/123/137 118/450/138 115/121/135 114/120/134
f 118/450/138 119/451/139 116/122/136 115/121/135
f 56/96/70 120/452/140 117/123/137 52/60/65
f 120/452/140 121/453/141 118/450/138 117/123/137
f 121/453/141 122/454/142 119/451/139 118/450/138
f 60/101/75 123/455/143 120/452/140 56/96/70
f 123/455/143 124/456/144 121/453/141 120/452/140
f 124/456/144 125/457/145 122/454/142 121/453/141
f 64/84/80 126/425/146 123/455/143 60/101/75
f 126/425/146 127/427/147 124/456/144 123/455/143
f 127/427/147 128/429/148 125/457/145 124/456/144
f 68/83/85 129/424/149 126/425/146 64/84/80
f 129/424/149 130/426/150 127/427/147 126/425/146
f 130/426/150 131/428/151 128/429/148 127/427/147
f 72/89/90 132/430/152 129/424/149 68/83/85
f 132/430/152 133/431/153 130/426/150 129/424/149
f 133/431/153 134/432/154 131/428/151 130/426/150
f 76/94/95 135/433/155 132/430/152 72/89/90
f 135/433/155 136/434/156 133/431/153 132/430/152
f 136/434/156 137/435/157 134/432/154 133/431/153
f 80/127/100 138/436/158 135/433/155 76/94/95
f 138/436/158 139/437/159 136/434/156 135/433/155
f 139/437/159 140/438/160 137/435/157 136/434/156
f 7/10/10 81/129/102 138/436/158 80/127/100
f 81/129/102 83/131/104 139/437/159 138/436/158
f 83/131/104 85/133/106 140/438/160 139/437/159
s 2
f 162/138/161 161/139/162 181/140/163 185/141/164
f 185/141/164 181/140/163 182/142/165 186/143/166
f 186/143/166 182/142/165 183/144/167 187/145/168
f 187/145/168 183/144/167 184/147/169 188/148/170
f 163/149/171 162/138/161 185/141/164 189/150/172
f 189/150/172 185/141/164 186/143/166 190/152/173
f 190/152/173 186/143/166 187/145/168 191/153/174
f 191/153/174 187/145/168 188/148/170 192/154/175
f 164/155/176 163/149/171 189/150/172 193/157/177
f 193/157/177 189/150/172 190/152/173 194/158/178
f 194/158/178 190/152/173 191/153/174 195/159/179
f 195/159/179 191/153/174 192/154/175 196/160/180
f 165/162/181 164/155/176 193/157/177 197/163/182
f 197/163/182 193/157/177 194/158/178 198/164/183
f 198/164/183 194/158/178 195/159/179 199/165/184
f 199/165/184 195/159/179 196/160/180 200/202/185
f 166/203/186 165/162/181 197/163/182 201/204/187
f 201/204/187 197/163/182 198/164/183 202/205/188
f 202/205/188 198/164/183 199/165/184 203/207/189
f 203/207/189 199/165/184 200/202/185 204/208/190
f 167/167/191 166/168/186 201/169/187 205/170/192
f 205/170/192 201/169/187 202/172/188 206/174/193
f 206/174/193 202/172/188 203/175/189 207/177/194
f 207/177/194 203/175/189 204/178/190 208/180/195
f 168/181/196 167/167/191 205/170/192 209/182/197
f 209/182/197 205/170/192 206/174/193 210/184/198
f 210/184/198 206/174/193 207/177/194 211/185/199
f 211/185/199 207/177/194 208/180/195 212/186/200
f 169/187/201 168/181/196 209/182/197 213/189/202
f 213/189/202 209/182/197 210/184/198 214/190/203
f 214/190/203 210/184/198 211/185/199 215/191/204
f 215/191/204 211/185/199 212/186/200 216/193/205
f 170/194/206 169/187/201 213/189/202 217/195/207
f 217/195/207 213/189/202 214/190/203 218/197/208
f 218/197/208 214/190/203 215/191/204 219/198/209
f 219/198/209 215/191/204 216/193/205 220/199/210
f 171/200/211 170/194/206 217/195/207 221/250/212
f 221/250/212 217/195/207 218/197/208 222/251/213
f 222/251/213 218/197/208 219/198/209 223/252/214
f 223/252/214 219/198/209 220/199/210 224/254/215
f 172/255/216 171/200/211 221/250/212 225/257/217
f 225/257/217 221/250/212 222/251/213 226/258/218
f 226/258/218 222/251/213 223/252/214 227/259/219
f 227/259/219 223/252/214 224/254/215 228/261/220
f 173/262/221 172/255/216 225/257/217 229/264/222
f 229/264/222 225/257/217 226/258/218 230/265/223
f 230/265/223 226/258/218 227/259/219 231/266/224
f 231/266/224 227/259/219 228/261/220 232/270/225
f 174/271/226 173/262/221 229/264/222 233/273/227
f 233/273/227 229/264/222 230/265/223 234/274/228
f 234/274/228 230/265/223 231/266/224 235/275/229
f 235/275/229 231/266/224 232/270/225 236/337/230
f 175/338/231 174/271/226 233/273/227 237/339/232
f 237/339/232 233/273/227 234/274/228 238/340/233
f 238/340/233 234/274/228 235/275/229 239/341/234
f 239/341/234 235/275/229 236/337/230 240/342/235
f 176/343/236 175/338/231 237/339/232 241/344/237
f 241/344/237 237/339/232 238/340/233 242/345/238
f 242/345/238 238/340/233 239/341/234 243/346/239
f 243/346/239 239/341/234 240/342/235 244/347/240
f 177/209/241 176/210/236 241/212/237 245/213/242
f 245/213/242 241/212/237 242/214/238 246/215/243
f 246/215/243 242/214/238 243/217/239 247/218/244
f 247/218/244 243/217/239 244/219/240 248/220/245
f 178/222/246 177/209/241 245/213/242 249/223/247
f 249/223/247 245/213/242 246/215/243 250/224/248
f 250/224/248 246/215/243 247/218/244 251/225/249
f 251/225/249 247/218/244 248/220/245 252/226/250
f 179/227/251 178/222/246 249/223/247 253/228/252
f 253/228/252 249/223/247 250/224/248 254/229/253
f 254/229/253 250/224/248 251/225/249 255/230/254
f 255/230/254 251/225/249 252/226/250 256/231/255
f 180/234/256 179/227/251 253/228/252 257/235/257
f 257/235/257 253/228/252 254/229/253 258/236/258
f 258/236/258 254/229/253 255/230/254 259/238/259
f 259/238/259 255/230/254 256/231/255 260/239/260
f 161/139/162 180/234/256 257/235/257 181/140/163
f 181/140/163 257/235/257 258/236/258 182/142/165
f 182/142/165 258/236/258 259/238/259 183/144/167
f 183/144/167 259/238/259 260/239/260 184/147/169
f 188/148/170 184/147/169 261/240/261 265/242/262
f 265/242/262 261/240/261 262/243/263 266/244/264
f 266/244/264 262/243/263 263/246/265 267/247/266
f 267/247/266 263/246/265 264/248/267 268/277/268
f 192/154/175 188/148/170 265/242/262 271/278/269
f 271/278/269 265/242/262 266/244/264 272/279/270
f 272/279/270 266/244/264 267/247/266 273/281/271
f 273/281/271 267/247/266 268/277/268 274/282/272
f 196/160/180 192/154/175 271/278/269 276/283/273
f 276/283/273 271/278/269 272/279/270 277/285/274
f 277/285/274 272/279/270 273/281/271 278/286/275
f 278/286/275 273/281/271 274/282/272 279/287/276
f 200/202/185 196/160/180 276/283/273 281/289/277
f 281/289/277 276/283/273 277/285/274 282/290/278
f 282/290/278 277/285/274 278/286/275 283/291/279
f 283/291/279 278/286/275 279/287/276 284/293/280
f 204/208/190 200/202/185 281/289/277 286/294/281
f 286/294/281 281/289/277 282/290/278 287/295/282
f 287/295/282 282/290/278 283/291/279 288/392/283
f 288/392/283 283/291/279 284/293/280 289/393/284
f 208/180/195 204/178/190 286/348/281 291/349/285
f 291/349/285 286/348/281 287/350/282 292/351/286
f 292/351/286 287/350/282 288/352/283 293/353/287
f 293/353/287 288/352/283 289/354/284 294/355/288
f 212/186/200 208/180/195 291/349/285 296/356/289
f 296/356/289 291/349/285 292/351/286 297/357/290
f 297/357/290 292/351/286 293/353/287 298/358/291
f 298/358/291 293/353/287 294/355/288 299/359/292
f 216/193/205 212/186/200 296/356/289 301/360/293
f 301/360/293 296/356/289 297/357/290 302/361/294
f 302/361/294 297/357/290 298/358/291 303/362/295
f 303/362/295 298/358/291 299/359/292 304/363/296
f 220/199/210 216/193/205 301/360/293 306/364/297
f 306/364/297 301/360/293 302/361/294 307/365/298
f 307/365/298 302/361/294 303/362/295 308/366/299
f 308/366/299 303/362/295 304/363/296 309/367/300
f 224/254/215 220/199/210 306/364/297 311/368/301
f 311/368/301 306/364/297 307/365/298 312/369/302
f 312/369/302 307/365/298 308/366/299 313/370/303
f 313/370/303 308/366/299 309/367/300 314/371/304
f 228/261/220 224/254/215 311/368/301 316/372/305
f 316/372/305 311/368/301 312/369/302 317/373/306
f 317/373/306 312/369/302 313/370/303 318/374/307
f 318/374/307 313/370/303 314/371/304 319/375/308
f 232/270/225 228/261/220 316/372/305 321/376/309
f 321/376/309 316/372/305 317/373/306 322/377/310
f 322/377/310 317/373/306 318/374/307 323/378/311
f 323/378/311 318/374/307 319/375/308 324/379/312
f 236/337/230 232/270/225 321/376/309 326/380/313
f 326/380/313 321/376/309 322/377/310 327/381/314
f 327/381/314 322/377/310 323/378/311 328/382/315
f 328/382/315 323/378/311 324/379/312 329/383/316
f 240/342/235 236/337/230 326/380/313 331/384/317
f 331/384/317 326/380/313 327/381/314 332/385/318
f 332/385/318 327/381/314 328/382/315 333/386/319
f 333/386/319 328/382/315 329/383/316 334/387/320
f 244/347/240 240/342/235 331/384/317 336/388/321
f 336/388/321 331/384/317 332/385/318 337/389/322
f 337/389/322 332/385/318 333/386/319 338/390/323
f 338/390/323 333/386/319 334/387/320 339/391/324
f 248/220/245 244/219/240 336/394/321 341/395/325
f 341/395/325 336/394/321 337/396/322 342/397/326
f 342/397/326 337/396/322 338/398/323 343/399/327
f 343/399/327 338/398/323 339/400/324 344/401/328
f 252/226/250 248/220/245 341/395/325 346/402/329
f 346/402/329 341/395/325 342/397/326 347/403/330
f 347/403/330 342/397/326 343/399/327 348/404/331
f 348/404/331 343/399/327 344/401/328 349/405/332
f 256/231/255 252/226/250 346/402/329 351/406/333
f 351/406/333 346/402/329 347/403/330 352/407/334
f 352/407/334 347/403/330 348/404/331 353/408/335
f 353/408/335 348/404/331 349/405/332 354/409/336
f 260/239/260 256/231/255 351/406/333 356/410/337
f 356/410/337 351/406/333 352/407/334 357/411/338
f 357/411/338 352/407/334 353/408/335 358/412/339
f 358/412/339 353/408/335 354/409/336 359/413/340
f 184/147/169 260/239/260 356/410/337 261/240/261
f 261/240/261 356/410/337 357/411/338 262/243/263
f 262/243/263 357/411/338 358/412/339 263/246/265
f 263/246/265 358/412/339 359/413/340 264/248/267
s off
f 309/263/341 304/260/342 305/297/343 310/298/344
f 304/260/345 299/256/346 300/299/347 305/297/348
f 299/256/349 294/253/350 295/300/351 300/299/352
f 294/253/353 289/249/354 290/301/355 295/300/356
f 289/249/357 284/245/358 285/302/359 290/301/360
f 284/245/361 279/241/362 280/303/363 285/302/364
f 279/241/365 274/237/366 275/304/367 280/303/368
f 274/237/369 268/233/370 270/305/371 275/304/372
f 268/233/373 264/232/374 269/306/375 270/305/376
f 264/232/377 359/296/378 360/307/379 269/306/380
f 359/296/381 354/292/382 355/308/383 360/307/384
f 354/292/385 349/288/386 350/309/387 355/308/388
f 349/288/389 344/284/390 345/310/391 350/309/392
f 344/284/393 339/280/394 340/311/395 345/310/396
f 339/280/397 334/276/398 335/312/399 340/311/400
f 334/276/401 329/272/402 330/313/403 335/312/404
f 329/272/405 324/269/406 325/314/407 330/313/408
f 324/269/409 319/268/410 320/315/411 325/314/412
f 319/268/413 314/267/414 315/316/415 320/315/416
f 314/267/417 309/263/418 310/298/419 315/316/420
f 153/317/421 152/318/422 172/183/423 173/188/424
f 152/318/425 151/319/426 171/179/427 172/183/428
f 151/319/429 150/320/430 170/176/431 171/179/432
f 150/320/433 149/321/434 169/173/435 170/176/436
f 149/321/437 148/322/438 168/171/439 169/173/440
f 148/322/441 147/323/442 167/166/443 168/171/444
f 154/324/445 153/317/446 173/188/447 174/192/448
f 155/325/449 154/324/450 174/192/451 175/196/452
f 156/326/453 155/325/454 175/196/455 176/201/456
f 157/327/457 156/326/458 176/201/459 177/206/460
f 158/328/461 157/327/462 177/206/463 178/211/464
f 159/329/465 158/328/466 178/211/467 179/216/468
f 160/330/469 159/329/470 179/216/471 180/221/472
f 141/331/473 160/330/474 180/221/475 161/137/476
f 142/332/477 141/331/478 161/137/479 162/136/480
f 143/333/481 142/332/482 162/136/483 163/146/484
f 144/334/485 143/333/486 163/146/487 164/151/488
f 145/335/489 144/334/490 164/151/491 165/156/492
f 146/336/493 145/335/494 165/156/495 166/161/496
f 147/323/497 146/336/498 166/161/499 167/166/500
s 1
f 89/414/109 275/439/501 270/440/502 86/132/105
f 92/417/112 280/441/503 275/439/501 89/414/109
f 95/420/115 285/442/504 280/441/503 92/417/112
f 98/423/118 290/443/505 285/442/504 95/420/115
f 101/106/121 295/458/506 290/459/505 98/107/118
f 104/110/124 300/460/507 295/458/506 101/106/121
f 107/113/127 305/461/508 300/460/507 104/110/124
f 110/116/130 310/462/509 305/461/508 107/113/127
f 113/119/133 315/463/510 310/462/509 110/116/130
f 116/122/136 320/464/511 315/463/510 113/119/133
f 119/451/139 325/465/512 320/464/511 116/122/136
f 122/454/142 330/466/513 325/465/512 119/451/139
f 125/457/145 335/467/514 330/466/513 122/454/142
f 128/429/148 340/445/515 335/467/514 125/457/145
f 131/428/151 345/444/516 340/445/515 128/429/148
f 134/432/154 350/446/517 345/444/516 131/428/151
f 137/435/157 355/447/518 350/446/517 134/432/154
f 140/438/160 360/448/519 355/447/518 137/435/157
f 85/133/106 269/449/520 360/448/519 140/438/160
f 86/132/105 270/440/502 269/449/520 85/133/106
