# This file uses centimeters as units for non-parametric coordinates.

mtllib Large_Track.mtl
g default
v -39.200092 -4.000000 40.000000
v 0.799912 -4.000000 40.000000
v -39.200092 -4.000000 -0.000000
v 0.799912 -4.000000 -0.000000
v -38.400181 0.000000 40.000000
v -38.800133 -0.107178 40.000000
v -39.092930 -0.399979 40.000000
v -39.200092 -0.799927 40.000000
v -39.200092 -0.799927 -0.000000
v -39.092930 -0.399979 -0.000000
v -38.800133 -0.107178 -0.000000
v -38.400181 0.000000 -0.000000
v 0.799912 -0.799927 40.000000
v 0.692748 -0.399979 40.000000
v 0.399955 -0.107178 40.000000
v -0.000001 0.000000 40.000000
v -0.000001 0.000000 -0.000000
v 0.399955 -0.107178 -0.000000
v 0.692748 -0.399979 -0.000000
v 0.799912 -0.799927 -0.000000
vt 0.201046 0.799787
vt 0.921305 0.275194
vt 0.358919 0.799787
vt 0.398818 0.602450
vt 0.588263 0.799787
vt 0.786035 0.602450
vt 0.921346 0.250714
vt 0.628162 0.602450
vt 0.358919 0.602450
vt 0.398818 0.799787
vt 0.588263 0.602450
vt 0.628162 0.799787
vt 0.393175 0.602450
vt 0.378658 0.602450
vt 0.378658 0.799787
vt 0.393175 0.799787
vt 0.608423 0.602450
vt 0.593907 0.602450
vt 0.593907 0.799787
vt 0.608423 0.799787
vt 0.786035 0.799787
vt 0.945826 0.250756
vt 0.945784 0.275235
vt 0.201046 0.602450
vn -0.002762 0.999996 0.000000
vn -0.002762 0.999996 0.000000
vn 0.002762 0.999996 0.000000
vn 0.002762 0.999996 0.000000
vn 1.000000 0.000000 0.000000
vn 1.000000 0.000000 0.000000
vn 0.999557 0.029754 0.000000
vn 0.999557 0.029754 0.000000
vn -1.000000 0.000000 0.000000
vn -1.000000 0.000000 0.000000
vn -0.999557 0.029754 0.000000
vn -0.999557 0.029754 0.000000
vn -0.866026 0.499999 0.000000
vn -0.866026 0.499999 0.000000
vn -0.500019 0.866015 0.000000
vn -0.500019 0.866015 0.000000
vn 0.500019 0.866015 0.000000
vn 0.500019 0.866015 0.000000
vn 0.866027 0.499998 0.000000
vn 0.866027 0.499998 0.000000
vn 0.000000 -1.000000 0.000000
vn 0.000000 -1.000000 0.000000
vn 0.000000 -1.000000 0.000000
vn 0.000000 -1.000000 0.000000
s 1
g Large_Track
usemtl initialShadingGroup
f 12/10/1 5/4/2 16/11/3 17/5/4
f 2/6/5 4/21/6 20/12/7 13/8/8
f 3/1/9 1/24/10 8/9/11 9/3/12
f 8/9/11 7/14/13 10/15/14 9/3/12
f 7/14/13 6/13/15 11/16/16 10/15/14
f 6/13/15 5/4/2 12/10/1 11/16/16
f 16/11/3 15/18/17 18/19/18 17/5/4
f 15/18/17 14/17/19 19/20/20 18/19/18
f 14/17/19 13/8/8 20/12/7 19/20/20
s off
f 1/2/21 3/7/22 4/22/23 2/23/24
