# This file uses centimeters as units for non-parametric coordinates.

mtllib Pipe_Transition.mtl
g default
v -9.200092 -0.025421 34.933800
v -6.831833 0.349670 34.933800
v -4.695389 1.438232 34.933800
v -2.999893 3.133728 34.933800
v -15.400288 3.133728 34.933792
v -13.704792 1.438232 34.933792
v -11.568363 0.349670 34.933792
v -2.999901 3.133728 21.206772
v -15.400269 3.133728 21.206772
v -2.999893 -3.999969 34.933800
v -2.999901 -3.999969 21.206772
v -15.400288 -3.999969 34.933792
v -15.400269 -3.999969 21.206772
v -9.200089 0.000000 20.000000
v -5.857285 0.000000 20.000000
v -6.831833 -3.999969 20.000000
v -9.200089 -3.999969 20.000000
v -4.695396 1.438232 20.000000
v -4.695396 -3.999969 20.000000
v -2.999901 3.133728 20.000000
v -2.999901 -3.999969 20.000000
v -15.400269 3.133728 20.000000
v -13.704788 1.438232 20.000000
v -13.704788 -3.999969 20.000000
v -15.400269 -3.999969 20.000000
v -12.542908 0.000000 20.000000
v -11.568359 -3.999969 20.000000
v 0.799911 3.133728 21.206772
v 0.799911 -3.999969 21.206772
v 0.799911 -3.999969 20.000000
v 0.799911 3.133728 20.000000
v -19.200073 3.133728 21.206772
v -19.200073 -3.999969 21.206772
v -19.200073 3.133728 20.000000
v -19.200073 -3.999969 20.000000
v -19.200089 -4.000000 0.000000
v -19.200089 -4.000000 20.000000
v 0.799911 -4.000000 0.000000
v 0.799911 -4.000000 20.000000
v -15.400288 -3.999969 32.188385
v -15.400288 3.133728 32.188385
v -13.704792 1.438232 32.188385
v -11.568378 0.349670 32.188385
v -9.200089 -0.025421 32.188385
v -6.831833 0.349670 32.188393
v -4.695389 1.438232 32.188393
v -2.999893 3.133728 32.188393
v -2.999893 -3.999969 32.188393
v -19.200089 -0.799927 0.000000
v -19.092911 -0.399963 0.000000
v -18.800125 -0.107178 0.000000
v -18.400162 0.000000 0.000000
v -18.400162 0.000000 20.000000
v -18.800125 -0.107178 20.000000
v -19.092911 -0.399963 20.000000
v -19.200089 -0.799927 20.000000
v 0.000000 0.000000 0.000000
v 0.399948 -0.107178 0.000000
v 0.692749 -0.399963 0.000000
v 0.799911 -0.799927 0.000000
v 0.799911 -0.799927 20.000000
v 0.692749 -0.399963 20.000000
v 0.399963 -0.107178 20.000000
v 0.000000 0.000000 20.000000
vt 0.456348 0.369196
vt 0.430347 0.369385
vt 0.429344 0.274449
vt 0.448062 0.274231
vt 0.470725 0.368604
vt 0.466770 0.273752
vt 0.488981 0.358451
vt 0.489372 0.367842
vt 0.106956 0.233305
vt 0.011729 0.233850
vt 0.011445 0.184363
vt 0.106673 0.183816
vt 0.410391 0.231563
vt 0.315163 0.232106
vt 0.314882 0.182618
vt 0.410109 0.182076
vt 0.485460 0.273087
vt 0.210936 0.210965
vt 0.389965 0.369460
vt 0.194347 0.183312
vt 0.210776 0.183217
vt 0.187746 0.211099
vt 0.371307 0.369092
vt 0.179526 0.183397
vt 0.179743 0.221123
vt 0.371499 0.359694
vt 0.167764 0.183465
vt 0.254073 0.232456
vt 0.373213 0.274262
vt 0.242026 0.183036
vt 0.253788 0.182968
vt 0.242244 0.220762
vt 0.391909 0.274526
vt 0.227205 0.183122
vt 0.234126 0.210832
vt 0.404350 0.369747
vt 0.133317 0.233153
vt 0.133032 0.183666
vt 0.141404 0.183617
vt 0.410621 0.274615
vt 0.288520 0.182768
vt 0.518555 0.357223
vt 0.280433 0.232304
vt 0.280148 0.182816
vt 0.391064 0.182184
vt 0.391346 0.231672
vt 0.518944 0.366615
vt 0.341718 0.368511
vt 0.341903 0.359113
vt 0.373357 0.252923
vt 0.392003 0.253117
vt 0.410578 0.253197
vt 0.429130 0.253076
vt 0.030774 0.233741
vt 0.030491 0.184253
vt 0.714437 0.810027
vt 0.714437 0.966277
vt 0.689437 0.810027
vt 0.526276 0.966277
vt 0.501275 0.966277
vt 0.501275 0.810027
vt 0.679732 0.966277
vt 0.535981 0.810027
vt 0.679732 0.810027
vt 0.689437 0.966277
vt 0.526276 0.810027
vt 0.535981 0.966277
vt 0.686202 0.810027
vt 0.682967 0.810027
vt 0.682967 0.966277
vt 0.686202 0.966277
vt 0.532746 0.810027
vt 0.529511 0.810027
vt 0.529511 0.966277
vt 0.532746 0.966277
vt 0.447689 0.252825
vt 0.168049 0.232953
vt 0.288804 0.232256
vt 0.466247 0.252379
vt 0.484857 0.251802
vt 0.141689 0.233105
vn 1.000000 0.000000 -0.000001
vn 1.000000 0.000000 -0.000001
vn 1.000000 0.000000 -0.000001
vn 1.000000 0.000000 -0.000001
vn -1.000000 0.000000 -0.000001
vn -1.000000 0.000000 -0.000001
vn -1.000000 0.000000 -0.000002
vn -1.000000 0.000000 -0.000002
vn 0.000000 0.000000 -1.000000
vn 0.000000 0.000000 -1.000000
vn 0.000000 0.000000 -1.000000
vn 0.000000 0.000000 -1.000000
vn 0.000000 0.000000 -1.000000
vn 0.000000 0.000000 -1.000000
vn 0.000000 0.000000 -1.000000
vn 0.000000 0.000000 -1.000000
vn 0.000000 0.000000 -1.000000
vn 0.000000 0.000000 -1.000000
vn 0.000000 0.000000 -1.000000
vn 0.000000 0.000000 -1.000000
vn 0.000000 0.000000 -1.000000
vn 0.000000 0.000000 -1.000000
vn 0.000000 0.000000 -1.000000
vn 0.000000 0.000000 -1.000000
vn 0.000000 0.000000 -1.000000
vn 0.000000 0.000000 -1.000000
vn 0.000000 0.000000 -1.000000
vn 0.000000 0.000000 -1.000000
vn 0.000000 0.000000 -1.000000
vn 0.000000 0.000000 -1.000000
vn 0.000000 0.000000 -1.000000
vn 0.000000 0.000000 -1.000000
vn -0.316285 0.948318 -0.025637
vn 0.000000 0.999873 -0.015925
vn -0.000000 0.999910 -0.013419
vn -0.297413 0.954533 -0.020317
vn -0.662502 0.748876 -0.016605
vn -0.648573 0.761034 -0.013413
vn -0.669020 0.743245 0.000000
vn -0.633340 0.773874 0.000000
vn -0.707107 0.707107 0.000000
vn 1.000000 0.000000 0.000000
vn 1.000000 0.000000 0.000000
vn 1.000000 0.000000 0.000000
vn 1.000000 0.000000 0.000000
vn 0.662505 0.748874 -0.016605
vn 0.633341 0.773873 0.000001
vn 0.669017 0.743247 0.000001
vn 0.707108 0.707105 0.000001
vn 0.648576 0.761032 -0.013413
vn -1.000000 0.000000 0.000000
vn -1.000000 0.000000 0.000000
vn -1.000000 0.000000 0.000000
vn -1.000000 0.000000 0.000000
vn 0.316285 0.948318 -0.025637
vn 0.297413 0.954533 -0.020317
vn 0.000000 0.000000 1.000000
vn 0.000000 0.000000 1.000000
vn 0.000000 0.000000 1.000000
vn 0.000000 0.000000 1.000000
vn 0.000000 0.000000 -1.000000
vn 0.000000 0.000000 -1.000000
vn 0.000000 0.000000 -1.000000
vn 0.000000 0.000000 -1.000000
vn 0.000000 1.000000 0.000000
vn 0.000000 1.000000 0.000000
vn 0.000000 0.000000 1.000000
vn 0.000000 0.000000 1.000000
vn 0.000000 0.000000 1.000000
vn 0.000000 0.000000 1.000000
vn 0.000000 1.000000 0.000000
vn 0.000000 1.000000 0.000000
vn 0.000000 0.000000 -1.000000
vn 0.000000 0.000000 -1.000000
vn 0.000000 0.000000 -1.000000
vn 0.000000 0.000000 -1.000000
vn -1.000000 0.000000 0.000000
vn -1.000000 0.000000 0.000000
vn -0.999557 0.029758 0.000000
vn -0.999557 0.029758 0.000000
vn -0.005701 0.999984 0.000000
vn -0.005701 0.999984 0.000000
vn 0.005701 0.999984 -0.000000
vn 0.005701 0.999984 -0.000000
vn 0.999557 0.029754 0.000000
vn 0.999557 0.029754 0.000000
vn 1.000000 0.000000 0.000000
vn 1.000000 0.000000 0.000000
vn -1.000000 0.000000 0.000000
vn -1.000000 0.000000 0.000000
vn 0.707107 0.707107 0.000000
vn 0.587786 0.809016 -0.000001
vn 0.309014 0.951058 -0.000001
vn -0.000000 1.000000 -0.000000
vn -0.309014 0.951057 -0.000000
vn -0.587784 0.809018 0.000000
vn -0.707107 0.707107 0.000000
vn 1.000000 0.000000 0.000000
vn 1.000000 0.000000 0.000000
vn -0.500004 0.866023 0.000000
vn -0.500004 0.866023 0.000000
vn -0.866023 0.500004 0.000000
vn -0.866023 0.500004 0.000000
vn 0.866027 0.499997 -0.000000
vn 0.866027 0.499997 -0.000000
vn 0.500004 0.866023 -0.000000
vn 0.500004 0.866023 -0.000000
s 1
g Pipe_Transition
usemtl initialShadingGroup
f 8/9/1 47/54/2 48/55/3 11/12/4
s 2
f 40/45/5 41/46/6 9/14/7 13/15/8
s off
f 14/18/9 15/22/10 16/20/11 17/21/12
f 15/22/13 18/25/14 19/24/15 16/20/16
f 18/25/17 20/77/18 21/27/19 19/24/20
f 22/28/21 23/32/22 24/30/23 25/31/24
f 23/32/25 26/35/26 27/34/27 24/30/28
f 26/35/29 14/18/30 17/21/31 27/34/32
s 3
f 15/1/33 14/2/34 44/3/35 45/4/36
f 18/5/37 15/1/33 45/4/36 46/6/38
f 8/7/39 20/8/40 18/5/37 46/6/38 47/17/41
s off
f 28/37/42 29/38/43 30/39/44 31/81/45
s 3
f 23/19/46 22/23/47 9/26/48 41/29/49 42/33/50
s off
f 33/41/51 32/78/52 34/43/53 35/44/54
s 3
f 26/36/55 23/19/46 42/33/50 43/40/56
f 14/2/34 26/36/55 43/40/56 44/3/35
s off
f 11/12/57 29/38/58 28/37/59 8/9/60
f 31/81/61 30/39/62 21/27/63 20/77/64
s 3
f 28/42/65 31/47/66 20/8/40 8/7/39
s off
f 32/78/67 33/41/68 13/15/69 9/14/70
s 3
f 34/48/71 32/49/72 9/26/48 22/23/47
s off
f 25/31/73 35/44/74 34/43/75 22/28/76
s 5
f 36/56/77 37/57/78 56/65/79 49/58/80
f 52/64/81 53/62/82 64/67/83 57/63/84
f 60/66/85 61/59/86 39/60/87 38/61/88
s 2
f 5/13/89 41/46/6 40/45/5 12/16/90
s 3
f 5/50/91 6/51/92 42/33/50 41/29/49
f 6/51/92 7/52/93 43/40/56 42/33/50
f 7/52/93 1/53/94 44/3/35 43/40/56
f 1/53/94 2/76/95 45/4/36 44/3/35
f 2/76/95 3/79/96 46/6/38 45/4/36
f 3/79/96 4/80/97 47/17/41 46/6/38
s 1
f 48/55/3 47/54/2 4/10/98 10/11/99
s 5
f 52/64/81 51/69/100 54/70/101 53/62/82
f 51/69/100 50/68/102 55/71/103 54/70/101
f 50/68/102 49/58/80 56/65/79 55/71/103
f 60/66/85 59/73/104 62/74/105 61/59/86
f 59/73/104 58/72/106 63/75/107 62/74/105
f 58/72/106 57/63/84 64/67/83 63/75/107
