# This file uses centimeters as units for non-parametric coordinates.

mtllib Pipe_Corner.mtl
g default
v -2.255623 -8.123779 8.074234
v 0.206535 -7.726166 8.563995
v -1.507591 -8.123779 5.608307
v 0.811699 -7.726166 6.568985
v -0.292854 -8.123779 3.335693
v 1.794456 -7.726166 4.730377
v 1.339455 -8.123779 1.339462
v 3.114555 -7.726166 3.114563
v 2.427666 -6.572266 9.005798
v 2.903969 -6.572266 7.435638
v 3.677437 -6.572266 5.988556
v 4.715904 -6.572266 4.715912
v 4.190376 -4.775024 9.356430
v 4.564415 -4.775024 8.123413
v 5.171791 -4.775024 6.987061
v 5.986748 -4.775024 5.986755
v 5.322105 -2.510376 9.581543
v 5.630455 -2.510376 8.564987
v 6.131233 -2.510376 7.628113
v 6.802681 -2.510376 6.802673
v 5.712059 0.000000 9.659119
v 5.997803 0.000000 8.717148
v 6.461823 0.000000 7.849030
v 7.083832 0.000000 7.083832
v 5.322105 2.510406 9.581543
v 5.630455 2.510406 8.564987
v 6.131233 2.510406 7.628113
v 6.802681 2.510406 6.802673
v 4.190376 4.775055 9.356430
v 4.564415 4.775055 8.123413
v 5.171791 4.775055 6.987061
v 5.986748 4.775055 5.986755
v 2.427666 6.572296 9.005798
v 2.903969 6.572296 7.435638
v 3.677437 6.572296 5.988556
v 4.715904 6.572296 4.715912
v 0.206535 7.726166 8.563995
v 0.811699 7.726166 6.568985
v 1.794456 7.726166 4.730377
v 3.114555 7.726166 3.114563
v -2.255623 8.123810 8.074234
v -1.507591 8.123810 5.608307
v -0.292854 8.123810 3.335693
v 1.339455 8.123810 1.339462
v -4.717781 7.726166 7.584488
v -3.826881 7.726166 4.647629
v -2.380165 7.726166 1.940979
v -0.435677 7.726166 -0.435669
v -6.938911 6.572296 7.142670
v -5.919151 6.572296 3.780975
v -4.263145 6.572296 0.682816
v -2.037010 6.572296 -2.037018
v -8.701622 4.775055 6.792053
v -7.579582 4.775055 3.093201
v -5.757500 4.775055 -0.315674
v -3.307854 4.775055 -3.307861
v -9.833351 2.510406 6.566956
v -8.645653 2.510406 2.651611
v -6.716942 2.510406 -0.956741
v -4.123787 2.510406 -4.123779
v -10.223320 0.000000 6.489365
v -9.012993 0.000000 2.499466
v -7.047523 0.000000 -1.177643
v -4.404930 0.000000 -4.404922
v -9.833351 -2.510376 6.566956
v -8.645653 -2.510376 2.651611
v -6.716942 -2.510376 -0.956741
v -4.123787 -2.510376 -4.123779
v -8.701622 -4.775024 6.792053
v -7.579582 -4.775024 3.093201
v -5.757500 -4.775024 -0.315674
v -3.307854 -4.775024 -3.307861
v -6.938911 -6.572266 7.142670
v -5.919167 -6.572266 3.780975
v -4.263145 -6.572266 0.682816
v -2.037010 -6.572266 -2.037018
v -4.717781 -7.726166 7.584488
v -3.826881 -7.726166 4.647629
v -2.380165 -7.726166 1.940979
v -0.435677 -7.726166 -0.435669
v 3.328941 -8.123779 -0.299591
v 4.723640 -7.726166 1.787720
v 5.601563 -8.123779 -1.514313
v 6.562248 -7.726166 0.804962
v 8.067497 -8.123779 -2.262360
v 8.557243 -7.726166 0.199799
v 5.981812 -6.572266 3.670715
v 7.428886 -6.572266 2.897232
v 8.999062 -6.572266 2.420929
v 6.980309 -4.775024 5.165070
v 8.116676 -4.775024 4.557678
v 9.349678 -4.775024 4.183640
v 7.621376 -2.510376 6.124496
v 8.558235 -2.510376 5.623718
v 9.574799 -2.510376 5.315369
v 7.842278 0.000000 6.455093
v 8.710396 0.000000 5.991074
v 9.652367 0.000000 5.705322
v 7.621376 2.510406 6.124496
v 8.558235 2.510406 5.623718
v 9.574799 2.510406 5.315369
v 6.980309 4.775055 5.165070
v 8.116676 4.775055 4.557678
v 9.349678 4.775055 4.183640
v 5.981812 6.572296 3.670715
v 7.428886 6.572296 2.897232
v 8.999062 6.572296 2.420929
v 4.723640 7.726166 1.787720
v 6.562248 7.726166 0.804962
v 8.557243 7.726166 0.199799
v 3.328941 8.123810 -0.299591
v 5.601563 8.123810 -1.514313
v 8.067497 8.123810 -2.262360
v 1.934242 7.726166 -2.386902
v 4.640877 7.726166 -3.833618
v 7.577736 7.726166 -4.724518
v 0.676079 6.572296 -4.269882
v 3.774223 6.572296 -5.925873
v 7.135933 6.572296 -6.945648
v -0.322426 4.775055 -5.764252
v 3.086464 4.775055 -7.586304
v 6.785301 4.775055 -8.708344
v -0.963478 2.510406 -6.723663
v 2.644875 2.510406 -8.652374
v 6.560204 2.510406 -9.840073
v -1.184380 0.000000 -7.054260
v 2.492729 0.000000 -9.019714
v 6.482628 0.000000 -10.230042
v -0.963478 -2.510376 -6.723663
v 2.644875 -2.510376 -8.652374
v 6.560204 -2.510376 -9.840073
v -0.322426 -4.775024 -5.764252
v 3.086464 -4.775024 -7.586304
v 6.785301 -4.775024 -8.708344
v 0.676064 -6.572266 -4.269897
v 3.774223 -6.572266 -5.925873
v 7.135925 -6.572266 -6.945648
v 1.934242 -7.726166 -2.386902
v 4.640877 -7.726166 -3.833618
v 7.577736 -7.726166 -4.724518
v -2.766869 -7.663849 11.735901
v -0.398613 -7.288757 11.735901
v 1.737831 -6.200195 11.735901
v 3.433311 -4.504700 11.735901
v 4.521889 -2.368256 11.735901
v 4.896980 0.000000 11.735901
v 4.521889 2.368256 11.735901
v 3.433327 4.504700 11.735901
v 1.737831 6.200195 11.735901
v -0.398613 7.288757 11.735901
v -2.766869 7.663849 11.735901
v -5.135139 7.288757 11.735901
v -7.271568 6.200195 11.735901
v -8.967064 4.504700 11.735901
v -10.055626 2.368256 11.735901
v -10.430733 0.000000 11.735901
v -10.055626 -2.368256 11.735901
v -8.967064 -4.504700 11.735901
v -7.271568 -6.200195 11.735901
v -5.135139 -7.288757 11.735901
v -2.766869 -8.961609 11.735901
v 0.002419 -8.522980 11.735901
v 2.500618 -7.250092 11.735901
v 4.483223 -5.267487 11.735901
v 5.756111 -2.769287 11.735901
v 6.194725 0.000000 11.735901
v 5.756111 2.769287 11.735901
v 4.483223 5.267487 11.735901
v 2.500618 7.250092 11.735901
v 0.002419 8.522980 11.735901
v -2.766869 8.961609 11.735901
v -5.536156 8.522980 11.735901
v -8.034370 7.250092 11.735901
v -10.016960 5.267487 11.735901
v -11.289864 2.769287 11.735901
v -11.728477 0.000000 11.735901
v -11.289864 -2.769287 11.735901
v -10.016960 -5.267487 11.735901
v -8.034370 -7.250092 11.735901
v -5.536156 -8.522980 11.735901
v -2.488243 -8.961609 8.906952
v -1.663063 -8.961609 6.186707
v -0.323051 -8.961609 3.679703
v 1.477592 -8.961609 1.477600
v 0.227837 -8.522980 9.447205
v 0.895424 -8.522980 7.246460
v 1.979530 -8.522980 5.218231
v 3.435768 -8.522980 3.435760
v 2.678032 -7.250092 9.934570
v 3.203468 -7.250092 8.202484
v 4.056709 -7.250092 6.606171
v 5.202263 -7.250092 5.202271
v 4.622536 -5.267487 10.321381
v 5.035149 -5.267487 8.961182
v 5.705177 -5.267487 7.707642
v 6.604179 -5.267487 6.604187
v 5.870979 -2.769287 10.569702
v 6.211143 -2.769287 9.448303
v 6.763557 -2.769287 8.414825
v 7.504250 -2.769287 7.504242
v 6.301155 0.000000 10.655273
v 6.616371 0.000000 9.616150
v 7.128242 0.000000 8.658508
v 7.814400 0.000000 7.814392
v 5.870979 2.769287 10.569702
v 6.211143 2.769287 9.448303
v 6.763557 2.769287 8.414825
v 7.504250 2.769287 7.504242
v 4.622536 5.267487 10.321381
v 5.035149 5.267487 8.961182
v 5.705177 5.267487 7.707642
v 6.604179 5.267487 6.604187
v 2.678032 7.250092 9.934570
v 3.203468 7.250092 8.202484
v 4.056709 7.250092 6.606171
v 5.202263 7.250092 5.202271
v 0.227837 8.522980 9.447205
v 0.895424 8.522980 7.246460
v 1.979530 8.522980 5.218231
v 3.435768 8.522980 3.435760
v -2.488243 8.961609 8.906952
v -1.663063 8.961609 6.186707
v -0.323051 8.961609 3.679703
v 1.477592 8.961609 1.477600
v -5.204323 8.522980 8.366684
v -4.221550 8.522980 5.126923
v -2.625633 8.522980 2.141174
v -0.480598 8.522980 -0.480591
v -7.654533 7.250092 7.879303
v -6.529594 7.250092 4.170929
v -4.702812 7.250092 0.753235
v -2.247093 7.250092 -2.247101
v -9.599022 5.267487 7.492523
v -8.361275 5.267487 3.412201
v -6.351280 5.267487 -0.348236
v -3.648994 5.267487 -3.648987
v -10.847466 2.769287 7.244186
v -9.537285 2.769287 2.925079
v -7.409660 2.769287 -1.055420
v -4.549080 2.769287 -4.549072
v -11.277657 0.000000 7.158630
v -9.942513 0.000000 2.757233
v -7.774345 0.000000 -1.299088
v -4.859215 0.000000 -4.859222
v -10.847466 -2.769287 7.244186
v -9.537285 -2.769287 2.925079
v -7.409660 -2.769287 -1.055420
v -4.549080 -2.769287 -4.549072
v -9.599022 -5.267487 7.492523
v -8.361275 -5.267487 3.412201
v -6.351280 -5.267487 -0.348236
v -3.648994 -5.267487 -3.648987
v -7.654533 -7.250092 7.879303
v -6.529610 -7.250092 4.170898
v -4.702812 -7.250092 0.753235
v -2.247093 -7.250092 -2.247101
v -5.204323 -8.522980 8.366684
v -4.221550 -8.522980 5.126923
v -2.625633 -8.522980 2.141174
v -0.480598 -8.522980 -0.480591
v 3.672264 -8.961609 -0.330475
v 6.179268 -8.961609 -1.670502
v 8.899513 -8.961609 -2.495667
v 11.728477 -8.961609 -2.774307
v 5.210808 -8.522980 1.972107
v 7.239021 -8.522980 0.888000
v 9.439766 -8.522980 0.220398
v 11.728477 -8.522980 -0.005020
v 11.728477 -7.663849 -2.774307
v 11.728477 -7.288757 -0.406036
v 6.598732 -7.250092 4.049286
v 8.195045 -7.250092 3.196030
v 9.927147 -7.250092 2.670593
v 11.728477 -7.250092 2.493195
v 11.728477 -6.200195 1.730408
v 7.700203 -5.267487 5.697754
v 8.953758 -5.267487 5.027710
v 10.313927 -5.267487 4.615112
v 11.728477 -5.267487 4.475800
v 11.728477 -4.504700 3.425873
v 8.407387 -2.769287 6.756134
v 9.440865 -2.769287 6.203705
v 10.562263 -2.769287 5.863556
v 11.728477 -2.769287 5.748688
v 11.728477 -2.368256 4.514450
v 8.651070 0.000000 7.120819
v 9.608711 0.000000 6.608948
v 10.647835 0.000000 6.293732
v 11.728477 0.000000 6.187286
v 11.728477 0.000000 4.889557
v 8.407387 2.769287 6.756134
v 9.440865 2.769287 6.203705
v 10.562263 2.769287 5.863556
v 11.728477 2.769287 5.748688
v 11.728477 2.368256 4.514450
v 7.700203 5.267487 5.697754
v 8.953758 5.267487 5.027710
v 10.313927 5.267487 4.615112
v 11.728477 5.267487 4.475800
v 11.728477 4.504700 3.425888
v 6.598732 7.250092 4.049286
v 8.195045 7.250092 3.196030
v 9.927147 7.250092 2.670593
v 11.728477 7.250092 2.493195
v 11.728477 6.200195 1.730408
v 5.210808 8.522980 1.972107
v 7.239021 8.522980 0.888000
v 9.439766 8.522980 0.220398
v 11.728477 8.522980 -0.005020
v 11.728477 7.288757 -0.406036
v 3.672264 8.961609 -0.330475
v 6.179268 8.961609 -1.670502
v 8.899513 8.961609 -2.495667
v 11.728477 8.961609 -2.774307
v 11.728477 7.663849 -2.774307
v 2.133736 8.522980 -2.633057
v 5.119499 8.522980 -4.228989
v 8.359245 8.522980 -5.211761
v 11.728477 8.522980 -5.543579
v 11.728477 7.288757 -5.142563
v 0.745811 7.250092 -4.710251
v 4.163475 7.250092 -6.537018
v 7.871872 7.250092 -7.661957
v 11.728477 7.250092 -8.041794
v 11.728477 6.200195 -7.279007
v -0.355675 5.267487 -6.358704
v 3.404778 5.267487 -8.368683
v 7.485085 5.267487 -9.606445
v 11.728477 5.267487 -10.024384
v 11.728477 4.504700 -8.974487
v -1.062843 2.769287 -7.417084
v 2.917656 2.769287 -9.544708
v 7.236763 2.769287 -10.854889
v 11.728477 2.769287 -11.297287
v 11.728477 2.368256 -10.063049
v -1.306526 0.000000 -7.781769
v 2.749809 0.000000 -9.949936
v 7.151192 0.000000 -11.285080
v 11.728485 0.000000 -11.735901
v 11.728477 0.000000 -10.438156
v -1.062843 -2.769287 -7.417084
v 2.917656 -2.769287 -9.544708
v 7.236763 -2.769287 -10.854889
v 11.728477 -2.769287 -11.297287
v 11.728477 -2.368256 -10.063049
v -0.355675 -5.267487 -6.358704
v 3.404778 -5.267487 -8.368683
v 7.485085 -5.267487 -9.606445
v 11.728477 -5.267487 -10.024384
v 11.728477 -4.504700 -8.974487
v 0.745796 -7.250092 -4.710236
v 4.163475 -7.250092 -6.537018
v 7.871864 -7.250092 -7.661957
v 11.728477 -7.250092 -8.041794
v 11.728477 -6.200195 -7.279007
v 2.133736 -8.522980 -2.633057
v 5.119499 -8.522980 -4.228989
v 8.359245 -8.522980 -5.211761
v 11.728477 -8.522980 -5.543579
v 11.728477 -7.288757 -5.142563
vt 0.803412 0.443319
vt 0.802878 0.458953
vt 0.780831 0.461855
vt 0.783754 0.445565
vt 0.815933 0.440634
vt 0.817744 0.455522
vt 0.828373 0.436562
vt 0.832358 0.450584
vt 0.840590 0.431434
vt 0.846668 0.444558
vt 0.803968 0.427766
vt 0.786650 0.429974
vt 0.814111 0.425559
vt 0.824256 0.422243
vt 0.834241 0.418026
vt 0.803624 0.412462
vt 0.788363 0.415132
vt 0.811655 0.410489
vt 0.819692 0.407754
vt 0.827609 0.404351
vt 0.801454 0.397608
vt 0.787781 0.401008
vt 0.807942 0.395706
vt 0.814416 0.393353
vt 0.820791 0.390550
vt 0.797132 0.383249
vt 0.784404 0.387446
vt 0.802870 0.381426
vt 0.808511 0.379332
vt 0.814021 0.376909
vt 0.909683 0.636516
vt 0.918097 0.648909
vt 0.906846 0.656126
vt 0.898403 0.644930
vt 0.915252 0.632756
vt 0.923098 0.645700
vt 0.921178 0.629305
vt 0.928293 0.642770
vt 0.927416 0.626237
vt 0.933695 0.640169
vt 0.899475 0.625321
vt 0.887692 0.635375
vt 0.906119 0.620414
vt 0.913362 0.616008
vt 0.921090 0.612219
vt 0.887802 0.615105
vt 0.874938 0.626922
vt 0.896049 0.608741
vt 0.905142 0.603116
vt 0.914873 0.598351
vt 0.875459 0.605271
vt 0.860886 0.618685
vt 0.885708 0.597439
vt 0.896932 0.590592
vt 0.908850 0.584793
vt 0.863193 0.595234
vt 0.846389 0.609842
vt 0.875649 0.586184
vt 0.889022 0.578314
vt 0.903016 0.571557
vt 0.851545 0.584610
vt 0.832220 0.599840
vt 0.866198 0.574743
vt 0.881539 0.566150
vt 0.897322 0.558581
vt 0.840861 0.573215
vt 0.819023 0.588404
vt 0.857508 0.562985
vt 0.874509 0.553989
vt 0.891717 0.545783
vt 0.831344 0.561000
vt 0.807310 0.575489
vt 0.849634 0.550843
vt 0.867907 0.541756
vt 0.886156 0.533087
vt 0.823092 0.548007
vt 0.797478 0.561208
vt 0.842585 0.538297
vt 0.861704 0.529256
vt 0.880655 0.520556
vt 0.816112 0.534330
vt 0.789826 0.545773
vt 0.836367 0.525368
vt 0.855893 0.516632
vt 0.875086 0.507968
vt 0.810802 0.519928
vt 0.783722 0.529731
vt 0.831029 0.512064
vt 0.850477 0.503850
vt 0.869510 0.495398
vt 0.806850 0.505117
vt 0.779934 0.512963
vt 0.826535 0.498411
vt 0.845446 0.490883
vt 0.863909 0.482815
vt 0.804287 0.489958
vt 0.778376 0.495832
vt 0.822865 0.484431
vt 0.840782 0.477709
vt 0.858263 0.470183
vt 0.803035 0.474537
vt 0.778817 0.478691
vt 0.819974 0.470132
vt 0.836446 0.464290
vt 0.852535 0.457452
vt 0.852392 0.425385
vt 0.860564 0.437587
vt 0.863525 0.418413
vt 0.873850 0.429608
vt 0.873645 0.410439
vt 0.886187 0.420423
vt 0.843854 0.413015
vt 0.852852 0.407245
vt 0.860968 0.400733
vt 0.835229 0.400345
vt 0.842378 0.395783
vt 0.848899 0.390722
vt 0.826945 0.387321
vt 0.832782 0.383708
vt 0.838242 0.379791
vt 0.819341 0.374146
vt 0.824447 0.371056
vt 0.829346 0.367692
vt 0.933862 0.623648
vt 0.939217 0.637837
vt 0.940392 0.621471
vt 0.944911 0.635937
vt 0.946924 0.619767
vt 0.950693 0.634314
vt 0.929091 0.609050
vt 0.937180 0.606501
vt 0.945245 0.604738
vt 0.924956 0.594393
vt 0.935145 0.591259
vt 0.945314 0.589270
vt 0.921171 0.579924
vt 0.933645 0.576023
vt 0.946188 0.573556
vt 0.917419 0.565756
vt 0.932061 0.560979
vt 0.946951 0.557758
vt 0.913482 0.551907
vt 0.929981 0.546222
vt 0.946949 0.542014
vt 0.909238 0.538355
vt 0.927185 0.531790
vt 0.945792 0.526435
vt 0.904630 0.525071
vt 0.923572 0.517694
vt 0.943280 0.511127
vt 0.899617 0.512046
vt 0.919101 0.503946
vt 0.939339 0.496176
vt 0.894239 0.499277
vt 0.913759 0.490571
vt 0.934001 0.481643
vt 0.888416 0.486676
vt 0.907494 0.477587
vt 0.926948 0.467856
vt 0.882154 0.474235
vt 0.900359 0.465003
vt 0.918588 0.454771
vt 0.875440 0.461936
vt 0.892360 0.452825
vt 0.908926 0.442488
vt 0.868251 0.449740
vt 0.883509 0.441043
vt 0.898060 0.431050
vt 0.920715 0.232140
vt 0.931273 0.244908
vt 0.916870 0.253056
vt 0.908821 0.238506
vt 0.901319 0.258590
vt 0.895926 0.242848
vt 0.885152 0.261792
vt 0.882449 0.245345
vt 0.868698 0.262825
vt 0.868690 0.246121
vt 0.910942 0.219438
vt 0.901217 0.223869
vt 0.890794 0.226924
vt 0.879924 0.228671
vt 0.868828 0.229179
vt 0.902919 0.206328
vt 0.894920 0.208931
vt 0.886550 0.210737
vt 0.877921 0.211752
vt 0.869151 0.212000
vt 0.897720 0.192487
vt 0.890885 0.193550
vt 0.883904 0.194270
vt 0.876810 0.194637
vt 0.869646 0.194656
vt 0.896217 0.178054
vt 0.889830 0.177826
vt 0.883364 0.177617
vt 0.876828 0.177423
vt 0.870237 0.177238
vt 0.898712 0.163647
vt 0.891980 0.162118
vt 0.885067 0.160971
vt 0.878014 0.160201
vt 0.870851 0.159830
vt 0.904829 0.149856
vt 0.897009 0.146776
vt 0.888742 0.144527
vt 0.880168 0.143088
vt 0.871417 0.142488
vt 0.913673 0.136748
vt 0.904124 0.131860
vt 0.893786 0.128362
vt 0.882956 0.126168
vt 0.871873 0.125314
vt 0.924134 0.123928
vt 0.912314 0.117194
vt 0.899441 0.112446
vt 0.885970 0.109505
vt 0.872214 0.108378
vt 0.935187 0.110908
vt 0.920701 0.102551
vt 0.905112 0.096693
vt 0.888930 0.093086
vt 0.872473 0.091678
vt 0.946020 0.097351
vt 0.928714 0.087782
vt 0.910472 0.081012
vt 0.891711 0.076841
vt 0.872692 0.075163
vt 0.956060 0.083141
vt 0.936076 0.072824
vt 0.915419 0.065332
vt 0.894297 0.060676
vt 0.872906 0.058768
vt 0.964974 0.068351
vt 0.942733 0.057682
vt 0.919989 0.049614
vt 0.896732 0.044488
vt 0.873129 0.042435
vt 0.972671 0.053195
vt 0.948802 0.042400
vt 0.924305 0.033843
vt 0.899089 0.028291
vt 0.873394 0.026019
vt 0.979360 0.038012
vt 0.954558 0.027052
vt 0.928532 0.018017
vt 0.901451 0.012069
vt 0.873724 0.009639
vt 0.968916 0.301636
vt 0.975851 0.316893
vt 0.950791 0.328281
vt 0.944982 0.312855
vt 0.924392 0.337278
vt 0.920290 0.321389
vt 0.897056 0.342897
vt 0.894910 0.326642
vt 0.869267 0.344845
vt 0.869170 0.328452
vt 0.960958 0.286566
vt 0.938851 0.297585
vt 0.916038 0.305599
vt 0.892690 0.310447
vt 0.869055 0.312101
vt 0.951875 0.272008
vt 0.932126 0.282526
vt 0.911488 0.289896
vt 0.890335 0.294275
vt 0.868924 0.295749
vt 0.941851 0.258127
vt 0.924755 0.267695
vt 0.906569 0.274246
vt 0.887815 0.278078
vt 0.868794 0.279344
vt 0.852224 0.261708
vt 0.854919 0.245181
vt 0.835984 0.258397
vt 0.841403 0.242472
vt 0.820287 0.252824
vt 0.828452 0.237936
vt 0.805640 0.244746
vt 0.816522 0.231391
vt 0.857733 0.228437
vt 0.846871 0.226400
vt 0.836484 0.223041
vt 0.826875 0.218267
vt 0.860395 0.211464
vt 0.851802 0.210111
vt 0.843512 0.207939
vt 0.835666 0.204918
vt 0.862497 0.194310
vt 0.855433 0.193579
vt 0.848510 0.192467
vt 0.841770 0.190965
vt 0.863667 0.177064
vt 0.857128 0.176874
vt 0.850659 0.176673
vt 0.844272 0.176456
vt 0.863699 0.159823
vt 0.856604 0.160163
vt 0.849622 0.160865
vt 0.842787 0.161924
vt 0.862655 0.142677
vt 0.854017 0.143617
vt 0.845637 0.145366
vt 0.837630 0.147937
vt 0.860778 0.125713
vt 0.849888 0.127322
vt 0.839436 0.130263
vt 0.829678 0.134615
vt 0.858448 0.108969
vt 0.844939 0.111258
vt 0.831987 0.115424
vt 0.820017 0.121645
vt 0.856000 0.092422
vt 0.839788 0.095359
vt 0.824150 0.100654
vt 0.809621 0.108584
vt 0.853638 0.076024
vt 0.834822 0.079550
vt 0.816520 0.085800
vt 0.799254 0.095072
vt 0.851450 0.059726
vt 0.830215 0.063764
vt 0.809435 0.070773
vt 0.789484 0.080919
vt 0.849452 0.043495
vt 0.825997 0.047949
vt 0.803021 0.055542
vt 0.780692 0.066122
vt 0.847608 0.027328
vt 0.822094 0.032066
vt 0.797219 0.040120
vt 0.773052 0.050849
vt 0.845859 0.011018
vt 0.818366 0.016082
vt 0.791754 0.024560
vt 0.766449 0.035431
vt 0.841534 0.343075
vt 0.843467 0.326799
vt 0.814345 0.337733
vt 0.818159 0.321796
vt 0.788127 0.329293
vt 0.793489 0.313794
vt 0.763071 0.318946
vt 0.769372 0.303584
vt 0.845435 0.310566
vt 0.822091 0.305911
vt 0.799187 0.298340
vt 0.776703 0.288205
vt 0.847507 0.294339
vt 0.826306 0.290067
vt 0.805499 0.283005
vt 0.785285 0.273148
vt 0.849753 0.278072
vt 0.830922 0.274243
vt 0.812548 0.267831
vt 0.795040 0.258633
vt 0.344098 0.696853
vt 0.360526 0.696853
vt 0.359337 0.704363
vt 0.345287 0.704363
vt 0.376151 0.701930
vt 0.372699 0.708705
vt 0.389442 0.711586
vt 0.384065 0.716963
vt 0.399098 0.724877
vt 0.392323 0.728330
vt 0.404175 0.740502
vt 0.396665 0.741692
vt 0.404175 0.756931
vt 0.396664 0.755741
vt 0.399098 0.772556
vt 0.392323 0.769103
vt 0.389441 0.785846
vt 0.384065 0.780469
vt 0.376150 0.795503
vt 0.372698 0.788728
vt 0.360525 0.800579
vt 0.359336 0.793069
vt 0.344097 0.800579
vt 0.345286 0.793069
vt 0.328472 0.795502
vt 0.331924 0.788727
vt 0.315181 0.785846
vt 0.320558 0.780469
vt 0.305525 0.772554
vt 0.312300 0.769102
vt 0.300448 0.756930
vt 0.307959 0.755740
vt 0.300448 0.740501
vt 0.307959 0.741691
vt 0.305525 0.724876
vt 0.312300 0.728329
vt 0.315182 0.711586
vt 0.320559 0.716962
vt 0.328473 0.701929
vt 0.331925 0.708704
vt 0.384067 0.716964
vt 0.372701 0.708706
vt 0.376153 0.701931
vt 0.389444 0.711588
vt 0.359339 0.704363
vt 0.360529 0.696853
vt 0.345289 0.704363
vt 0.344100 0.696852
vt 0.331927 0.708703
vt 0.328475 0.701928
vt 0.320560 0.716961
vt 0.315183 0.711584
vt 0.312301 0.728327
vt 0.305526 0.724874
vt 0.392324 0.728331
vt 0.399100 0.724880
vt 0.396665 0.741694
vt 0.404176 0.740505
vt 0.396664 0.755743
vt 0.404175 0.756933
vt 0.392322 0.769105
vt 0.399097 0.772558
vt 0.384063 0.780471
vt 0.389440 0.785848
vt 0.372696 0.788728
vt 0.376148 0.795504
vt 0.359334 0.793069
vt 0.360523 0.800580
vt 0.345284 0.793069
vt 0.344094 0.800579
vt 0.331923 0.788726
vt 0.328470 0.795501
vt 0.320557 0.780468
vt 0.315179 0.785844
vt 0.312299 0.769101
vt 0.305524 0.772552
vt 0.307958 0.755738
vt 0.300448 0.756927
vt 0.307959 0.741689
vt 0.300449 0.740499
vt 0.873541 0.388631
vt 0.887959 0.396778
vt 0.860385 0.380347
vt 0.849241 0.371023
vt 0.840346 0.360098
vt 0.960691 0.616844
vt 0.963553 0.630587
vt 0.960564 0.602545
vt 0.962662 0.587521
vt 0.965866 0.571731
vt 0.969019 0.555230
vt 0.971193 0.538173
vt 0.971732 0.520812
vt 0.970216 0.503466
vt 0.966419 0.486494
vt 0.960256 0.470265
vt 0.952516 0.454654
vt 0.942547 0.440218
vt 0.930651 0.427177
vt 0.917224 0.415651
vt 0.902779 0.405604
vn -0.274039 0.951137 -0.142272
vn 0.026436 0.997390 -0.067185
vn 0.035805 0.992206 -0.119358
vn -0.266919 0.946669 -0.180475
vn -0.274039 0.951137 -0.142272
vn -0.261880 0.958985 -0.108473
vn 0.022863 0.999694 0.009470
vn 0.026436 0.997390 -0.067185
vn -0.261880 0.958985 -0.108473
vn -0.235969 0.958945 -0.157297
vn 0.020510 0.999696 0.013684
vn 0.022863 0.999694 0.009470
vn -0.235969 0.958945 -0.157297
vn -0.200918 0.958980 -0.199975
vn 0.017515 0.999694 0.017465
vn 0.020510 0.999696 0.013684
vn -0.545092 0.810312 -0.215104
vn -0.274039 0.951137 -0.142272
vn -0.266919 0.946669 -0.180475
vn -0.539249 0.806011 -0.244041
vn -0.545092 0.810312 -0.215104
vn -0.522937 0.824390 -0.216605
vn -0.261880 0.958985 -0.108473
vn -0.274039 0.951137 -0.142272
vn -0.522937 0.824390 -0.216605
vn -0.471184 0.824287 -0.313905
vn -0.235969 0.958945 -0.157297
vn -0.261880 0.958985 -0.108473
vn -0.471184 0.824287 -0.313905
vn -0.401426 0.824375 -0.399077
vn -0.200918 0.958980 -0.199975
vn -0.235969 0.958945 -0.157297
vn -0.758931 0.588762 -0.278180
vn -0.545092 0.810312 -0.215104
vn -0.539249 0.806011 -0.244041
vn -0.752694 0.584726 -0.302569
vn -0.758931 0.588762 -0.278180
vn -0.734775 0.606199 -0.304350
vn -0.522937 0.824390 -0.216605
vn -0.545092 0.810312 -0.215104
vn -0.734775 0.606199 -0.304350
vn -0.662133 0.606044 -0.440783
vn -0.471184 0.824287 -0.313905
vn -0.522937 0.824390 -0.216605
vn -0.662133 0.606044 -0.440783
vn -0.564451 0.606176 -0.560309
vn -0.401426 0.824375 -0.399077
vn -0.471184 0.824287 -0.313905
vn -0.894686 0.309256 -0.322333
vn -0.758931 0.588762 -0.278180
vn -0.752694 0.584726 -0.302569
vn -0.887013 0.306602 -0.345258
vn -0.894686 0.309256 -0.322333
vn -0.874602 0.322230 -0.362269
vn -0.734775 0.606199 -0.304350
vn -0.758931 0.588762 -0.278180
vn -0.874602 0.322230 -0.362269
vn -0.788231 0.322101 -0.524351
vn -0.662133 0.606044 -0.440783
vn -0.734775 0.606199 -0.304350
vn -0.788231 0.322101 -0.524351
vn -0.672336 0.322209 -0.666442
vn -0.564451 0.606176 -0.560309
vn -0.662133 0.606044 -0.440783
vn -0.940992 0.000000 -0.338429
vn -0.894686 0.309256 -0.322333
vn -0.887013 0.306602 -0.345258
vn -0.932524 0.000000 -0.361109
vn -0.940992 0.000000 -0.338429
vn -0.923880 0.000000 -0.382683
vn -0.874602 0.322230 -0.362269
vn -0.894686 0.309256 -0.322333
vn -0.923880 0.000000 -0.382683
vn -0.832684 0.000000 -0.553748
vn -0.788231 0.322101 -0.524351
vn -0.874602 0.322230 -0.362269
vn -0.832684 0.000000 -0.553748
vn -0.710436 0.000000 -0.703762
vn -0.672336 0.322209 -0.666442
vn -0.788231 0.322101 -0.524351
vn -0.894686 -0.309254 -0.322334
vn -0.940992 0.000000 -0.338429
vn -0.932524 0.000000 -0.361109
vn -0.887014 -0.306598 -0.345260
vn -0.894686 -0.309254 -0.322334
vn -0.874602 -0.322229 -0.362271
vn -0.923880 0.000000 -0.382683
vn -0.940992 0.000000 -0.338429
vn -0.874602 -0.322229 -0.362271
vn -0.788232 -0.322098 -0.524351
vn -0.832684 0.000000 -0.553748
vn -0.923880 0.000000 -0.382683
vn -0.788232 -0.322098 -0.524351
vn -0.672337 -0.322208 -0.666442
vn -0.710436 0.000000 -0.703762
vn -0.832684 0.000000 -0.553748
vn -0.758929 -0.588762 -0.278182
vn -0.894686 -0.309254 -0.322334
vn -0.887014 -0.306598 -0.345260
vn -0.752693 -0.584725 -0.302573
vn -0.758929 -0.588762 -0.278182
vn -0.734775 -0.606198 -0.304350
vn -0.874602 -0.322229 -0.362271
vn -0.894686 -0.309254 -0.322334
vn -0.734775 -0.606198 -0.304350
vn -0.662133 -0.606044 -0.440783
vn -0.788232 -0.322098 -0.524351
vn -0.874602 -0.322229 -0.362271
vn -0.662133 -0.606044 -0.440783
vn -0.564450 -0.606177 -0.560308
vn -0.672337 -0.322208 -0.666442
vn -0.788232 -0.322098 -0.524351
vn -0.545087 -0.810314 -0.215106
vn -0.758929 -0.588762 -0.278182
vn -0.752693 -0.584725 -0.302573
vn -0.539246 -0.806012 -0.244046
vn -0.545087 -0.810314 -0.215106
vn -0.522934 -0.824393 -0.216603
vn -0.734775 -0.606198 -0.304350
vn -0.758929 -0.588762 -0.278182
vn -0.522934 -0.824393 -0.216603
vn -0.471181 -0.824290 -0.313903
vn -0.662133 -0.606044 -0.440783
vn -0.734775 -0.606198 -0.304350
vn -0.471181 -0.824290 -0.313903
vn -0.401422 -0.824379 -0.399074
vn -0.564450 -0.606177 -0.560308
vn -0.662133 -0.606044 -0.440783
vn -0.274039 -0.951136 -0.142275
vn -0.545087 -0.810314 -0.215106
vn -0.539246 -0.806012 -0.244046
vn -0.266920 -0.946669 -0.180479
vn -0.274039 -0.951136 -0.142275
vn -0.261882 -0.958984 -0.108474
vn -0.522934 -0.824393 -0.216603
vn -0.545087 -0.810314 -0.215106
vn -0.261882 -0.958984 -0.108474
vn -0.235972 -0.958944 -0.157298
vn -0.471181 -0.824290 -0.313903
vn -0.522934 -0.824393 -0.216603
vn -0.235972 -0.958944 -0.157298
vn -0.200919 -0.958979 -0.199977
vn -0.401422 -0.824379 -0.399074
vn -0.471181 -0.824290 -0.313903
vn 0.026437 -0.997390 -0.067187
vn -0.274039 -0.951136 -0.142275
vn -0.266920 -0.946669 -0.180479
vn 0.035807 -0.992205 -0.119362
vn 0.026437 -0.997390 -0.067187
vn 0.022865 -0.999694 0.009471
vn -0.261882 -0.958984 -0.108474
vn -0.274039 -0.951136 -0.142275
vn 0.022865 -0.999694 0.009471
vn 0.020512 -0.999696 0.013685
vn -0.235972 -0.958944 -0.157298
vn -0.261882 -0.958984 -0.108474
vn 0.020512 -0.999696 0.013685
vn 0.017517 -0.999694 0.017466
vn -0.200919 -0.958979 -0.199977
vn -0.235972 -0.958944 -0.157298
vn 0.325748 -0.945449 0.003900
vn 0.026437 -0.997390 -0.067187
vn 0.035807 -0.992205 -0.119362
vn 0.337139 -0.939194 -0.065210
vn 0.325748 -0.945449 0.003900
vn 0.304188 -0.944242 0.125999
vn 0.022865 -0.999694 0.009471
vn 0.026437 -0.997390 -0.067187
vn 0.304188 -0.944242 0.125999
vn 0.273853 -0.944260 0.182698
vn 0.020512 -0.999696 0.013685
vn 0.022865 -0.999694 0.009471
vn 0.273853 -0.944260 0.182698
vn 0.233171 -0.944245 0.232450
vn 0.017517 -0.999694 0.017466
vn 0.020512 -0.999696 0.013685
vn 0.594251 -0.801603 0.065553
vn 0.325748 -0.945449 0.003900
vn 0.337139 -0.939194 -0.065210
vn 0.606581 -0.794749 -0.020791
vn 0.594251 -0.801603 0.065553
vn 0.555620 -0.798949 0.230146
vn 0.304188 -0.944242 0.125999
vn 0.325748 -0.945449 0.003900
vn 0.555620 -0.798949 0.230146
vn 0.500240 -0.798964 0.333792
vn 0.273853 -0.944260 0.182698
vn 0.304188 -0.944242 0.125999
vn 0.500240 -0.798964 0.333792
vn 0.425829 -0.798952 0.424672
vn 0.233171 -0.944245 0.232450
vn 0.273853 -0.944260 0.182698
vn 0.806144 -0.580794 0.113177
vn 0.594251 -0.801603 0.065553
vn 0.606581 -0.794749 -0.020791
vn 0.818272 -0.574705 0.012096
vn 0.806144 -0.580794 0.113177
vn 0.753760 -0.578244 0.312218
vn 0.555620 -0.798949 0.230146
vn 0.594251 -0.801603 0.065553
vn 0.753760 -0.578244 0.312218
vn 0.678622 -0.578251 0.452877
vn 0.500240 -0.798964 0.333792
vn 0.555620 -0.798949 0.230146
vn 0.678622 -0.578251 0.452877
vn 0.577617 -0.578245 0.576188
vn 0.425829 -0.798952 0.424672
vn 0.500240 -0.798964 0.333792
vn 0.941589 -0.304784 0.143240
vn 0.806144 -0.580794 0.113177
vn 0.818272 -0.574705 0.012096
vn 0.953029 -0.301155 0.032276
vn 0.941589 -0.304784 0.143240
vn 0.880362 -0.303292 0.364659
vn 0.753760 -0.578244 0.312218
vn 0.806144 -0.580794 0.113177
vn 0.880362 -0.303292 0.364659
vn 0.792591 -0.303293 0.528973
vn 0.678622 -0.578251 0.452877
vn 0.753760 -0.578244 0.312218
vn 0.792591 -0.303293 0.528973
vn 0.674588 -0.303290 0.673013
vn 0.577617 -0.578245 0.576188
vn 0.678622 -0.578251 0.452877
vn 0.988146 0.000000 0.153515
vn 0.941589 -0.304784 0.143240
vn 0.953029 -0.301155 0.032276
vn 0.999236 0.000000 0.039076
vn 0.988146 0.000000 0.153515
vn 0.923880 0.000000 0.382683
vn 0.880362 -0.303292 0.364659
vn 0.941589 -0.304784 0.143240
vn 0.923880 0.000000 0.382683
vn 0.831764 -0.000001 0.555130
vn 0.792591 -0.303293 0.528973
vn 0.880362 -0.303292 0.364659
vn 0.831764 -0.000001 0.555130
vn 0.707917 -0.000001 0.706296
vn 0.674588 -0.303290 0.673013
vn 0.792591 -0.303293 0.528973
vn 0.941588 0.304786 0.143240
vn 0.988146 0.000000 0.153515
vn 0.999236 0.000000 0.039076
vn 0.953028 0.301157 0.032277
vn 0.941588 0.304786 0.143240
vn 0.880362 0.303294 0.364658
vn 0.923880 0.000000 0.382683
vn 0.988146 0.000000 0.153515
vn 0.880362 0.303294 0.364658
vn 0.792591 0.303294 0.528972
vn 0.831764 -0.000001 0.555130
vn 0.923880 0.000000 0.382683
vn 0.792591 0.303294 0.528972
vn 0.674588 0.303291 0.673012
vn 0.707917 -0.000001 0.706296
vn 0.831764 -0.000001 0.555130
vn 0.806145 0.580794 0.113179
vn 0.941588 0.304786 0.143240
vn 0.953028 0.301157 0.032277
vn 0.818271 0.574705 0.012099
vn 0.806145 0.580794 0.113179
vn 0.753761 0.578243 0.312218
vn 0.880362 0.303294 0.364658
vn 0.941588 0.304786 0.143240
vn 0.753761 0.578243 0.312218
vn 0.678622 0.578251 0.452878
vn 0.792591 0.303294 0.528972
vn 0.880362 0.303294 0.364658
vn 0.678622 0.578251 0.452878
vn 0.577617 0.578244 0.576187
vn 0.674588 0.303291 0.673012
vn 0.792591 0.303294 0.528972
vn 0.594254 0.801601 0.065555
vn 0.806145 0.580794 0.113179
vn 0.818271 0.574705 0.012099
vn 0.606583 0.794749 -0.020787
vn 0.594254 0.801601 0.065555
vn 0.555624 0.798946 0.230147
vn 0.753761 0.578243 0.312218
vn 0.806145 0.580794 0.113179
vn 0.555624 0.798946 0.230147
vn 0.500243 0.798961 0.333795
vn 0.678622 0.578251 0.452878
vn 0.753761 0.578243 0.312218
vn 0.500243 0.798961 0.333795
vn 0.425832 0.798949 0.424673
vn 0.577617 0.578244 0.576187
vn 0.678622 0.578251 0.452878
vn 0.325749 0.945448 0.003901
vn 0.594254 0.801601 0.065555
vn 0.606583 0.794749 -0.020787
vn 0.337140 0.939194 -0.065207
vn 0.325749 0.945448 0.003901
vn 0.304189 0.944242 0.125999
vn 0.555624 0.798946 0.230147
vn 0.594254 0.801601 0.065555
vn 0.304189 0.944242 0.125999
vn 0.273855 0.944259 0.182699
vn 0.500243 0.798961 0.333795
vn 0.555624 0.798946 0.230147
vn 0.273855 0.944259 0.182699
vn 0.233172 0.944244 0.232451
vn 0.425832 0.798949 0.424673
vn 0.500243 0.798961 0.333795
vn 0.026436 0.997390 -0.067185
vn 0.325749 0.945448 0.003901
vn 0.337140 0.939194 -0.065207
vn 0.035805 0.992206 -0.119358
vn 0.026436 0.997390 -0.067185
vn 0.022863 0.999694 0.009470
vn 0.304189 0.944242 0.125999
vn 0.325749 0.945448 0.003901
vn 0.022863 0.999694 0.009470
vn 0.020510 0.999696 0.013684
vn 0.273855 0.944259 0.182699
vn 0.304189 0.944242 0.125999
vn 0.020510 0.999696 0.013684
vn 0.017515 0.999694 0.017465
vn 0.233172 0.944244 0.232451
vn 0.273855 0.944259 0.182699
vn -0.200918 0.958980 -0.199975
vn -0.157695 0.959023 -0.235386
vn 0.013814 0.999691 0.020641
vn 0.017515 0.999694 0.017465
vn -0.157695 0.959023 -0.235386
vn -0.108474 0.958985 -0.261880
vn 0.009470 0.999694 0.022863
vn 0.013814 0.999691 0.020641
vn -0.108474 0.958985 -0.261880
vn -0.142328 0.951128 -0.274042
vn -0.067193 0.997390 0.026426
vn 0.009470 0.999694 0.022863
vn -0.401426 0.824375 -0.399077
vn -0.315098 0.824491 -0.470031
vn -0.157695 0.959023 -0.235386
vn -0.200918 0.958980 -0.199975
vn -0.315098 0.824491 -0.470031
vn -0.216607 0.824391 -0.522935
vn -0.108474 0.958985 -0.261880
vn -0.157695 0.959023 -0.235386
vn -0.216607 0.824391 -0.522935
vn -0.215216 0.810291 -0.545079
vn -0.142328 0.951128 -0.274042
vn -0.108474 0.958985 -0.261880
vn -0.564451 0.606176 -0.560309
vn -0.443046 0.606350 -0.660341
vn -0.315098 0.824491 -0.470031
vn -0.401426 0.824375 -0.399077
vn -0.443046 0.606350 -0.660341
vn -0.304352 0.606201 -0.734772
vn -0.216607 0.824391 -0.522935
vn -0.315098 0.824491 -0.470031
vn -0.304352 0.606201 -0.734772
vn -0.278356 0.588733 -0.758888
vn -0.215216 0.810291 -0.545079
vn -0.216607 0.824391 -0.522935
vn -0.672336 0.322209 -0.666442
vn -0.527705 0.322353 -0.785885
vn -0.443046 0.606350 -0.660341
vn -0.564451 0.606176 -0.560309
vn -0.527705 0.322353 -0.785885
vn -0.362271 0.322231 -0.874601
vn -0.304352 0.606201 -0.734772
vn -0.443046 0.606350 -0.660341
vn -0.362271 0.322231 -0.874601
vn -0.322567 0.309233 -0.894609
vn -0.278356 0.588733 -0.758888
vn -0.304352 0.606201 -0.734772
vn -0.710436 0.000000 -0.703762
vn -0.557600 0.000000 -0.830110
vn -0.527705 0.322353 -0.785885
vn -0.672336 0.322209 -0.666442
vn -0.557600 0.000000 -0.830110
vn -0.382684 0.000001 -0.923879
vn -0.362271 0.322231 -0.874601
vn -0.527705 0.322353 -0.785885
vn -0.382684 0.000001 -0.923879
vn -0.338681 0.000000 -0.940901
vn -0.322567 0.309233 -0.894609
vn -0.362271 0.322231 -0.874601
vn -0.672337 -0.322208 -0.666442
vn -0.527703 -0.322352 -0.785887
vn -0.557600 0.000000 -0.830110
vn -0.710436 0.000000 -0.703762
vn -0.527703 -0.322352 -0.785887
vn -0.362269 -0.322228 -0.874603
vn -0.382684 0.000001 -0.923879
vn -0.557600 0.000000 -0.830110
vn -0.362269 -0.322228 -0.874603
vn -0.322566 -0.309231 -0.894610
vn -0.338681 0.000000 -0.940901
vn -0.382684 0.000001 -0.923879
vn -0.564450 -0.606177 -0.560308
vn -0.443046 -0.606350 -0.660341
vn -0.527703 -0.322352 -0.785887
vn -0.672337 -0.322208 -0.666442
vn -0.443046 -0.606350 -0.660341
vn -0.304352 -0.606201 -0.734773
vn -0.362269 -0.322228 -0.874603
vn -0.527703 -0.322352 -0.785887
vn -0.304352 -0.606201 -0.734773
vn -0.278361 -0.588732 -0.758887
vn -0.322566 -0.309231 -0.894610
vn -0.362269 -0.322228 -0.874603
vn -0.401422 -0.824379 -0.399074
vn -0.315094 -0.824494 -0.470026
vn -0.443046 -0.606350 -0.660341
vn -0.564450 -0.606177 -0.560308
vn -0.315094 -0.824494 -0.470026
vn -0.216605 -0.824394 -0.522931
vn -0.304352 -0.606201 -0.734773
vn -0.443046 -0.606350 -0.660341
vn -0.216605 -0.824394 -0.522931
vn -0.215221 -0.810292 -0.545075
vn -0.278361 -0.588732 -0.758887
vn -0.304352 -0.606201 -0.734773
vn -0.200919 -0.958979 -0.199977
vn -0.157695 -0.959023 -0.235388
vn -0.315094 -0.824494 -0.470026
vn -0.401422 -0.824379 -0.399074
vn -0.157695 -0.959023 -0.235388
vn -0.108474 -0.958984 -0.261882
vn -0.216605 -0.824394 -0.522931
vn -0.315094 -0.824494 -0.470026
vn -0.108474 -0.958984 -0.261882
vn -0.142330 -0.951127 -0.274043
vn -0.215221 -0.810292 -0.545075
vn -0.216605 -0.824394 -0.522931
vn 0.017517 -0.999694 0.017466
vn 0.013815 -0.999692 0.020642
vn -0.157695 -0.959023 -0.235388
vn -0.200919 -0.958979 -0.199977
vn 0.013815 -0.999692 0.020642
vn 0.009471 -0.999694 0.022865
vn -0.108474 -0.958984 -0.261882
vn -0.157695 -0.959023 -0.235388
vn 0.009471 -0.999694 0.022865
vn -0.067195 -0.997390 0.026427
vn -0.142330 -0.951127 -0.274043
vn -0.108474 -0.958984 -0.261882
vn 0.233171 -0.944245 0.232450
vn 0.183166 -0.944226 0.273655
vn 0.013815 -0.999692 0.020642
vn 0.017517 -0.999694 0.017466
vn 0.183166 -0.944226 0.273655
vn 0.125998 -0.944243 0.304188
vn 0.009471 -0.999694 0.022865
vn 0.013815 -0.999692 0.020642
vn 0.125998 -0.944243 0.304188
vn 0.003928 -0.945453 0.325736
vn -0.067195 -0.997390 0.026427
vn 0.009471 -0.999694 0.022865
vn 0.425829 -0.798952 0.424672
vn 0.334479 -0.798936 0.499825
vn 0.183166 -0.944226 0.273655
vn 0.233171 -0.944245 0.232450
vn 0.334479 -0.798936 0.499825
vn 0.230145 -0.798949 0.555620
vn 0.125998 -0.944243 0.304188
vn 0.183166 -0.944226 0.273655
vn 0.230145 -0.798949 0.555620
vn 0.065607 -0.801607 0.594241
vn 0.003928 -0.945453 0.325736
vn 0.125998 -0.944243 0.304188
vn 0.577617 -0.578245 0.576188
vn 0.453706 -0.578237 0.678081
vn 0.334479 -0.798936 0.499825
vn 0.425829 -0.798952 0.424672
vn 0.453706 -0.578237 0.678081
vn 0.312217 -0.578243 0.753761
vn 0.230145 -0.798949 0.555620
vn 0.334479 -0.798936 0.499825
vn 0.312217 -0.578243 0.753761
vn 0.113248 -0.580795 0.806134
vn 0.065607 -0.801607 0.594241
vn 0.230145 -0.798949 0.555620
vn 0.674588 -0.303290 0.673013
vn 0.529882 -0.303287 0.791986
vn 0.453706 -0.578237 0.678081
vn 0.577617 -0.578245 0.576188
vn 0.529882 -0.303287 0.791986
vn 0.364659 -0.303291 0.880363
vn 0.312217 -0.578243 0.753761
vn 0.453706 -0.578237 0.678081
vn 0.364659 -0.303291 0.880363
vn 0.143320 -0.304787 0.941575
vn 0.113248 -0.580795 0.806134
vn 0.312217 -0.578243 0.753761
vn 0.707917 -0.000001 0.706296
vn 0.556065 0.000000 0.831139
vn 0.529882 -0.303287 0.791986
vn 0.674588 -0.303290 0.673013
vn 0.556065 0.000000 0.831139
vn 0.382685 0.000000 0.923879
vn 0.364659 -0.303291 0.880363
vn 0.529882 -0.303287 0.791986
vn 0.382685 0.000000 0.923879
vn 0.153599 0.000000 0.988133
vn 0.143320 -0.304787 0.941575
vn 0.364659 -0.303291 0.880363
vn 0.674588 0.303291 0.673012
vn 0.529881 0.303289 0.791986
vn 0.556065 0.000000 0.831139
vn 0.707917 -0.000001 0.706296
vn 0.529881 0.303289 0.791986
vn 0.364659 0.303292 0.880362
vn 0.382685 0.000000 0.923879
vn 0.556065 0.000000 0.831139
vn 0.364659 0.303292 0.880362
vn 0.143321 0.304788 0.941575
vn 0.153599 0.000000 0.988133
vn 0.382685 0.000000 0.923879
vn 0.577617 0.578244 0.576187
vn 0.453706 0.578236 0.678081
vn 0.529881 0.303289 0.791986
vn 0.674588 0.303291 0.673012
vn 0.453706 0.578236 0.678081
vn 0.312217 0.578242 0.753762
vn 0.364659 0.303292 0.880362
vn 0.529881 0.303289 0.791986
vn 0.312217 0.578242 0.753762
vn 0.113251 0.580795 0.806134
vn 0.143321 0.304788 0.941575
vn 0.364659 0.303292 0.880362
vn 0.425832 0.798949 0.424673
vn 0.334482 0.798933 0.499828
vn 0.453706 0.578236 0.678081
vn 0.577617 0.578244 0.576187
vn 0.334482 0.798933 0.499828
vn 0.230146 0.798946 0.555624
vn 0.312217 0.578242 0.753762
vn 0.453706 0.578236 0.678081
vn 0.230146 0.798946 0.555624
vn 0.065611 0.801605 0.594243
vn 0.113251 0.580795 0.806134
vn 0.312217 0.578242 0.753762
vn 0.233172 0.944244 0.232451
vn 0.183167 0.944226 0.273655
vn 0.334482 0.798933 0.499828
vn 0.425832 0.798949 0.424673
vn 0.183167 0.944226 0.273655
vn 0.125999 0.944242 0.304189
vn 0.230146 0.798946 0.555624
vn 0.334482 0.798933 0.499828
vn 0.125999 0.944242 0.304189
vn 0.003931 0.945452 0.325737
vn 0.065611 0.801605 0.594243
vn 0.230146 0.798946 0.555624
vn 0.017515 0.999694 0.017465
vn 0.013814 0.999691 0.020641
vn 0.183167 0.944226 0.273655
vn 0.233172 0.944244 0.232451
vn 0.013814 0.999691 0.020641
vn 0.009470 0.999694 0.022863
vn 0.125999 0.944242 0.304189
vn 0.183167 0.944226 0.273655
vn 0.009470 0.999694 0.022863
vn -0.067193 0.997390 0.026426
vn 0.003931 0.945452 0.325737
vn 0.125999 0.944242 0.304189
vn 0.283347 -0.958611 0.027907
vn -0.024748 -0.999691 -0.002437
vn -0.024273 -0.999694 -0.004828
vn 0.278011 -0.958985 0.055300
vn 0.278011 -0.958985 0.055300
vn -0.024273 -0.999694 -0.004828
vn -0.022864 -0.999694 -0.009470
vn 0.261880 -0.958985 0.108474
vn 0.261880 -0.958985 0.108474
vn -0.022864 -0.999694 -0.009470
vn -0.020511 -0.999696 -0.013685
vn 0.235969 -0.958946 0.157297
vn 0.235969 -0.958946 0.157297
vn -0.020511 -0.999696 -0.013685
vn -0.017516 -0.999694 -0.017465
vn 0.200917 -0.958980 0.199975
vn 0.565145 -0.823112 0.055661
vn 0.283347 -0.958611 0.027907
vn 0.278011 -0.958985 0.055300
vn 0.555145 -0.824391 0.110426
vn 0.555145 -0.824391 0.110426
vn 0.278011 -0.958985 0.055300
vn 0.261880 -0.958985 0.108474
vn 0.522935 -0.824391 0.216607
vn 0.522935 -0.824391 0.216607
vn 0.261880 -0.958985 0.108474
vn 0.235969 -0.958946 0.157297
vn 0.471184 -0.824287 0.313905
vn 0.471184 -0.824287 0.313905
vn 0.235969 -0.958946 0.157297
vn 0.200917 -0.958980 0.199975
vn 0.401425 -0.824377 0.399075
vn 0.792883 -0.604349 0.078091
vn 0.565145 -0.823112 0.055661
vn 0.555145 -0.824391 0.110426
vn 0.780031 -0.606200 0.155158
vn 0.780031 -0.606200 0.155158
vn 0.555145 -0.824391 0.110426
vn 0.522935 -0.824391 0.216607
vn 0.734773 -0.606199 0.304353
vn 0.734773 -0.606199 0.304353
vn 0.522935 -0.824391 0.216607
vn 0.471184 -0.824287 0.313905
vn 0.662134 -0.606042 0.440786
vn 0.662134 -0.606042 0.440786
vn 0.471184 -0.824287 0.313905
vn 0.401425 -0.824377 0.399075
vn 0.564454 -0.606173 0.560309
vn 0.942574 -0.320836 0.092837
vn 0.792883 -0.604349 0.078091
vn 0.780031 -0.606200 0.155158
vn 0.928472 -0.322228 0.184685
vn 0.928472 -0.322228 0.184685
vn 0.780031 -0.606200 0.155158
vn 0.734773 -0.606199 0.304353
vn 0.874602 -0.322228 0.362271
vn 0.874602 -0.322228 0.362271
vn 0.734773 -0.606199 0.304353
vn 0.662134 -0.606042 0.440786
vn 0.788232 -0.322098 0.524351
vn 0.788232 -0.322098 0.524351
vn 0.662134 -0.606042 0.440786
vn 0.564454 -0.606173 0.560309
vn 0.672337 -0.322206 0.666443
vn 0.995185 0.000000 0.098018
vn 0.942574 -0.320836 0.092837
vn 0.928472 -0.322228 0.184685
vn 0.980785 0.000000 0.195091
vn 0.980785 0.000000 0.195091
vn 0.928472 -0.322228 0.184685
vn 0.874602 -0.322228 0.362271
vn 0.923879 0.000000 0.382684
vn 0.923879 0.000000 0.382684
vn 0.874602 -0.322228 0.362271
vn 0.788232 -0.322098 0.524351
vn 0.832687 0.000000 0.553744
vn 0.832687 0.000000 0.553744
vn 0.788232 -0.322098 0.524351
vn 0.672337 -0.322206 0.666443
vn 0.710434 0.000001 0.703763
vn 0.942574 0.320835 0.092837
vn 0.995185 0.000000 0.098018
vn 0.980785 0.000000 0.195091
vn 0.928473 0.322227 0.184685
vn 0.928473 0.322227 0.184685
vn 0.980785 0.000000 0.195091
vn 0.923879 0.000000 0.382684
vn 0.874602 0.322228 0.362271
vn 0.874602 0.322228 0.362271
vn 0.923879 0.000000 0.382684
vn 0.832687 0.000000 0.553744
vn 0.788231 0.322098 0.524351
vn 0.788231 0.322098 0.524351
vn 0.832687 0.000000 0.553744
vn 0.710434 0.000001 0.703763
vn 0.672337 0.322208 0.666442
vn 0.792884 0.604348 0.078092
vn 0.942574 0.320835 0.092837
vn 0.928473 0.322227 0.184685
vn 0.780031 0.606199 0.155158
vn 0.780031 0.606199 0.155158
vn 0.928473 0.322227 0.184685
vn 0.874602 0.322228 0.362271
vn 0.734773 0.606199 0.304353
vn 0.734773 0.606199 0.304353
vn 0.874602 0.322228 0.362271
vn 0.788231 0.322098 0.524351
vn 0.662133 0.606043 0.440785
vn 0.662133 0.606043 0.440785
vn 0.788231 0.322098 0.524351
vn 0.672337 0.322208 0.666442
vn 0.564453 0.606175 0.560308
vn 0.565145 0.823112 0.055661
vn 0.792884 0.604348 0.078092
vn 0.780031 0.606199 0.155158
vn 0.555145 0.824391 0.110426
vn 0.555145 0.824391 0.110426
vn 0.780031 0.606199 0.155158
vn 0.734773 0.606199 0.304353
vn 0.522935 0.824391 0.216607
vn 0.522935 0.824391 0.216607
vn 0.734773 0.606199 0.304353
vn 0.662133 0.606043 0.440785
vn 0.471184 0.824288 0.313904
vn 0.471184 0.824288 0.313904
vn 0.662133 0.606043 0.440785
vn 0.564453 0.606175 0.560308
vn 0.401424 0.824377 0.399074
vn 0.283347 0.958611 0.027907
vn 0.565145 0.823112 0.055661
vn 0.555145 0.824391 0.110426
vn 0.278011 0.958985 0.055300
vn 0.278011 0.958985 0.055300
vn 0.555145 0.824391 0.110426
vn 0.522935 0.824391 0.216607
vn 0.261880 0.958985 0.108474
vn 0.261880 0.958985 0.108474
vn 0.522935 0.824391 0.216607
vn 0.471184 0.824288 0.313904
vn 0.235968 0.958946 0.157296
vn 0.235968 0.958946 0.157296
vn 0.471184 0.824288 0.313904
vn 0.401424 0.824377 0.399074
vn 0.200917 0.958980 0.199975
vn -0.024748 0.999691 -0.002437
vn 0.283347 0.958611 0.027907
vn 0.278011 0.958985 0.055300
vn -0.024272 0.999694 -0.004828
vn -0.024272 0.999694 -0.004828
vn 0.278011 0.958985 0.055300
vn 0.261880 0.958985 0.108474
vn -0.022864 0.999694 -0.009471
vn -0.022864 0.999694 -0.009471
vn 0.261880 0.958985 0.108474
vn 0.235968 0.958946 0.157296
vn -0.020511 0.999696 -0.013685
vn -0.020511 0.999696 -0.013685
vn 0.235968 0.958946 0.157296
vn 0.200917 0.958980 0.199975
vn -0.017516 0.999694 -0.017465
vn -0.329078 0.943746 -0.032411
vn -0.024748 0.999691 -0.002437
vn -0.024272 0.999694 -0.004828
vn -0.322924 0.944243 -0.064234
vn -0.322924 0.944243 -0.064234
vn -0.024272 0.999694 -0.004828
vn -0.022864 0.999694 -0.009471
vn -0.304188 0.944243 -0.125999
vn -0.304188 0.944243 -0.125999
vn -0.022864 0.999694 -0.009471
vn -0.020511 0.999696 -0.013685
vn -0.273854 0.944259 -0.182698
vn -0.273854 0.944259 -0.182698
vn -0.020511 0.999696 -0.013685
vn -0.017516 0.999694 -0.017465
vn -0.233171 0.944245 -0.232450
vn -0.600351 0.797548 -0.059129
vn -0.329078 0.943746 -0.032411
vn -0.322924 0.944243 -0.064234
vn -0.589846 0.798947 -0.117328
vn -0.589846 0.798947 -0.117328
vn -0.322924 0.944243 -0.064234
vn -0.304188 0.944243 -0.125999
vn -0.555622 0.798947 -0.230146
vn -0.555622 0.798947 -0.230146
vn -0.304188 0.944243 -0.125999
vn -0.273854 0.944259 -0.182698
vn -0.500243 0.798961 -0.333794
vn -0.500243 0.798961 -0.333794
vn -0.273854 0.944259 -0.182698
vn -0.233171 0.944245 -0.232450
vn -0.425832 0.798949 -0.424674
vn -0.813245 0.576382 -0.080097
vn -0.600351 0.797548 -0.059129
vn -0.589846 0.798947 -0.117328
vn -0.800189 0.578242 -0.159167
vn -0.800189 0.578242 -0.159167
vn -0.589846 0.798947 -0.117328
vn -0.555622 0.798947 -0.230146
vn -0.753760 0.578244 -0.312218
vn -0.753760 0.578244 -0.312218
vn -0.555622 0.798947 -0.230146
vn -0.500243 0.798961 -0.333794
vn -0.678622 0.578251 -0.452877
vn -0.678622 0.578251 -0.452877
vn -0.500243 0.798961 -0.333794
vn -0.425832 0.798949 -0.424674
vn -0.577617 0.578244 -0.576188
vn -0.948729 0.301963 -0.093442
vn -0.813245 0.576382 -0.080097
vn -0.800189 0.578242 -0.159167
vn -0.934588 0.303291 -0.185901
vn -0.934588 0.303291 -0.185901
vn -0.800189 0.578242 -0.159167
vn -0.753760 0.578244 -0.312218
vn -0.880363 0.303292 -0.364658
vn -0.880363 0.303292 -0.364658
vn -0.753760 0.578244 -0.312218
vn -0.678622 0.578251 -0.452877
vn -0.792592 0.303294 -0.528972
vn -0.792592 0.303294 -0.528972
vn -0.678622 0.578251 -0.452877
vn -0.577617 0.578244 -0.576188
vn -0.674588 0.303293 -0.673012
vn -0.995185 0.000000 -0.098017
vn -0.948729 0.301963 -0.093442
vn -0.934588 0.303291 -0.185901
vn -0.980786 0.000000 -0.195089
vn -0.980786 0.000000 -0.195089
vn -0.934588 0.303291 -0.185901
vn -0.880363 0.303292 -0.364658
vn -0.923880 0.000000 -0.382683
vn -0.923880 0.000000 -0.382683
vn -0.880363 0.303292 -0.364658
vn -0.792592 0.303294 -0.528972
vn -0.831765 0.000000 -0.555129
vn -0.831765 0.000000 -0.555129
vn -0.792592 0.303294 -0.528972
vn -0.674588 0.303293 -0.673012
vn -0.707917 0.000000 -0.706295
vn -0.948729 -0.301964 -0.093442
vn -0.995185 0.000000 -0.098017
vn -0.980786 0.000000 -0.195089
vn -0.934588 -0.303292 -0.185901
vn -0.934588 -0.303292 -0.185901
vn -0.980786 0.000000 -0.195089
vn -0.923880 0.000000 -0.382683
vn -0.880363 -0.303292 -0.364658
vn -0.880363 -0.303292 -0.364658
vn -0.923880 0.000000 -0.382683
vn -0.831765 0.000000 -0.555129
vn -0.792591 -0.303294 -0.528972
vn -0.792591 -0.303294 -0.528972
vn -0.831765 0.000000 -0.555129
vn -0.707917 0.000000 -0.706295
vn -0.674588 -0.303293 -0.673012
vn -0.813245 -0.576383 -0.080097
vn -0.948729 -0.301964 -0.093442
vn -0.934588 -0.303292 -0.185901
vn -0.800189 -0.578241 -0.159167
vn -0.800189 -0.578241 -0.159167
vn -0.934588 -0.303292 -0.185901
vn -0.880363 -0.303292 -0.364658
vn -0.753761 -0.578242 -0.312218
vn -0.753761 -0.578242 -0.312218
vn -0.880363 -0.303292 -0.364658
vn -0.792591 -0.303294 -0.528972
vn -0.678622 -0.578250 -0.452878
vn -0.678622 -0.578250 -0.452878
vn -0.792591 -0.303294 -0.528972
vn -0.674588 -0.303293 -0.673012
vn -0.577617 -0.578244 -0.576188
vn -0.600351 -0.797548 -0.059129
vn -0.813245 -0.576383 -0.080097
vn -0.800189 -0.578241 -0.159167
vn -0.589847 -0.798946 -0.117327
vn -0.589847 -0.798946 -0.117327
vn -0.800189 -0.578241 -0.159167
vn -0.753761 -0.578242 -0.312218
vn -0.555623 -0.798947 -0.230147
vn -0.555623 -0.798947 -0.230147
vn -0.753761 -0.578242 -0.312218
vn -0.678622 -0.578250 -0.452878
vn -0.500242 -0.798961 -0.333795
vn -0.500242 -0.798961 -0.333795
vn -0.678622 -0.578250 -0.452878
vn -0.577617 -0.578244 -0.576188
vn -0.425831 -0.798949 -0.424674
vn -0.329078 -0.943746 -0.032411
vn -0.600351 -0.797548 -0.059129
vn -0.589847 -0.798946 -0.117327
vn -0.322924 -0.944243 -0.064233
vn -0.322924 -0.944243 -0.064233
vn -0.589847 -0.798946 -0.117327
vn -0.555623 -0.798947 -0.230147
vn -0.304187 -0.944243 -0.125998
vn -0.304187 -0.944243 -0.125998
vn -0.555623 -0.798947 -0.230147
vn -0.500242 -0.798961 -0.333795
vn -0.273852 -0.944260 -0.182698
vn -0.273852 -0.944260 -0.182698
vn -0.500242 -0.798961 -0.333795
vn -0.425831 -0.798949 -0.424674
vn -0.233170 -0.944245 -0.232450
vn -0.024748 -0.999691 -0.002437
vn -0.329078 -0.943746 -0.032411
vn -0.322924 -0.944243 -0.064233
vn -0.024273 -0.999694 -0.004828
vn -0.024273 -0.999694 -0.004828
vn -0.322924 -0.944243 -0.064233
vn -0.304187 -0.944243 -0.125998
vn -0.022864 -0.999694 -0.009470
vn -0.022864 -0.999694 -0.009470
vn -0.304187 -0.944243 -0.125998
vn -0.273852 -0.944260 -0.182698
vn -0.020511 -0.999696 -0.013685
vn -0.020511 -0.999696 -0.013685
vn -0.273852 -0.944260 -0.182698
vn -0.233170 -0.944245 -0.232450
vn -0.017516 -0.999694 -0.017465
vn 0.200917 -0.958980 0.199975
vn -0.017516 -0.999694 -0.017465
vn -0.013814 -0.999692 -0.020641
vn 0.157694 -0.959023 0.235386
vn 0.157694 -0.959023 0.235386
vn -0.013814 -0.999692 -0.020641
vn -0.009471 -0.999694 -0.022864
vn 0.108476 -0.958985 0.261880
vn 0.108476 -0.958985 0.261880
vn -0.009471 -0.999694 -0.022864
vn -0.004828 -0.999694 -0.024272
vn 0.055300 -0.958985 0.278010
vn 0.055300 -0.958985 0.278010
vn -0.004828 -0.999694 -0.024272
vn -0.002437 -0.999691 -0.024748
vn 0.027907 -0.958612 0.283346
vn 0.401425 -0.824377 0.399075
vn 0.200917 -0.958980 0.199975
vn 0.157694 -0.959023 0.235386
vn 0.315095 -0.824492 0.470030
vn 0.315095 -0.824492 0.470030
vn 0.157694 -0.959023 0.235386
vn 0.108476 -0.958985 0.261880
vn 0.216609 -0.824390 0.522935
vn 0.216609 -0.824390 0.522935
vn 0.108476 -0.958985 0.261880
vn 0.055300 -0.958985 0.278010
vn 0.110426 -0.824392 0.555144
vn 0.110426 -0.824392 0.555144
vn 0.055300 -0.958985 0.278010
vn 0.027907 -0.958612 0.283346
vn 0.055660 -0.823114 0.565143
vn 0.564454 -0.606173 0.560309
vn 0.401425 -0.824377 0.399075
vn 0.315095 -0.824492 0.470030
vn 0.443046 -0.606349 0.660342
vn 0.443046 -0.606349 0.660342
vn 0.315095 -0.824492 0.470030
vn 0.216609 -0.824390 0.522935
vn 0.304351 -0.606201 0.734772
vn 0.304351 -0.606201 0.734772
vn 0.216609 -0.824390 0.522935
vn 0.110426 -0.824392 0.555144
vn 0.155156 -0.606202 0.780030
vn 0.155156 -0.606202 0.780030
vn 0.110426 -0.824392 0.555144
vn 0.055660 -0.823114 0.565143
vn 0.078091 -0.604350 0.792883
vn 0.672337 -0.322206 0.666443
vn 0.564454 -0.606173 0.560309
vn 0.443046 -0.606349 0.660342
vn 0.527707 -0.322351 0.785885
vn 0.527707 -0.322351 0.785885
vn 0.443046 -0.606349 0.660342
vn 0.304351 -0.606201 0.734772
vn 0.362269 -0.322231 0.874602
vn 0.362269 -0.322231 0.874602
vn 0.304351 -0.606201 0.734772
vn 0.155156 -0.606202 0.780030
vn 0.184680 -0.322229 0.928473
vn 0.184680 -0.322229 0.928473
vn 0.155156 -0.606202 0.780030
vn 0.078091 -0.604350 0.792883
vn 0.092842 -0.320838 0.942573
vn 0.710434 0.000001 0.703763
vn 0.672337 -0.322206 0.666443
vn 0.527707 -0.322351 0.785885
vn 0.557599 0.000001 0.830110
vn 0.557599 0.000001 0.830110
vn 0.527707 -0.322351 0.785885
vn 0.362269 -0.322231 0.874602
vn 0.382681 0.000000 0.923881
vn 0.382681 0.000000 0.923881
vn 0.362269 -0.322231 0.874602
vn 0.184680 -0.322229 0.928473
vn 0.195086 0.000000 0.980786
vn 0.195086 0.000000 0.980786
vn 0.184680 -0.322229 0.928473
vn 0.092842 -0.320838 0.942573
vn 0.098030 0.000000 0.995184
vn 0.672337 0.322208 0.666442
vn 0.710434 0.000001 0.703763
vn 0.557599 0.000001 0.830110
vn 0.527706 0.322352 0.785885
vn 0.527706 0.322352 0.785885
vn 0.557599 0.000001 0.830110
vn 0.382681 0.000000 0.923881
vn 0.362269 0.322231 0.874602
vn 0.362269 0.322231 0.874602
vn 0.382681 0.000000 0.923881
vn 0.195086 0.000000 0.980786
vn 0.184680 0.322229 0.928473
vn 0.184680 0.322229 0.928473
vn 0.195086 0.000000 0.980786
vn 0.098030 0.000000 0.995184
vn 0.092842 0.320837 0.942573
vn 0.564453 0.606175 0.560308
vn 0.672337 0.322208 0.666442
vn 0.527706 0.322352 0.785885
vn 0.443046 0.606350 0.660341
vn 0.443046 0.606350 0.660341
vn 0.527706 0.322352 0.785885
vn 0.362269 0.322231 0.874602
vn 0.304352 0.606201 0.734772
vn 0.304352 0.606201 0.734772
vn 0.362269 0.322231 0.874602
vn 0.184680 0.322229 0.928473
vn 0.155156 0.606201 0.780030
vn 0.155156 0.606201 0.780030
vn 0.184680 0.322229 0.928473
vn 0.092842 0.320837 0.942573
vn 0.078091 0.604350 0.792883
vn 0.401424 0.824377 0.399074
vn 0.564453 0.606175 0.560308
vn 0.443046 0.606350 0.660341
vn 0.315095 0.824492 0.470030
vn 0.315095 0.824492 0.470030
vn 0.443046 0.606350 0.660341
vn 0.304352 0.606201 0.734772
vn 0.216609 0.824390 0.522935
vn 0.216609 0.824390 0.522935
vn 0.304352 0.606201 0.734772
vn 0.155156 0.606201 0.780030
vn 0.110426 0.824391 0.555144
vn 0.110426 0.824391 0.555144
vn 0.155156 0.606201 0.780030
vn 0.078091 0.604350 0.792883
vn 0.055660 0.823113 0.565143
vn 0.200917 0.958980 0.199975
vn 0.401424 0.824377 0.399074
vn 0.315095 0.824492 0.470030
vn 0.157695 0.959023 0.235387
vn 0.157695 0.959023 0.235387
vn 0.315095 0.824492 0.470030
vn 0.216609 0.824390 0.522935
vn 0.108476 0.958985 0.261880
vn 0.108476 0.958985 0.261880
vn 0.216609 0.824390 0.522935
vn 0.110426 0.824391 0.555144
vn 0.055300 0.958985 0.278010
vn 0.055300 0.958985 0.278010
vn 0.110426 0.824391 0.555144
vn 0.055660 0.823113 0.565143
vn 0.027907 0.958611 0.283347
vn -0.017516 0.999694 -0.017465
vn 0.200917 0.958980 0.199975
vn 0.157695 0.959023 0.235387
vn -0.013814 0.999692 -0.020641
vn -0.013814 0.999692 -0.020641
vn 0.157695 0.959023 0.235387
vn 0.108476 0.958985 0.261880
vn -0.009471 0.999694 -0.022865
vn -0.009471 0.999694 -0.022865
vn 0.108476 0.958985 0.261880
vn 0.055300 0.958985 0.278010
vn -0.004828 0.999694 -0.024272
vn -0.004828 0.999694 -0.024272
vn 0.055300 0.958985 0.278010
vn 0.027907 0.958611 0.283347
vn -0.002437 0.999691 -0.024749
vn -0.233171 0.944245 -0.232450
vn -0.017516 0.999694 -0.017465
vn -0.013814 0.999692 -0.020641
vn -0.183165 0.944227 -0.273654
vn -0.183165 0.944227 -0.273654
vn -0.013814 0.999692 -0.020641
vn -0.009471 0.999694 -0.022865
vn -0.125998 0.944243 -0.304188
vn -0.125998 0.944243 -0.304188
vn -0.009471 0.999694 -0.022865
vn -0.004828 0.999694 -0.024272
vn -0.064234 0.944242 -0.322925
vn -0.064234 0.944242 -0.322925
vn -0.004828 0.999694 -0.024272
vn -0.002437 0.999691 -0.024749
vn -0.032410 0.943747 -0.329077
vn -0.425832 0.798949 -0.424674
vn -0.233171 0.944245 -0.232450
vn -0.183165 0.944227 -0.273654
vn -0.334482 0.798933 -0.499828
vn -0.334482 0.798933 -0.499828
vn -0.183165 0.944227 -0.273654
vn -0.125998 0.944243 -0.304188
vn -0.230146 0.798946 -0.555624
vn -0.230146 0.798946 -0.555624
vn -0.125998 0.944243 -0.304188
vn -0.064234 0.944242 -0.322925
vn -0.117328 0.798946 -0.589847
vn -0.117328 0.798946 -0.589847
vn -0.064234 0.944242 -0.322925
vn -0.032410 0.943747 -0.329077
vn -0.059129 0.797548 -0.600350
vn -0.577617 0.578244 -0.576188
vn -0.425832 0.798949 -0.424674
vn -0.334482 0.798933 -0.499828
vn -0.453707 0.578235 -0.678081
vn -0.453707 0.578235 -0.678081
vn -0.334482 0.798933 -0.499828
vn -0.230146 0.798946 -0.555624
vn -0.312217 0.578243 -0.753761
vn -0.312217 0.578243 -0.753761
vn -0.230146 0.798946 -0.555624
vn -0.117328 0.798946 -0.589847
vn -0.159167 0.578242 -0.800188
vn -0.159167 0.578242 -0.800188
vn -0.117328 0.798946 -0.589847
vn -0.059129 0.797548 -0.600350
vn -0.080097 0.576384 -0.813244
vn -0.674588 0.303293 -0.673012
vn -0.577617 0.578244 -0.576188
vn -0.453707 0.578235 -0.678081
vn -0.529880 0.303291 -0.791986
vn -0.529880 0.303291 -0.791986
vn -0.453707 0.578235 -0.678081
vn -0.312217 0.578243 -0.753761
vn -0.364657 0.303294 -0.880363
vn -0.364657 0.303294 -0.880363
vn -0.312217 0.578243 -0.753761
vn -0.159167 0.578242 -0.800188
vn -0.185901 0.303294 -0.934587
vn -0.185901 0.303294 -0.934587
vn -0.159167 0.578242 -0.800188
vn -0.080097 0.576384 -0.813244
vn -0.093443 0.301966 -0.948728
vn -0.707917 0.000000 -0.706295
vn -0.674588 0.303293 -0.673012
vn -0.529880 0.303291 -0.791986
vn -0.556063 0.000000 -0.831140
vn -0.556063 0.000000 -0.831140
vn -0.529880 0.303291 -0.791986
vn -0.364657 0.303294 -0.880363
vn -0.382683 0.000000 -0.923880
vn -0.382683 0.000000 -0.923880
vn -0.364657 0.303294 -0.880363
vn -0.185901 0.303294 -0.934587
vn -0.195091 0.000000 -0.980785
vn -0.195091 0.000000 -0.980785
vn -0.185901 0.303294 -0.934587
vn -0.093443 0.301966 -0.948728
vn -0.098019 0.000000 -0.995185
vn -0.674588 -0.303293 -0.673012
vn -0.707917 0.000000 -0.706295
vn -0.556063 0.000000 -0.831140
vn -0.529880 -0.303291 -0.791986
vn -0.529880 -0.303291 -0.791986
vn -0.556063 0.000000 -0.831140
vn -0.382683 0.000000 -0.923880
vn -0.364657 -0.303294 -0.880362
vn -0.364657 -0.303294 -0.880362
vn -0.382683 0.000000 -0.923880
vn -0.195091 0.000000 -0.980785
vn -0.185901 -0.303294 -0.934587
vn -0.185901 -0.303294 -0.934587
vn -0.195091 0.000000 -0.980785
vn -0.098019 0.000000 -0.995185
vn -0.093443 -0.301966 -0.948728
vn -0.577617 -0.578244 -0.576188
vn -0.674588 -0.303293 -0.673012
vn -0.529880 -0.303291 -0.791986
vn -0.453707 -0.578235 -0.678081
vn -0.453707 -0.578235 -0.678081
vn -0.529880 -0.303291 -0.791986
vn -0.364657 -0.303294 -0.880362
vn -0.312217 -0.578243 -0.753761
vn -0.312217 -0.578243 -0.753761
vn -0.364657 -0.303294 -0.880362
vn -0.185901 -0.303294 -0.934587
vn -0.159167 -0.578243 -0.800188
vn -0.159167 -0.578243 -0.800188
vn -0.185901 -0.303294 -0.934587
vn -0.093443 -0.301966 -0.948728
vn -0.080097 -0.576384 -0.813244
vn -0.425831 -0.798949 -0.424674
vn -0.577617 -0.578244 -0.576188
vn -0.453707 -0.578235 -0.678081
vn -0.334482 -0.798933 -0.499828
vn -0.334482 -0.798933 -0.499828
vn -0.453707 -0.578235 -0.678081
vn -0.312217 -0.578243 -0.753761
vn -0.230147 -0.798946 -0.555624
vn -0.230147 -0.798946 -0.555624
vn -0.312217 -0.578243 -0.753761
vn -0.159167 -0.578243 -0.800188
vn -0.117328 -0.798946 -0.589847
vn -0.117328 -0.798946 -0.589847
vn -0.159167 -0.578243 -0.800188
vn -0.080097 -0.576384 -0.813244
vn -0.059129 -0.797548 -0.600350
vn -0.233170 -0.944245 -0.232450
vn -0.425831 -0.798949 -0.424674
vn -0.334482 -0.798933 -0.499828
vn -0.183165 -0.944227 -0.273654
vn -0.183165 -0.944227 -0.273654
vn -0.334482 -0.798933 -0.499828
vn -0.230147 -0.798946 -0.555624
vn -0.125999 -0.944243 -0.304188
vn -0.125999 -0.944243 -0.304188
vn -0.230147 -0.798946 -0.555624
vn -0.117328 -0.798946 -0.589847
vn -0.064234 -0.944242 -0.322925
vn -0.064234 -0.944242 -0.322925
vn -0.117328 -0.798946 -0.589847
vn -0.059129 -0.797548 -0.600350
vn -0.032410 -0.943747 -0.329077
vn -0.017516 -0.999694 -0.017465
vn -0.233170 -0.944245 -0.232450
vn -0.183165 -0.944227 -0.273654
vn -0.013814 -0.999692 -0.020641
vn -0.013814 -0.999692 -0.020641
vn -0.183165 -0.944227 -0.273654
vn -0.125999 -0.944243 -0.304188
vn -0.009471 -0.999694 -0.022864
vn -0.009471 -0.999694 -0.022864
vn -0.125999 -0.944243 -0.304188
vn -0.064234 -0.944242 -0.322925
vn -0.004828 -0.999694 -0.024272
vn -0.004828 -0.999694 -0.024272
vn -0.064234 -0.944242 -0.322925
vn -0.032410 -0.943747 -0.329077
vn -0.002437 -0.999691 -0.024748
vn 1.000000 0.000000 0.000000
vn 1.000000 0.000000 0.000000
vn 1.000000 0.000000 0.000000
vn 1.000000 0.000000 0.000000
vn 1.000000 -0.000002 0.000000
vn 1.000000 -0.000002 0.000000
vn 1.000000 -0.000002 0.000000
vn 1.000000 -0.000002 0.000000
vn 1.000000 -0.000002 0.000000
vn 1.000000 -0.000002 0.000000
vn 1.000000 -0.000002 0.000000
vn 1.000000 -0.000002 0.000000
vn 1.000000 0.000000 0.000000
vn 1.000000 0.000000 0.000000
vn 1.000000 0.000000 0.000000
vn 1.000000 0.000000 0.000000
vn 1.000000 -0.000002 0.000000
vn 1.000000 -0.000002 0.000000
vn 1.000000 -0.000002 0.000000
vn 1.000000 -0.000002 0.000000
vn 1.000000 0.000002 0.000000
vn 1.000000 0.000002 0.000000
vn 1.000000 0.000002 0.000000
vn 1.000000 0.000002 0.000000
vn 1.000000 -0.000002 0.000000
vn 1.000000 -0.000002 0.000000
vn 1.000000 -0.000002 0.000000
vn 1.000000 -0.000002 0.000000
vn 1.000000 -0.000002 0.000000
vn 1.000000 -0.000002 0.000000
vn 1.000000 -0.000002 0.000000
vn 1.000000 -0.000002 0.000000
vn 1.000000 0.000000 0.000000
vn 1.000000 0.000000 0.000000
vn 1.000000 0.000000 0.000000
vn 1.000000 0.000000 0.000000
vn 1.000000 0.000000 0.000000
vn 1.000000 0.000000 0.000000
vn 1.000000 0.000000 0.000000
vn 1.000000 0.000000 0.000000
vn 1.000000 0.000000 0.000000
vn 1.000000 0.000000 0.000000
vn 1.000000 0.000000 0.000000
vn 1.000000 0.000000 0.000000
vn 1.000000 -0.000002 0.000000
vn 1.000000 -0.000002 0.000000
vn 1.000000 -0.000002 0.000000
vn 1.000000 -0.000002 0.000000
vn 1.000000 0.000002 0.000000
vn 1.000000 0.000002 0.000000
vn 1.000000 0.000002 0.000000
vn 1.000000 0.000002 0.000000
vn 1.000000 0.000000 0.000003
vn 1.000000 0.000000 0.000003
vn 1.000000 0.000000 0.000003
vn 1.000000 0.000000 0.000003
vn 1.000000 0.000002 0.000003
vn 1.000000 0.000002 0.000003
vn 1.000000 0.000002 0.000003
vn 1.000000 0.000002 0.000003
vn 1.000000 -0.000005 0.000000
vn 1.000000 -0.000005 0.000000
vn 1.000000 -0.000005 0.000000
vn 1.000000 -0.000005 0.000000
vn 1.000000 0.000005 0.000000
vn 1.000000 0.000005 0.000000
vn 1.000000 0.000005 0.000000
vn 1.000000 0.000005 0.000000
vn 1.000000 0.000002 0.000000
vn 1.000000 0.000002 0.000000
vn 1.000000 0.000002 0.000000
vn 1.000000 0.000002 0.000000
vn 1.000000 0.000000 0.000000
vn 1.000000 0.000000 0.000000
vn 1.000000 0.000000 0.000000
vn 1.000000 0.000000 0.000000
vn 1.000000 0.000000 0.000000
vn 1.000000 0.000000 0.000000
vn 1.000000 0.000000 0.000000
vn 1.000000 0.000000 0.000000
vn -0.000009 0.000000 1.000000
vn -0.000009 0.000000 1.000000
vn -0.000009 0.000000 1.000000
vn -0.000009 0.000000 1.000000
vn 0.000000 0.000000 1.000000
vn 0.000000 0.000000 1.000000
vn 0.000000 0.000000 1.000000
vn 0.000000 0.000000 1.000000
vn 0.000000 0.000000 1.000000
vn 0.000000 0.000000 1.000000
vn 0.000000 0.000000 1.000000
vn 0.000000 0.000000 1.000000
vn 0.000000 0.000000 1.000000
vn 0.000000 0.000000 1.000000
vn 0.000000 0.000000 1.000000
vn 0.000000 0.000000 1.000000
vn -0.000005 0.000000 1.000000
vn -0.000005 0.000000 1.000000
vn -0.000005 0.000000 1.000000
vn -0.000005 0.000000 1.000000
vn -0.000005 0.000000 1.000000
vn -0.000005 0.000000 1.000000
vn -0.000005 0.000000 1.000000
vn -0.000005 0.000000 1.000000
vn 0.000014 0.000000 1.000000
vn 0.000014 0.000000 1.000000
vn 0.000014 0.000000 1.000000
vn 0.000014 0.000000 1.000000
vn 0.000011 0.000000 1.000000
vn 0.000011 0.000000 1.000000
vn 0.000011 0.000000 1.000000
vn 0.000011 0.000000 1.000000
vn 0.000000 0.000000 1.000000
vn 0.000000 0.000000 1.000000
vn 0.000000 0.000000 1.000000
vn 0.000000 0.000000 1.000000
vn 0.000007 0.000000 1.000000
vn 0.000007 0.000000 1.000000
vn 0.000007 0.000000 1.000000
vn 0.000007 0.000000 1.000000
vn 0.000005 0.000000 1.000000
vn 0.000005 0.000000 1.000000
vn 0.000005 0.000000 1.000000
vn 0.000005 0.000000 1.000000
vn 0.000005 0.000000 1.000000
vn 0.000005 0.000000 1.000000
vn 0.000005 0.000000 1.000000
vn 0.000005 0.000000 1.000000
vn 0.000000 0.000000 1.000000
vn 0.000000 0.000000 1.000000
vn 0.000000 0.000000 1.000000
vn 0.000000 0.000000 1.000000
vn 0.000000 0.000000 1.000000
vn 0.000000 0.000000 1.000000
vn 0.000000 0.000000 1.000000
vn 0.000000 0.000000 1.000000
vn 0.000000 0.000000 1.000000
vn 0.000000 0.000000 1.000000
vn 0.000000 0.000000 1.000000
vn 0.000000 0.000000 1.000000
vn 0.000009 0.000000 1.000000
vn 0.000009 0.000000 1.000000
vn 0.000009 0.000000 1.000000
vn 0.000009 0.000000 1.000000
vn -0.000014 0.000000 1.000000
vn -0.000014 0.000000 1.000000
vn -0.000014 0.000000 1.000000
vn -0.000014 0.000000 1.000000
vn -0.000011 0.000000 1.000000
vn -0.000011 0.000000 1.000000
vn -0.000011 0.000000 1.000000
vn -0.000011 0.000000 1.000000
vn 0.000000 0.000000 1.000000
vn 0.000000 0.000000 1.000000
vn 0.000000 0.000000 1.000000
vn 0.000000 0.000000 1.000000
vn -0.000007 0.000000 1.000000
vn -0.000007 0.000000 1.000000
vn -0.000007 0.000000 1.000000
vn -0.000007 0.000000 1.000000
vn -0.215216 0.810291 -0.545079
vn -0.244217 0.805995 -0.539194
vn -0.180565 0.946662 -0.266883
vn -0.142328 0.951128 -0.274042
vn -0.278356 0.588733 -0.758888
vn -0.302838 0.584701 -0.752605
vn -0.244217 0.805995 -0.539194
vn -0.215216 0.810291 -0.545079
vn -0.322567 0.309233 -0.894609
vn -0.345607 0.306583 -0.886884
vn -0.302838 0.584701 -0.752605
vn -0.278356 0.588733 -0.758888
vn -0.338681 0.000000 -0.940901
vn -0.361480 0.000000 -0.932380
vn -0.345607 0.306583 -0.886884
vn -0.322567 0.309233 -0.894609
vn -0.322566 -0.309231 -0.894610
vn -0.345606 -0.306580 -0.886885
vn -0.361480 0.000000 -0.932380
vn -0.338681 0.000000 -0.940901
vn -0.278361 -0.588732 -0.758887
vn -0.302846 -0.584698 -0.752604
vn -0.345606 -0.306580 -0.886885
vn -0.322566 -0.309231 -0.894610
vn -0.215221 -0.810292 -0.545075
vn -0.244224 -0.805995 -0.539191
vn -0.302846 -0.584698 -0.752604
vn -0.278361 -0.588732 -0.758887
vn -0.142330 -0.951127 -0.274043
vn -0.180568 -0.946662 -0.266884
vn -0.244224 -0.805995 -0.539191
vn -0.215221 -0.810292 -0.545075
vn -0.067195 -0.997390 0.026427
vn -0.119375 -0.992203 0.035830
vn -0.180568 -0.946662 -0.266884
vn -0.142330 -0.951127 -0.274043
vn 0.003928 -0.945453 0.325736
vn -0.065165 -0.939192 0.337153
vn -0.119375 -0.992203 0.035830
vn -0.067195 -0.997390 0.026427
vn 0.065607 -0.801607 0.594241
vn -0.020703 -0.794746 0.606589
vn -0.065165 -0.939192 0.337153
vn 0.003928 -0.945453 0.325736
vn 0.113248 -0.580795 0.806134
vn 0.012213 -0.574698 0.818274
vn -0.020703 -0.794746 0.606589
vn 0.065607 -0.801607 0.594241
vn 0.143320 -0.304787 0.941575
vn 0.032411 -0.301155 0.953024
vn 0.012213 -0.574698 0.818274
vn 0.113248 -0.580795 0.806134
vn 0.153599 0.000000 0.988133
vn 0.039216 0.000000 0.999231
vn 0.032411 -0.301155 0.953024
vn 0.143320 -0.304787 0.941575
vn 0.143321 0.304788 0.941575
vn 0.032412 0.301157 0.953024
vn 0.039216 0.000000 0.999231
vn 0.153599 0.000000 0.988133
vn 0.113251 0.580795 0.806134
vn 0.012218 0.574699 0.818273
vn 0.032412 0.301157 0.953024
vn 0.143321 0.304788 0.941575
vn 0.065611 0.801605 0.594243
vn -0.020696 0.794745 0.606591
vn 0.012218 0.574699 0.818273
vn 0.113251 0.580795 0.806134
vn 0.003931 0.945452 0.325737
vn -0.065160 0.939192 0.337154
vn -0.020696 0.794745 0.606591
vn 0.065611 0.801605 0.594243
vn -0.067193 0.997390 0.026426
vn -0.119371 0.992203 0.035828
vn -0.065160 0.939192 0.337154
vn 0.003931 0.945452 0.325737
vn -0.142328 0.951128 -0.274042
vn -0.180565 0.946662 -0.266883
vn -0.119371 0.992203 0.035828
vn -0.067193 0.997390 0.026426
s off
g Pipe_Corner
usemtl initialShadingGroup
f 2/1/1 1/2/2 141/3/3 142/4/4
f 2/1/5 4/5/6 3/6/7 1/2/8
f 4/5/9 6/7/10 5/8/11 3/6/12
f 6/7/13 8/9/14 7/10/15 5/8/16
f 9/11/17 2/1/18 142/4/19 143/12/20
f 9/11/21 10/13/22 4/5/23 2/1/24
f 10/13/25 11/14/26 6/7/27 4/5/28
f 11/14/29 12/15/30 8/9/31 6/7/32
f 13/16/33 9/11/34 143/12/35 144/17/36
f 13/16/37 14/18/38 10/13/39 9/11/40
f 14/18/41 15/19/42 11/14/43 10/13/44
f 15/19/45 16/20/46 12/15/47 11/14/48
f 17/21/49 13/16/50 144/17/51 145/22/52
f 17/21/53 18/23/54 14/18/55 13/16/56
f 18/23/57 19/24/58 15/19/59 14/18/60
f 19/24/61 20/25/62 16/20/63 15/19/64
f 21/26/65 17/21/66 145/22/67 146/27/68
f 21/26/69 22/28/70 18/23/71 17/21/72
f 22/28/73 23/29/74 19/24/75 18/23/76
f 23/29/77 24/30/78 20/25/79 19/24/80
f 25/31/81 21/32/82 146/33/83 147/34/84
f 25/31/85 26/35/86 22/36/87 21/32/88
f 26/35/89 27/37/90 23/38/91 22/36/92
f 27/37/93 28/39/94 24/40/95 23/38/96
f 29/41/97 25/31/98 147/34/99 148/42/100
f 29/41/101 30/43/102 26/35/103 25/31/104
f 30/43/105 31/44/106 27/37/107 26/35/108
f 31/44/109 32/45/110 28/39/111 27/37/112
f 33/46/113 29/41/114 148/42/115 149/47/116
f 33/46/117 34/48/118 30/43/119 29/41/120
f 34/48/121 35/49/122 31/44/123 30/43/124
f 35/49/125 36/50/126 32/45/127 31/44/128
f 37/51/129 33/46/130 149/47/131 150/52/132
f 37/51/133 38/53/134 34/48/135 33/46/136
f 38/53/137 39/54/138 35/49/139 34/48/140
f 39/54/141 40/55/142 36/50/143 35/49/144
f 41/56/145 37/51/146 150/52/147 151/57/148
f 41/56/149 42/58/150 38/53/151 37/51/152
f 42/58/153 43/59/154 39/54/155 38/53/156
f 43/59/157 44/60/158 40/55/159 39/54/160
f 45/61/161 41/56/162 151/57/163 152/62/164
f 45/61/165 46/63/166 42/58/167 41/56/168
f 46/63/169 47/64/170 43/59/171 42/58/172
f 47/64/173 48/65/174 44/60/175 43/59/176
f 49/66/177 45/61/178 152/62/179 153/67/180
f 49/66/181 50/68/182 46/63/183 45/61/184
f 50/68/185 51/69/186 47/64/187 46/63/188
f 51/69/189 52/70/190 48/65/191 47/64/192
f 53/71/193 49/66/194 153/67/195 154/72/196
f 53/71/197 54/73/198 50/68/199 49/66/200
f 54/73/201 55/74/202 51/69/203 50/68/204
f 55/74/205 56/75/206 52/70/207 51/69/208
f 57/76/209 53/71/210 154/72/211 155/77/212
f 57/76/213 58/78/214 54/73/215 53/71/216
f 58/78/217 59/79/218 55/74/219 54/73/220
f 59/79/221 60/80/222 56/75/223 55/74/224
f 61/81/225 57/76/226 155/77/227 156/82/228
f 61/81/229 62/83/230 58/78/231 57/76/232
f 62/83/233 63/84/234 59/79/235 58/78/236
f 63/84/237 64/85/238 60/80/239 59/79/240
f 65/86/241 61/81/242 156/82/243 157/87/244
f 65/86/245 66/88/246 62/83/247 61/81/248
f 66/88/249 67/89/250 63/84/251 62/83/252
f 67/89/253 68/90/254 64/85/255 63/84/256
f 69/91/257 65/86/258 157/87/259 158/92/260
f 69/91/261 70/93/262 66/88/263 65/86/264
f 70/93/265 71/94/266 67/89/267 66/88/268
f 71/94/269 72/95/270 68/90/271 67/89/272
f 73/96/273 69/91/274 158/92/275 159/97/276
f 73/96/277 74/98/278 70/93/279 69/91/280
f 74/98/281 75/99/282 71/94/283 70/93/284
f 75/99/285 76/100/286 72/95/287 71/94/288
f 77/101/289 73/96/290 159/97/291 160/102/292
f 77/101/293 78/103/294 74/98/295 73/96/296
f 78/103/297 79/104/298 75/99/299 74/98/300
f 79/104/301 80/105/302 76/100/303 75/99/304
f 1/2/305 77/101/306 160/102/307 141/3/308
f 1/2/309 3/6/310 78/103/311 77/101/312
f 3/6/313 5/8/314 79/104/315 78/103/316
f 5/8/317 7/10/318 80/105/319 79/104/320
f 8/9/321 82/106/322 81/107/323 7/10/324
f 82/106/325 84/108/326 83/109/327 81/107/328
f 84/108/329 86/110/330 85/111/331 83/109/332
f 12/15/333 87/112/334 82/106/335 8/9/336
f 87/112/337 88/113/338 84/108/339 82/106/340
f 88/113/341 89/114/342 86/110/343 84/108/344
f 16/20/345 90/115/346 87/112/347 12/15/348
f 90/115/349 91/116/350 88/113/351 87/112/352
f 91/116/353 92/117/354 89/114/355 88/113/356
f 20/25/357 93/118/358 90/115/359 16/20/360
f 93/118/361 94/119/362 91/116/363 90/115/364
f 94/119/365 95/120/366 92/117/367 91/116/368
f 24/30/369 96/121/370 93/118/371 20/25/372
f 96/121/373 97/122/374 94/119/375 93/118/376
f 97/122/377 98/123/378 95/120/379 94/119/380
f 28/39/381 99/124/382 96/125/383 24/40/384
f 99/124/385 100/126/386 97/127/387 96/125/388
f 100/126/389 101/128/390 98/129/391 97/127/392
f 32/45/393 102/130/394 99/124/395 28/39/396
f 102/130/397 103/131/398 100/126/399 99/124/400
f 103/131/401 104/132/402 101/128/403 100/126/404
f 36/50/405 105/133/406 102/130/407 32/45/408
f 105/133/409 106/134/410 103/131/411 102/130/412
f 106/134/413 107/135/414 104/132/415 103/131/416
f 40/55/417 108/136/418 105/133/419 36/50/420
f 108/136/421 109/137/422 106/134/423 105/133/424
f 109/137/425 110/138/426 107/135/427 106/134/428
f 44/60/429 111/139/430 108/136/431 40/55/432
f 111/139/433 112/140/434 109/137/435 108/136/436
f 112/140/437 113/141/438 110/138/439 109/137/440
f 48/65/441 114/142/442 111/139/443 44/60/444
f 114/142/445 115/143/446 112/140/447 111/139/448
f 115/143/449 116/144/450 113/141/451 112/140/452
f 52/70/453 117/145/454 114/142/455 48/65/456
f 117/145/457 118/146/458 115/143/459 114/142/460
f 118/146/461 119/147/462 116/144/463 115/143/464
f 56/75/465 120/148/466 117/145/467 52/70/468
f 120/148/469 121/149/470 118/146/471 117/145/472
f 121/149/473 122/150/474 119/147/475 118/146/476
f 60/80/477 123/151/478 120/148/479 56/75/480
f 123/151/481 124/152/482 121/149/483 120/148/484
f 124/152/485 125/153/486 122/150/487 121/149/488
f 64/85/489 126/154/490 123/151/491 60/80/492
f 126/154/493 127/155/494 124/152/495 123/151/496
f 127/155/497 128/156/498 125/153/499 124/152/500
f 68/90/501 129/157/502 126/154/503 64/85/504
f 129/157/505 130/158/506 127/155/507 126/154/508
f 130/158/509 131/159/510 128/156/511 127/155/512
f 72/95/513 132/160/514 129/157/515 68/90/516
f 132/160/517 133/161/518 130/158/519 129/157/520
f 133/161/521 134/162/522 131/159/523 130/158/524
f 76/100/525 135/163/526 132/160/527 72/95/528
f 135/163/529 136/164/530 133/161/531 132/160/532
f 136/164/533 137/165/534 134/162/535 133/161/536
f 80/105/537 138/166/538 135/163/539 76/100/540
f 138/166/541 139/167/542 136/164/543 135/163/544
f 139/167/545 140/168/546 137/165/547 136/164/548
f 7/10/549 81/107/550 138/166/551 80/105/552
f 81/107/553 83/109/554 139/167/555 138/166/556
f 83/109/557 85/111/558 140/168/559 139/167/560
f 162/169/561 161/170/562 181/171/563 185/172/564
f 185/172/565 181/171/566 182/173/567 186/174/568
f 186/174/569 182/173/570 183/175/571 187/176/572
f 187/176/573 183/175/574 184/177/575 188/178/576
f 163/179/577 162/169/578 185/172/579 189/180/580
f 189/180/581 185/172/582 186/174/583 190/181/584
f 190/181/585 186/174/586 187/176/587 191/182/588
f 191/182/589 187/176/590 188/178/591 192/183/592
f 164/184/593 163/179/594 189/180/595 193/185/596
f 193/185/597 189/180/598 190/181/599 194/186/600
f 194/186/601 190/181/602 191/182/603 195/187/604
f 195/187/605 191/182/606 192/183/607 196/188/608
f 165/189/609 164/184/610 193/185/611 197/190/612
f 197/190/613 193/185/614 194/186/615 198/191/616
f 198/191/617 194/186/618 195/187/619 199/192/620
f 199/192/621 195/187/622 196/188/623 200/193/624
f 166/194/625 165/189/626 197/190/627 201/195/628
f 201/195/629 197/190/630 198/191/631 202/196/632
f 202/196/633 198/191/634 199/192/635 203/197/636
f 203/197/637 199/192/638 200/193/639 204/198/640
f 167/199/641 166/194/642 201/195/643 205/200/644
f 205/200/645 201/195/646 202/196/647 206/201/648
f 206/201/649 202/196/650 203/197/651 207/202/652
f 207/202/653 203/197/654 204/198/655 208/203/656
f 168/204/657 167/199/658 205/200/659 209/205/660
f 209/205/661 205/200/662 206/201/663 210/206/664
f 210/206/665 206/201/666 207/202/667 211/207/668
f 211/207/669 207/202/670 208/203/671 212/208/672
f 169/209/673 168/204/674 209/205/675 213/210/676
f 213/210/677 209/205/678 210/206/679 214/211/680
f 214/211/681 210/206/682 211/207/683 215/212/684
f 215/212/685 211/207/686 212/208/687 216/213/688
f 170/214/689 169/209/690 213/210/691 217/215/692
f 217/215/693 213/210/694 214/211/695 218/216/696
f 218/216/697 214/211/698 215/212/699 219/217/700
f 219/217/701 215/212/702 216/213/703 220/218/704
f 171/219/705 170/214/706 217/215/707 221/220/708
f 221/220/709 217/215/710 218/216/711 222/221/712
f 222/221/713 218/216/714 219/217/715 223/222/716
f 223/222/717 219/217/718 220/218/719 224/223/720
f 172/224/721 171/219/722 221/220/723 225/225/724
f 225/225/725 221/220/726 222/221/727 226/226/728
f 226/226/729 222/221/730 223/222/731 227/227/732
f 227/227/733 223/222/734 224/223/735 228/228/736
f 173/229/737 172/224/738 225/225/739 229/230/740
f 229/230/741 225/225/742 226/226/743 230/231/744
f 230/231/745 226/226/746 227/227/747 231/232/748
f 231/232/749 227/227/750 228/228/751 232/233/752
f 174/234/753 173/229/754 229/230/755 233/235/756
f 233/235/757 229/230/758 230/231/759 234/236/760
f 234/236/761 230/231/762 231/232/763 235/237/764
f 235/237/765 231/232/766 232/233/767 236/238/768
f 175/239/769 174/234/770 233/235/771 237/240/772
f 237/240/773 233/235/774 234/236/775 238/241/776
f 238/241/777 234/236/778 235/237/779 239/242/780
f 239/242/781 235/237/782 236/238/783 240/243/784
f 176/244/785 175/239/786 237/240/787 241/245/788
f 241/245/789 237/240/790 238/241/791 242/246/792
f 242/246/793 238/241/794 239/242/795 243/247/796
f 243/247/797 239/242/798 240/243/799 244/248/800
f 177/249/801 176/250/802 241/251/803 245/252/804
f 245/252/805 241/251/806 242/253/807 246/254/808
f 246/254/809 242/253/810 243/255/811 247/256/812
f 247/256/813 243/255/814 244/257/815 248/258/816
f 178/259/817 177/249/818 245/252/819 249/260/820
f 249/260/821 245/252/822 246/254/823 250/261/824
f 250/261/825 246/254/826 247/256/827 251/262/828
f 251/262/829 247/256/830 248/258/831 252/263/832
f 179/264/833 178/259/834 249/260/835 253/265/836
f 253/265/837 249/260/838 250/261/839 254/266/840
f 254/266/841 250/261/842 251/262/843 255/267/844
f 255/267/845 251/262/846 252/263/847 256/268/848
f 180/269/849 179/264/850 253/265/851 257/270/852
f 257/270/853 253/265/854 254/266/855 258/271/856
f 258/271/857 254/266/858 255/267/859 259/272/860
f 259/272/861 255/267/862 256/268/863 260/273/864
f 161/170/865 180/269/866 257/270/867 181/171/868
f 181/171/869 257/270/870 258/271/871 182/173/872
f 182/173/873 258/271/874 259/272/875 183/175/876
f 183/175/877 259/272/878 260/273/879 184/177/880
f 188/178/881 184/177/882 261/274/883 265/275/884
f 265/275/885 261/274/886 262/276/887 266/277/888
f 266/277/889 262/276/890 263/278/891 267/279/892
f 267/279/893 263/278/894 264/280/895 268/281/896
f 192/183/897 188/178/898 265/275/899 271/282/900
f 271/282/901 265/275/902 266/277/903 272/283/904
f 272/283/905 266/277/906 267/279/907 273/284/908
f 273/284/909 267/279/910 268/281/911 274/285/912
f 196/188/913 192/183/914 271/282/915 276/286/916
f 276/286/917 271/282/918 272/283/919 277/287/920
f 277/287/921 272/283/922 273/284/923 278/288/924
f 278/288/925 273/284/926 274/285/927 279/289/928
f 200/193/929 196/188/930 276/286/931 281/290/932
f 281/290/933 276/286/934 277/287/935 282/291/936
f 282/291/937 277/287/938 278/288/939 283/292/940
f 283/292/941 278/288/942 279/289/943 284/293/944
f 204/198/945 200/193/946 281/290/947 286/294/948
f 286/294/949 281/290/950 282/291/951 287/295/952
f 287/295/953 282/291/954 283/292/955 288/296/956
f 288/296/957 283/292/958 284/293/959 289/297/960
f 208/203/961 204/198/962 286/294/963 291/298/964
f 291/298/965 286/294/966 287/295/967 292/299/968
f 292/299/969 287/295/970 288/296/971 293/300/972
f 293/300/973 288/296/974 289/297/975 294/301/976
f 212/208/977 208/203/978 291/298/979 296/302/980
f 296/302/981 291/298/982 292/299/983 297/303/984
f 297/303/985 292/299/986 293/300/987 298/304/988
f 298/304/989 293/300/990 294/301/991 299/305/992
f 216/213/993 212/208/994 296/302/995 301/306/996
f 301/306/997 296/302/998 297/303/999 302/307/1000
f 302/307/1001 297/303/1002 298/304/1003 303/308/1004
f 303/308/1005 298/304/1006 299/305/1007 304/309/1008
f 220/218/1009 216/213/1010 301/306/1011 306/310/1012
f 306/310/1013 301/306/1014 302/307/1015 307/311/1016
f 307/311/1017 302/307/1018 303/308/1019 308/312/1020
f 308/312/1021 303/308/1022 304/309/1023 309/313/1024
f 224/223/1025 220/218/1026 306/310/1027 311/314/1028
f 311/314/1029 306/310/1030 307/311/1031 312/315/1032
f 312/315/1033 307/311/1034 308/312/1035 313/316/1036
f 313/316/1037 308/312/1038 309/313/1039 314/317/1040
f 228/228/1041 224/223/1042 311/314/1043 316/318/1044
f 316/318/1045 311/314/1046 312/315/1047 317/319/1048
f 317/319/1049 312/315/1050 313/316/1051 318/320/1052
f 318/320/1053 313/316/1054 314/317/1055 319/321/1056
f 232/233/1057 228/228/1058 316/318/1059 321/322/1060
f 321/322/1061 316/318/1062 317/319/1063 322/323/1064
f 322/323/1065 317/319/1066 318/320/1067 323/324/1068
f 323/324/1069 318/320/1070 319/321/1071 324/325/1072
f 236/238/1073 232/233/1074 321/322/1075 326/326/1076
f 326/326/1077 321/322/1078 322/323/1079 327/327/1080
f 327/327/1081 322/323/1082 323/324/1083 328/328/1084
f 328/328/1085 323/324/1086 324/325/1087 329/329/1088
f 240/243/1089 236/238/1090 326/326/1091 331/330/1092
f 331/330/1093 326/326/1094 327/327/1095 332/331/1096
f 332/331/1097 327/327/1098 328/328/1099 333/332/1100
f 333/332/1101 328/328/1102 329/329/1103 334/333/1104
f 244/248/1105 240/243/1106 331/330/1107 336/334/1108
f 336/334/1109 331/330/1110 332/331/1111 337/335/1112
f 337/335/1113 332/331/1114 333/332/1115 338/336/1116
f 338/336/1117 333/332/1118 334/333/1119 339/337/1120
f 248/258/1121 244/257/1122 336/338/1123 341/339/1124
f 341/339/1125 336/338/1126 337/340/1127 342/341/1128
f 342/341/1129 337/340/1130 338/342/1131 343/343/1132
f 343/343/1133 338/342/1134 339/344/1135 344/345/1136
f 252/263/1137 248/258/1138 341/339/1139 346/346/1140
f 346/346/1141 341/339/1142 342/341/1143 347/347/1144
f 347/347/1145 342/341/1146 343/343/1147 348/348/1148
f 348/348/1149 343/343/1150 344/345/1151 349/349/1152
f 256/268/1153 252/263/1154 346/346/1155 351/350/1156
f 351/350/1157 346/346/1158 347/347/1159 352/351/1160
f 352/351/1161 347/347/1162 348/348/1163 353/352/1164
f 353/352/1165 348/348/1166 349/349/1167 354/353/1168
f 260/273/1169 256/268/1170 351/350/1171 356/354/1172
f 356/354/1173 351/350/1174 352/351/1175 357/355/1176
f 357/355/1177 352/351/1178 353/352/1179 358/356/1180
f 358/356/1181 353/352/1182 354/353/1183 359/357/1184
f 184/177/1185 260/273/1186 356/354/1187 261/274/1188
f 261/274/1189 356/354/1190 357/355/1191 262/276/1192
f 262/276/1193 357/355/1194 358/356/1195 263/278/1196
f 263/278/1197 358/356/1198 359/357/1199 264/280/1200
f 309/358/1201 304/359/1202 305/360/1203 310/361/1204
f 304/359/1205 299/362/1206 300/363/1207 305/360/1208
f 299/362/1209 294/364/1210 295/365/1211 300/363/1212
f 294/364/1213 289/366/1214 290/367/1215 295/365/1216
f 289/366/1217 284/368/1218 285/369/1219 290/367/1220
f 284/368/1221 279/370/1222 280/371/1223 285/369/1224
f 279/370/1225 274/372/1226 275/373/1227 280/371/1228
f 274/372/1229 268/374/1230 270/375/1231 275/373/1232
f 268/374/1233 264/376/1234 269/377/1235 270/375/1236
f 264/376/1237 359/378/1238 360/379/1239 269/377/1240
f 359/378/1241 354/380/1242 355/381/1243 360/379/1244
f 354/380/1245 349/382/1246 350/383/1247 355/381/1248
f 349/382/1249 344/384/1250 345/385/1251 350/383/1252
f 344/384/1253 339/386/1254 340/387/1255 345/385/1256
f 339/386/1257 334/388/1258 335/389/1259 340/387/1260
f 334/388/1261 329/390/1262 330/391/1263 335/389/1264
f 329/390/1265 324/392/1266 325/393/1267 330/391/1268
f 324/392/1269 319/394/1270 320/395/1271 325/393/1272
f 319/394/1273 314/396/1274 315/397/1275 320/395/1276
f 314/396/1277 309/358/1278 310/361/1279 315/397/1280
f 153/398/1281 152/399/1282 172/400/1283 173/401/1284
f 152/399/1285 151/402/1286 171/403/1287 172/400/1288
f 151/402/1289 150/404/1290 170/405/1291 171/403/1292
f 150/404/1293 149/406/1294 169/407/1295 170/405/1296
f 149/406/1297 148/408/1298 168/409/1299 169/407/1300
f 148/408/1301 147/410/1302 167/411/1303 168/409/1304
f 154/412/1305 153/398/1306 173/401/1307 174/413/1308
f 155/414/1309 154/412/1310 174/413/1311 175/415/1312
f 156/416/1313 155/414/1314 175/415/1315 176/417/1316
f 157/418/1317 156/416/1318 176/417/1319 177/419/1320
f 158/420/1321 157/418/1322 177/419/1323 178/421/1324
f 159/422/1325 158/420/1326 178/421/1327 179/423/1328
f 160/424/1329 159/422/1330 179/423/1331 180/425/1332
f 141/426/1333 160/424/1334 180/425/1335 161/427/1336
f 142/428/1337 141/426/1338 161/427/1339 162/429/1340
f 143/430/1341 142/428/1342 162/429/1343 163/431/1344
f 144/432/1345 143/430/1346 163/431/1347 164/433/1348
f 145/434/1349 144/432/1350 164/433/1351 165/435/1352
f 146/436/1353 145/434/1354 165/435/1355 166/437/1356
f 147/410/1357 146/436/1358 166/437/1359 167/411/1360
f 89/114/1361 275/438/1362 270/439/1363 86/110/1364
f 92/117/1365 280/440/1366 275/438/1367 89/114/1368
f 95/120/1369 285/441/1370 280/440/1371 92/117/1372
f 98/123/1373 290/442/1374 285/441/1375 95/120/1376
f 101/128/1377 295/443/1378 290/444/1379 98/129/1380
f 104/132/1381 300/445/1382 295/443/1383 101/128/1384
f 107/135/1385 305/446/1386 300/445/1387 104/132/1388
f 110/138/1389 310/447/1390 305/446/1391 107/135/1392
f 113/141/1393 315/448/1394 310/447/1395 110/138/1396
f 116/144/1397 320/449/1398 315/448/1399 113/141/1400
f 119/147/1401 325/450/1402 320/449/1403 116/144/1404
f 122/150/1405 330/451/1406 325/450/1407 119/147/1408
f 125/153/1409 335/452/1410 330/451/1411 122/150/1412
f 128/156/1413 340/453/1414 335/452/1415 125/153/1416
f 131/159/1417 345/454/1418 340/453/1419 128/156/1420
f 134/162/1421 350/455/1422 345/454/1423 131/159/1424
f 137/165/1425 355/456/1426 350/455/1427 134/162/1428
f 140/168/1429 360/457/1430 355/456/1431 137/165/1432
f 85/111/1433 269/458/1434 360/457/1435 140/168/1436
f 86/110/1437 270/439/1438 269/458/1439 85/111/1440
